%!PS-Adobe-3.0 EPSF-3.0
%%Title: pd2530rl.ps
%%Creator: XCircuit v0.0 rev94771709
%%CreationDate: Sat Apr  1 23:33:13 2023
%%Pages: 1
%%BoundingBox: 68 68 932 752
%%DocumentNeededResources: font Helvetica Times-Roman Courier 
%%EndComments
%%BeginProlog
%
%  PostScript prolog for output from xcircuit
%  Version: 3.9
%
%  Electrical circuit (and otherwise general) drawing program
%
%  Written by Tim Edwards 8/5/93--4/12/16  (tim@opencircuitdesign.com)
%  The Johns Hopkins University (1993-2004)
%  MultiGiG, Inc. (2004-2012)
%  Open Circuit Design (2012-2016)
%
%%BeginResource: procset XCIRCproc 3.9 1
%
% supporting definitions --- these are the primary xcircuit types.

/XCIRCsave save def
/topmat matrix currentmatrix def

/fontslant { /slant exch def [1 0 slant 1 0 0] 
    exch findfont exch makefont dup length dict /ndict exch def
    { 1 index /FID ne { ndict 3 1 roll put } { pop pop } ifelse } forall
    ndict definefont pop} def
/ul { count 0 gt { dup type /stringtype eq showflag 1 eq and { gsave 
   currentpoint topmat setmatrix 0 0 moveto 2 index stringwidth pop (_)
   false charpath flattenpath pathbbox grestore exch pop 1 index
   sub setlinewidth exch pop currentpoint 3 -1 roll add moveto 0
   rlineto stroke moveto } if } if } def
/ol { count 0 gt { dup type /stringtype eq showflag 1 eq and { gsave gsave
   currentpoint topmat setmatrix 2 index stringwidth pop 3 index
   true charpath flattenpath pathbbox grestore exch pop
   exch pop topmat setmatrix (_) true charpath pathbbox grestore
   exch pop 1 index sub setlinewidth exch pop currentpoint
   exch 4 1 roll exch sub add moveto pop 0 rlineto stroke
   moveto } if } if } def
/stW { gsave currentpoint newpath moveto true charpath flattenpath
	pathbbox pop exch pop sub grestore } def
/Ts {mark Tabs aload pop counttomark 1 add array astore /Tabs exch def Tabs
	0 currentpoint pop put} def
/Tbn {mark Tabs aload pop counttomark dup 2 add 1 roll cleartomark 1 sub} def
/Tb { 0 1 Tbn {Tabs exch get dup currentpoint pop lt
	{currentpoint exch pop moveto exit} {pop} ifelse } for } def
/Tf { Tbn -1 0 {Tabs exch get dup currentpoint pop gt
	{currentpoint exch pop moveto exit} {pop} ifelse } for } def
/qS { (aa) stW (a a) stW sub 4 div 0 Kn } def
/hS { qS qS } def
/pspc 0 def
/cf0 { scalefont setfont } bind def
/Kn { dup kY add /kY exch def rmoveto } bind def
/ss { /fscale fscale 0.67 mul def currentfont 0.67 cf0 0 fscale0 fscale mul
	0.33 mul neg Kn} def
/Ss { /fscale fscale 0.67 mul def currentfont 0.67 cf0 0 fscale0 fscale mul
	0.67 mul Kn } def
/ns { 0 kY neg Kn /kY 0 def /fscale 1.0 def xfont0 1.0 cf0 } def
/MR { /twidth exch def } def
/CRx { } def
/CR { ns 0 /Bline Bline fscale0 neg add def Bline moveto CRx } def
/cf { dup type /realtype ne {1.0} if exch findfont exch kY 0 eq
	{ 40 mul dup /fscale0 exch def cf0 /xfont0 currentfont def}
	{fscale0 mul fscale mul cf0} ifelse } def
/ctmk { counttomark dup 2 add -1 roll pop } bind def
/label { gsave translate 0 0 moveto dup scale neg
	/rotval exch def /twidth 100000 def /just exch def just 128 and
	0 gt {/mshow {pop} def} {/mshow {show} def} ifelse just 16 and 0
	gt {gsave rotval rotate 0 1 dtransform gsave pagemat setmatrix
	idtransform exch grestore 1 0 dtransform gsave pagemat setmatrix
	idtransform exch grestore dup abs 1e-9 lt {pop mul 0 gt} {3 1 roll
	pop pop 0 lt} ifelse grestore {-1 /rotval rotval neg def /just just
	dup 3 and 1 ne {3 xor} if def} {1} ifelse exch -1e-9 lt {-1 /rotval
	rotval neg def /just just dup 12 and 4 ne {12 xor} if def} {1}
	ifelse scale } if /showflag 0 def /fspc pspc def /Bline 0 def
	/numlines 0 def /padding 0 array def /Tabs 0 array def
	/fscale 1.0 def /kY 0 def gsave /CRx { linewid padding
	aload pop numlines 1 add dup /numlines exch def array astore
	/padding exch def /linewid 0 def } def dup 1 add copy dup 1 0
	dtransform exch atan rotate {exch dup type /stringtype eq {gsave dup
	gsave newpath 0 0 moveto true charpath flattenpath pathbbox pop exch
	pop exch pop grestore currentpoint pop add dup /linewid exch def twidth
	ge {grestore CR exch 1 add dup 2 add {CR} exch 1 roll exch} {grestore}
	ifelse true charpath flattenpath} {dup type /arraytype eq {exec} {12
	string cvs true charpath flattenpath} ifelse} ifelse} repeat
	CRx /CRx {padding aload pop just 1280 and 0 gt {blockwid exch sub just
	1024 and 0 gt {0.5 mul} if} {pop 0} ifelse 0 rmoveto numlines 1 sub
	dup /numlines exch def array astore /padding exch def} def exch pop
	pathbbox grestore 4 copy pop exch pop exch sub /blockwid exch def
	3 -1 roll pop 3 1 roll just 1 and 0 gt {just 2 and
	0 gt {exch pop neg fspc sub} {exch sub 0.5 mul neg} ifelse} {pop neg
	fspc add} ifelse exch Bline exch just 4 and 0 gt {just 8 and 0 gt
	{exch pop neg fspc sub} {add 0.5 mul neg} ifelse} {pop neg fspc add}
	ifelse rotval rotate Kn currentpoint translate /showflag 1 def /Bline
	0 def /Tabs 0 array def /fscale 1.0 def /kY 0 def CRx {dup type
	/stringtype eq {mshow} {dup type /arraytype eq {exec} {12 string cvs
	mshow} ifelse} ifelse} repeat grestore endclip} def
/pinlabel { 4 index 32 and 0 ne hlevel 0 eq or { /pspc 10 def label
	/pspc 0 def } { pop pop pop pop pop {pop} repeat } ifelse } def
/pinglobal { pinlabel } def
/infolabel { pinlabel } def
/graphic { gsave 4 index cvx exec /DataSource get resetfile translate 0 0
	moveto neg rotate dup scale cvx exec image grestore endclip} def

/scb { setrgbcolor } bind def  /sce { defColor aload pop scb } bind def
/cRedef {/defColor currentcolor 3 array astore def} def
/begingate {dup type /dicttype ne {1 dict} if begin	% default params
	dup type /dicttype ne {1 dict} if begin		% instanced params
	/hlevel hlevel 1 add def /defColor currentcolor sce 3 array astore
	def gsave sce dup type /nametype eq { pop } if translate 0 0 moveto
	neg rotate dup type /nametype eq not { dup abs currentlinewidth exch
	div setlinewidth } { pop } ifelse dup abs scale clipped 1 and 1 eq
	{/clipped clipped 1 add def} if} bind def
/endgate { /hlevel hlevel 1 sub def grestore defColor aload pop cRedef
	scb end end endclip} bind def

/hlevel 0 def
/endclip {clipped 1 and 1 eq {grestore /clipped clipped 1 sub def} if} def
/tmpa [1 0 0 1 0 0] def
/gar {8 8 true tmpa {<c0 c0 00 00 0c 0c 00 00>} imagemask} bind
{8 8 true tmpa {<30 70 60 02 03 07 06 20>} imagemask} bind
{8 8 true tmpa {<0c 1e 1e 0c c0 e1 e1 c0>} imagemask} bind
{8 8 true tmpa {<0f 0f 0f 0f f0 f0 f0 f0>} imagemask} bind
{8 8 true tmpa {<3f f3 e1 e1 f3 3f 1e 1e>} imagemask} bind
{8 8 true tmpa {<df cf 8f 9f fd fc f8 f9>} imagemask} bind
{8 8 true tmpa {<ff 3f 3f ff ff f3 f3 ff>} imagemask} bind 7 array astore def
/ppaint { gsave clip tmpa dup setmatrix pathbbox neg exch neg 4 2 roll
  neg 4 -1 roll 2 copy gt {exch} if 8 div ceiling 8 mul 4 2 roll neg 2 copy
  gt {exch} if 8 div ceiling 8 mul 3 -1 roll -8 5 -1 roll
  { 3 index exch 5 exch put dup -8 3 index { 3 index
  exch 4 exch put 3 index exec } for } for pop pop pop pop grestore } bind def
/setstyles {
  currentlinewidth mul setlinewidth /style exch def style 2048 and 0 gt
  clipped 1 and 0 eq and {clip newpath /clipped clipped 1 add def} {
  style 1 and 0 gt not {closepath} if
  style 1024 and 0 gt {2 setlinecap 0 setlinejoin} if
  style 2 and 0 gt {currentlinewidth 4 mul dup 2 array astore 0 setdash} if
  style 4 and 0 gt {0.5 currentlinewidth 4 mul 2 array astore 0 setdash} if
  gsave style 16 and 0 gt { style 224 and -5 bitshift style 256 and 0 gt {
  7 exch sub 8 div dup 1 exch sub currentrgbcolor 3 array astore
  {3 copy mul add 4 1 roll pop} forall pop pop setrgbcolor eofill}
  {dup 7 lt {gar exch get ppaint} {pop eofill} ifelse} ifelse}
  {style 256 and 0 gt {1 setgray eofill} if} ifelse grestore style 8 and 0 gt 
  style 512 eq or {newpath} {stroke} ifelse grestore endclip} ifelse} def     

/addtoy {exch dup dup 2 mul 3 add 1 roll -1 1 { 4 1 roll dup 4 1 roll add
	4 -1 roll 2 mul 1 add index 2 mul 2 add 2 roll} for pop} def
/addtoy1 {1 exch addtoy pop} def
/addtoy3 {3 exch addtoy pop} def
/addtoy4 {4 exch addtoy pop} def
/addtox {exch dup dup 2 mul 3 add 1 roll -1 1 { 4 1 roll dup 4 1 roll 3 -1 roll
	add exch 4 -1 roll 2 mul 1 add index 2 mul 2 add 2 roll} for pop} def
/addtox1 {1 exch addtox pop} def
/addtox3 {3 exch addtox pop} def
/addtox4 {4 exch addtox pop} def
/polygon { gsave /num exch def moveto num 1 sub {lineto} repeat setstyles } def
/xcarc   { gsave newpath arc setstyles } def
/elb { matrix currentmatrix 7 -1 roll 7 -1 roll translate 5 1 roll 4 -1 roll
	3 index div 1 scale } def
/ele { 0 4 1 roll 0 4 1 roll } bind def
/ellipse { gsave elb newpath ele arc setmatrix setstyles } def
/pellip  { elb ele arc setmatrix } def
/nellip  { elb ele arcn setmatrix } def
/spline  { gsave moveto curveto setstyles } def
/polyc   { {lineto} repeat } bind def
/beginpath { gsave moveto } bind def
/endpath { setstyles } bind def
/bop	 { 1 setlinecap 2 setlinejoin 6 setmiterlimit 0 0 0 scb cRedef
	/clipped 0 def} def
/psinsertion {/PSobj save def /showpage {} def /setpagedevice {pop} def bop
	rotate translate dup scale} def
/end_insert {PSobj restore} def
/setpagemat {/pagemat matrix currentmatrix def} def
/inchscale  {setpagemat 0.375 mul dup scale} def
/cmscale    {setpagemat 0.35433071 mul dup scale} def

%%EndResource
%%EndProlog
% XCircuit output starts here.

%%BeginSetup

/generic::arrowhead {
% nonetwork
begingate
8 -28 beginpath
3 -18 3 -15 0 0 curveto
-3 -15 -3 -18 -8 -28 curveto
-2 -26 2 -26 8 -28 curveto
249 
1.000 endpath
endgate
} def

/generic::arrow {
% nonetwork
begingate
1 0.800 0 -40 0 20 2 polygon
1.000 -0.000 0 40 generic::arrowhead
endgate
} def

/generic::dot {
% trivial
begingate
248 1.000 0 0 6 0.000 360.000 xcarc
1.000 0.000 0.000 scb
(x) {/Times-Roman cf} 2 29 -0.000 1.000 0 0 pinlabel
endgate
} def

/digital::nand {
% trivial
begingate
1 1.000 0 -48 -64 -48 -64 48 0 48 4 polygon
1 1.000 56 0 8 0.000 360.000 xcarc
1 1.000 0 0 48 -90.000 90.000 xcarc
1.000 0.000 0.000 scb
(Out) {/Times-Roman cf} 2 4 0.000 1.000 64 0 pinlabel
(In.1) {/Times-Roman cf} 2 7 0.000 1.000 -64 32 pinlabel
(In.2) {/Times-Roman cf} 2 7 0.000 1.000 -64 -32 pinlabel
endgate
} def

/digital::buffer {
% trivial
begingate
0 1.000 -32 -40 -32 40 40 0 3 polygon
1 1.000 -32 0 -48 0 2 polygon
1 1.000 40 0 64 0 2 polygon
1.000 0.000 0.000 scb
(Out) {/Times-Roman cf} 2 4 0.000 1.000 64 0 pinlabel
(In) {/Times-Roman cf} 2 7 0.000 1.000 -48 0 pinlabel
endgate
} def

/generic::tap {
% trivial
<</@in (bus\(0:7\)) /@out (bus\(0\)) >> begingate
496 1.000 0 8 16 0 0 -8 3 polygon
1.000 0.000 0.000 scb
mark @out {/Helvetica cf} ctmk 20 -0.000 1.000 16 0 pinlabel
mark @in {/Helvetica cf} ctmk 23 -0.000 1.000 0 0 pinlabel
endgate
} def

/terminals::circle {
% trivial
begingate
1 1.000 16 0 6 0.000 360.000 xcarc
1 1.000 0 0 10 0 2 polygon
1.000 0.000 0.000 scb
(out) {/Times-Roman cf} 2 4 -0.000 1.000 16 0 pinlabel
(out) {/Times-Roman cf} 2 7 -0.000 1.000 0 0 pinlabel
endgate
} def

/switches::spdt {
begingate
1.000 90.000 -32 64 terminals::circle
1.000 90.000 32 64 terminals::circle
1.000 270.000 0 -64 terminals::circle
1 1.000 2 -42 26 48 2 polygon
1.000 0.000 0.000 scb
(sw.no) {/Times-Roman cf} 2 7 -0.000 1.000 -32 64 pinlabel
(sw.nc) {/Times-Roman cf} 2 7 -0.000 1.000 32 64 pinlabel
(sw.c) {/Times-Roman cf} 2 7 -0.000 1.000 0 -64 pinlabel
endgate
} def

/terminals::tap {
% trivial
<</@in (bus\(0:7\)) /@out (bus\(0\)) >> begingate
496 1.000 0 8 16 0 0 -8 3 polygon
1.000 0.000 0.000 scb
mark @out {/Helvetica cf} ctmk 20 -0.000 1.000 16 0 pinlabel
mark @in {/Helvetica cf} ctmk 23 -0.000 1.000 0 0 pinlabel
endgate
} def


%%EndSetup

%%Page: p1 1
%%PageOrientation: Portrait
/pgsave save def bop
1.0000 inchscale
2.6000 setlinewidth 1122 1424 translate

1.000 90.000 -624 448 generic::arrow
(CLK) {/Helvetica cf} 2 23 0.000 1.000 -688 448 label
(36 MHz) {/Helvetica cf} 2 16 0.000 1.000 -496 464 label
1 1.000 -576 448 -352 448 2 polygon
(Gang1+) {/Helvetica cf} 2 23 0.000 1.000 -688 352 label
(Gang1-) {/Helvetica cf} 2 23 0.000 1.000 -688 272 label
(Gang2+) {/Helvetica cf} 2 23 0.000 1.000 -688 176 label
(Gang2-) {/Helvetica cf} 2 23 0.000 1.000 -688 96 label
1.000 90.000 -624 352 generic::arrow
1.000 90.000 -624 272 generic::arrow
1.000 90.000 -624 176 generic::arrow
1.000 90.000 -624 96 generic::arrow
0 1.000 -512 368 -512 256 -224 256 -224 368 4 polygon
(Gang decode) {/Helvetica cf} 2 16 0.000 1.000 -496 384 label
1 1.000 -576 352 -512 352 2 polygon
1 1.000 -576 272 -512 272 2 polygon
(START) {/Helvetica cf} 2 23 0.000 1.000 -240 336 label
(STOP) {/Helvetica cf} 2 23 0.000 1.000 -240 288 label
(Gang decode) {/Helvetica cf} 2 16 0.000 1.000 -496 208 label
1 1.000 -576 176 -512 176 2 polygon
1 1.000 -576 96 -512 96 2 polygon
0 1.000 -512 192 -512 80 -224 80 -224 192 4 polygon
(STOP) {/Helvetica cf} 2 23 0.000 1.000 -240 112 label
(START) {/Helvetica cf} 2 23 0.000 1.000 -240 160 label
(LocalOsc) {/Helvetica cf} 2 23 0.000 1.000 -688 -160 label
(ExtOscIn+/-) {/Helvetica cf} 2 23 0.000 1.000 -688 -496 label
(Manchester) {/Helvetica cf} 2 20 0.000 1.000 -240 -480 label
(decode) {/Helvetica cf} 2 20 0.000 1.000 -240 -512 label
0 1.000 -256 -448 -256 -544 -16 -544 -16 -448 4 polygon
1.000 90.000 -624 -160 generic::arrow
1.000 90.000 -624 -496 generic::arrow
1 1.000 -576 -496 -256 -496 2 polygon
(encode) {/Helvetica cf} 2 20 0.000 1.000 -240 -304 label
(Manchester) {/Helvetica cf} 2 20 0.000 1.000 -240 -272 label
0 1.000 -256 -240 -256 -336 -16 -336 -16 -240 4 polygon
1 1.000 -576 -160 -32 -160 2 polygon
1 1.000 16 -160 16 -224 16 -224 16 -288 -16 -288 5 polygon
1.000 270.000 -624 -320 generic::arrow
(ExtOscOut+/-) {/Helvetica cf} 2 23 0.000 1.000 -688 -320 label
1 1.000 -304 -288 -256 -288 2 polygon
1.000 0.000 16 -160 generic::dot
1.000 0.000 -288 -496 generic::dot
0 1.000 176 368 176 32 288 32 288 368 4 polygon
(S) {/Helvetica cf} 2 20 0.000 1.000 192 288 label
(R) {/Helvetica cf} 2 20 0.000 1.000 192 112 label
(Q) {/Helvetica cf} 2 23 0.000 1.000 272 288 label
(Sync) {/Helvetica cf} 2 21 0.000 1.000 416 224 label
0 1.000 352 256 352 192 480 192 480 256 4 polygon
1 1.000 288 288 496 288 2 polygon
1 1.000 352 224 320 224 320 288 3 polygon
1.000 0.000 320 288 generic::dot
1 1.000 496 224 480 224 2 polygon
1 1.000 752 224 768 224 2 polygon
1.000 0.000 832 224 digital::nand
1 1.000 896 224 1008 224 2 polygon
1.000 90.000 1056 224 generic::arrow
(SourceInhibit) {/Helvetica cf} 2 20 0.000 1.000 1120 224 label
1.000 0.000 832 64 digital::nand
1 1.000 752 64 768 64 2 polygon
1 1.000 896 64 1008 64 2 polygon
1.000 90.000 1056 64 generic::arrow
(SinkInhibit) {/Helvetica cf} 2 20 0.000 1.000 1120 64 label
1.000 0.000 416 -272 generic::dot
1 1.000 416 -272 1008 -272 2 polygon
1.000 90.000 1056 -272 generic::arrow
(SetpointSel) {/Helvetica cf} 2 20 0.000 1.000 1120 -272 label
(Setpt) {/Courier 0.800 cf} 2 23 0.000 1.000 192 -240 label
-1.000 0.000 -496 -320 digital::buffer
1.000 270.000 -528 -352 generic::tap
-1.000 90.000 -368 -320 switches::spdt
1 1.000 -304 -352 -288 -352 -288 -496 3 polygon
-1.000 90.000 -352 -320 generic::tap
1 1.000 -432 -320 -448 -320 2 polygon
1.000 270.000 160 -304 switches::spdt
1 1.000 -32 -160 64 -160 64 -272 96 -272 4 polygon
1.000 270.000 288 -272 switches::spdt
1 1.000 96 -336 64 -336 64 -496 -16 -496 4 polygon
1 1.000 352 -272 416 -272 416 192 3 polygon
1 1.000 208 -240 224 -240 2 polygon
(OscExt) {/Courier 0.800 cf} 2 23 270.000 1.000 160 -368 label
(OscEn) {/Courier 0.800 cf} 2 23 270.000 1.000 288 -368 label
-1.000 90.000 160 -320 generic::tap
-1.000 90.000 288 -288 generic::tap
3 1.000 160 -320 160 -352 2 polygon
3 1.000 288 -288 288 -352 2 polygon
(OscOut) {/Courier 0.800 cf} 2 23 270.000 1.000 -528 -368 label
(OscChain) {/Courier 0.800 cf} 2 23 270.000 1.000 -352 -336 label
0 1.000 -80 368 -80 -64 80 -64 80 368 4 polygon
1 1.000 80 288 176 288 2 polygon
1 1.000 80 112 176 112 2 polygon
(Gang select) {/Helvetica cf} 2 21 0.000 1.000 0 400 label
1 1.000 -224 336 -80 336 2 polygon
1 1.000 -224 288 -80 288 2 polygon
(Gang1En) {/Courier 0.800 cf} 2 23 0.000 1.000 -96 240 label
1 1.000 -96 240 -80 240 2 polygon
1 1.000 -224 160 -80 160 2 polygon
1 1.000 -224 112 -80 112 2 polygon
1 1.000 -96 64 -80 64 2 polygon
(Gang2En) {/Courier 0.800 cf} 2 23 0.000 1.000 -96 64 label
(Start) {/Courier 0.800 cf} 2 23 0.000 1.000 -96 16 label
1 1.000 -96 16 -80 16 2 polygon
(Stop) {/Courier 0.800 cf} 2 23 0.000 1.000 -96 -32 label
1 1.000 -96 -32 -80 -32 2 polygon
1.000 270.000 560 256 switches::spdt
(SynctToOsc) {/Courier 0.800 cf} 2 23 270.000 1.000 560 160 label
3 1.000 560 240 560 176 2 polygon
-1.000 90.000 560 240 generic::tap
1 1.000 640 256 768 256 2 polygon
1 1.000 624 256 624 96 768 96 3 polygon
1 1.000 624 256 640 256 2 polygon
0 1.000 -464 -608 -464 -1088 -304 -1088 -304 -608 4 polygon
(Control register) {/Helvetica cf} 2 21 0.000 1.000 -384 -576 label
1 1.000 -304 -640 -272 -640 2 polygon
(OscOut) {/Courier 0.800 cf} 2 20 360.000 1.000 -256 -640 label
(OscChain) {/Courier 0.800 cf} 2 20 360.000 1.000 -256 -672 label
(OscExt) {/Courier 0.800 cf} 2 20 360.000 1.000 -256 -704 label
(OscEn) {/Courier 0.800 cf} 2 20 360.000 1.000 -256 -736 label
(SyncToOsc) {/Courier 0.800 cf} 2 20 360.000 1.000 -256 -768 label
(SrcEn) {/Courier 0.800 cf} 2 23 0.000 1.000 736 224 label
(SknEn) {/Courier 0.800 cf} 2 23 0.000 1.000 736 64 label
1.000 0.000 624 256 generic::dot
(Gang1En) {/Courier 0.800 cf} 2 20 360.000 1.000 -256 -800 label
(Gang2En) {/Courier 0.800 cf} 2 20 360.000 1.000 -256 -832 label
(Start) {/Courier 0.800 cf} 2 20 360.000 1.000 -256 -864 label
(Stop) {/Courier 0.800 cf} 2 20 360.000 1.000 -256 -896 label
(SrcEn) {/Courier 0.800 cf} 2 20 360.000 1.000 -256 -960 label
(SnkEn) {/Courier 0.800 cf} 2 20 360.000 1.000 -256 -992 label
(Parity) {/Courier 0.800 cf} 2 20 360.000 1.000 -256 -1056 label
1 1.000 -304 -672 -272 -672 2 polygon
1 1.000 -304 -704 -272 -704 2 polygon
1 1.000 -304 -736 -272 -736 2 polygon
1 1.000 -304 -768 -272 -768 2 polygon
1 1.000 -304 -800 -272 -800 2 polygon
1 1.000 -304 -832 -272 -832 2 polygon
1 1.000 -304 -864 -272 -864 2 polygon
1 1.000 -304 -896 -272 -896 2 polygon
1 1.000 -304 -928 -272 -928 2 polygon
1 1.000 -304 -960 -272 -960 2 polygon
1 1.000 -304 -992 -272 -992 2 polygon
0 1.000 224 -608 224 -960 384 -960 384 -608 4 polygon
(Status register) {/Helvetica cf} 2 21 0.000 1.000 304 -576 label
(ExtOscPresent) {/Courier 0.800 cf} 2 23 360.000 1.000 176 -640 label
1 1.000 192 -640 224 -640 2 polygon
(SupplyCmd) {/Courier 0.800 cf} 2 23 360.000 1.000 176 -672 label
1 1.000 192 -672 224 -672 2 polygon
(SupplyCmd) {/Courier 0.800 cf} 2 21 270.000 1.000 608 144 label
(WdtFail) {/Courier 0.800 cf} 2 23 360.000 1.000 176 -736 label
1 1.000 192 -704 224 -704 2 polygon
(CfgError) {/Courier 0.800 cf} 2 23 360.000 1.000 176 -768 label
1 1.000 192 -736 224 -736 2 polygon
(GangError) {/Courier 0.800 cf} 2 23 360.000 1.000 176 -800 label
1 1.000 192 -768 224 -768 2 polygon
(ParityError) {/Courier 0.800 cf} 2 23 360.000 1.000 176 -832 label
(Parity) {/Courier 0.800 cf} 2 23 360.000 1.000 176 -896 label
1 1.000 192 -800 224 -800 2 polygon
1 1.000 192 -864 224 -864 2 polygon
(SCK) {/Helvetica cf} 2 23 0.000 1.000 -688 -1120 label
(CS) {ol} {/Helvetica cf} 3 23 0.000 1.000 -688 -1168 label
1 1.000 -576 -1120 -416 -1120 -416 -1088 3 polygon
1 1.000 -416 -1120 272 -1120 272 -960 3 polygon
1 1.000 -576 -1168 -352 -1168 -352 -1088 3 polygon
1 1.000 -352 -1168 336 -1168 336 -960 3 polygon
1.000 0.000 -352 -1168 generic::dot
1.000 0.000 -416 -1120 generic::dot
(COPI) {/Helvetica cf} 2 23 0.000 1.000 -688 -656 label
1.000 90.000 -624 -656 generic::arrow
1.000 90.000 -624 -1120 generic::arrow
1.000 90.000 -624 -1168 generic::arrow
1 1.000 -576 -656 -464 -656 2 polygon
1 1.000 384 -656 1008 -656 2 polygon
1.000 90.000 1056 -656 generic::arrow
(CIPO) {/Helvetica cf} 2 20 0.000 1.000 1120 -656 label
0 1.000 384 -1056 384 -1184 544 -1184 544 -1056 4 polygon
(WDT) {/Helvetica cf} 2 21 0.000 1.000 464 -1120 label
1.000 0.000 368 -1120 terminals::tap
1 1.000 368 -1120 336 -1120 2 polygon
1.000 0.000 336 -1120 generic::dot
1 1.000 544 -1120 736 -1120 2 polygon
(WdtFail) {/Courier 0.800 cf} 2 21 360.000 1.000 640 -1104 label
(Error) {/Helvetica cf} 2 21 0.000 1.000 816 -1104 label
0 1.000 736 -1056 736 -1184 896 -1184 896 -1056 4 polygon
(detect) {/Helvetica cf} 2 21 0.000 1.000 816 -1136 label
(Fault) {ol} {/Courier 0.800 cf} {} {ol} {/Courier cf} 6 23 0.000 1.000 736 192 
label
1 1.000 752 192 768 192 2 polygon
1 1.000 752 32 768 32 2 polygon
(Fault) {ol} {/Courier 0.800 cf} {} {ol} {/Courier cf} 6 23 0.000 1.000 736 32 
label
1 1.000 768 -1056 768 -1024 2 polygon
(Fault) {ol} {/Courier 0.800 cf} {} {ol} {/Courier cf} 6 20 270.000 1.000 768 
-1008 label
(ParityError) {/Courier 0.800 cf} 2 20 270.000 1.000 864 -1008 label
(CfgError) {/Courier 0.800 cf} 2 20 270.000 1.000 800 -1008 label
(GangError) {/Courier 0.800 cf} 2 20 270.000 1.000 832 -1008 label
1 1.000 800 -1056 800 -1024 2 polygon
1 1.000 832 -1056 832 -1024 2 polygon
1 1.000 864 -1056 864 -1024 2 polygon
1.000 90.000 -320 448 generic::arrow
0 1.500 -576 528 -576 -1232 1008 -1232 1008 528 4 polygon
(PD2530RL) {/Helvetica cf} 2 16 0.000 1.000 -576 544 label
(Fault) {/Courier 0.800 cf} 2 23 360.000 1.000 176 -864 label
1 1.000 192 -832 224 -832 2 polygon
1 1.000 -576 -320 -560 -320 2 polygon
(4.5 MHz) {/Helvetica cf} 2 23 0.000 1.000 -112 -384 label
1 1.000 -96 -384 -48 -384 -48 -336 3 polygon
-1.000 90.000 -48 -352 generic::tap
-1.000 90.000 -416 -1104 generic::tap
-1.000 90.000 272 -976 generic::tap
1 1.000 -304 -1024 -272 -1024 2 polygon
(Setpt) {/Courier 0.800 cf} 2 20 360.000 1.000 -256 -928 label
(PresyncCmd) {/Courier 0.800 cf} 2 21 360.000 1.000 400 304 label
1 1.000 192 -896 224 -896 2 polygon
(PresyncCmd) {/Courier 0.800 cf} 2 23 360.000 1.000 176 -704 label
1 1.000 -304 -1056 -272 -1056 2 polygon
(FaultClear) {/Courier 0.800 cf} 2 20 360.000 1.000 -256 -1024 label
pgsave restore showpage

%%Trailer
XCIRCsave restore
%%EOF
