(kicad_pcb (version 20221018) (generator pcbnew)

  (general
    (thickness 1.6)
  )

  (paper "A")
  (title_block
    (title "PD2530 heatsinks")
    (date "2023-03-27")
    (rev "1")
    (company "alexis")
    (comment 1 "public domain")
  )

  (layers
    (0 "F.Cu" signal)
    (31 "B.Cu" signal)
    (32 "B.Adhes" user "B.Adhesive")
    (33 "F.Adhes" user "F.Adhesive")
    (34 "B.Paste" user)
    (35 "F.Paste" user)
    (36 "B.SilkS" user "B.Silkscreen")
    (37 "F.SilkS" user "F.Silkscreen")
    (38 "B.Mask" user)
    (39 "F.Mask" user)
    (40 "Dwgs.User" user "User.Drawings")
    (41 "Cmts.User" user "User.Comments")
    (42 "Eco1.User" user "User.Eco1")
    (43 "Eco2.User" user "User.Eco2")
    (44 "Edge.Cuts" user)
    (45 "Margin" user)
    (46 "B.CrtYd" user "B.Courtyard")
    (47 "F.CrtYd" user "F.Courtyard")
    (48 "B.Fab" user)
    (49 "F.Fab" user)
    (50 "User.1" user)
    (51 "User.2" user)
    (52 "User.3" user)
    (53 "User.4" user)
    (54 "User.5" user)
    (55 "User.6" user)
    (56 "User.7" user)
    (57 "User.8" user)
    (58 "User.9" user)
  )

  (setup
    (stackup
      (layer "F.SilkS" (type "Top Silk Screen"))
      (layer "F.Paste" (type "Top Solder Paste"))
      (layer "F.Mask" (type "Top Solder Mask") (thickness 0.01))
      (layer "F.Cu" (type "copper") (thickness 0.035))
      (layer "dielectric 1" (type "core") (thickness 1.51) (material "FR4") (epsilon_r 4.5) (loss_tangent 0.02))
      (layer "B.Cu" (type "copper") (thickness 0.035))
      (layer "B.Mask" (type "Bottom Solder Mask") (thickness 0.01))
      (layer "B.Paste" (type "Bottom Solder Paste"))
      (layer "B.SilkS" (type "Bottom Silk Screen"))
      (copper_finish "None")
      (dielectric_constraints no)
    )
    (pad_to_mask_clearance 0)
    (pcbplotparams
      (layerselection 0x00010fc_ffffffff)
      (plot_on_all_layers_selection 0x0000000_00000000)
      (disableapertmacros false)
      (usegerberextensions false)
      (usegerberattributes true)
      (usegerberadvancedattributes true)
      (creategerberjobfile true)
      (dashed_line_dash_ratio 12.000000)
      (dashed_line_gap_ratio 3.000000)
      (svgprecision 4)
      (plotframeref false)
      (viasonmask false)
      (mode 1)
      (useauxorigin false)
      (hpglpennumber 1)
      (hpglpenspeed 20)
      (hpglpendiameter 15.000000)
      (dxfpolygonmode true)
      (dxfimperialunits true)
      (dxfusepcbnewfont true)
      (psnegative false)
      (psa4output false)
      (plotreference true)
      (plotvalue true)
      (plotinvisibletext false)
      (sketchpadsonfab false)
      (subtractmaskfromsilk false)
      (outputformat 1)
      (mirror false)
      (drillshape 1)
      (scaleselection 1)
      (outputdirectory "")
    )
  )

  (net 0 "")

  (gr_line (start 216 85) (end 216 86)
    (stroke (width 0.15) (type default)) (layer "Dwgs.User") (tstamp 01c18a46-8378-4e53-a938-a73879543b52))
  (gr_line (start 184 70) (end 184 71)
    (stroke (width 0.15) (type default)) (layer "Dwgs.User") (tstamp 02476f9b-e5eb-4f6c-8285-fc36006620f5))
  (gr_line (start 216 98) (end 184 98)
    (stroke (width 0.15) (type default)) (layer "Dwgs.User") (tstamp 03635324-ae80-4c27-b113-1642b7e776c9))
  (gr_line (start 216 72) (end 184 72)
    (stroke (width 0.15) (type default)) (layer "Dwgs.User") (tstamp 038926ad-9064-47ab-b286-0f58228d7c0e))
  (gr_line (start 190 141) (end 182 141)
    (stroke (width 0.15) (type default)) (layer "Dwgs.User") (tstamp 05a7a060-6110-47f6-9b67-c00c5ddf8dd0))
  (gr_line (start 216 69) (end 216 70)
    (stroke (width 0.15) (type default)) (layer "Dwgs.User") (tstamp 05d2fdbc-9182-4e3d-9593-b480c802c0f0))
  (gr_line (start 182 148) (end 190 148)
    (stroke (width 0.15) (type default)) (layer "Dwgs.User") (tstamp 0a93d920-790f-49fc-acb7-3859119ad673))
  (gr_line (start 190 136) (end 190 137)
    (stroke (width 0.15) (type default)) (layer "Dwgs.User") (tstamp 0b1b443e-7716-450d-9757-47ba244f829a))
  (gr_line (start 184 71) (end 216 71)
    (stroke (width 0.15) (type default)) (layer "Dwgs.User") (tstamp 0d2808ae-c017-4e5b-ade8-fdf1ef7474e5))
  (gr_line (start 216 36) (end 216 34)
    (stroke (width 0.15) (type default)) (layer "Dwgs.User") (tstamp 0ddc1c46-e6f8-4c61-b39b-ffd44462bd02))
  (gr_line (start 216 83) (end 216 84)
    (stroke (width 0.15) (type default)) (layer "Dwgs.User") (tstamp 0ecd08d7-b462-4664-97a2-f57d94148049))
  (gr_line (start 190 127) (end 182 127)
    (stroke (width 0.15) (type default)) (layer "Dwgs.User") (tstamp 114e7775-707c-493e-8115-77afcb6dc32f))
  (gr_line (start 216 57) (end 216 58)
    (stroke (width 0.15) (type default)) (layer "Dwgs.User") (tstamp 124d8bff-3202-41d2-bf5a-de6290ee138e))
  (gr_line (start 216 55) (end 216 56)
    (stroke (width 0.15) (type default)) (layer "Dwgs.User") (tstamp 14f71500-073c-4b4e-ae5b-19d07dae85d0))
  (gr_line (start 184 58) (end 184 59)
    (stroke (width 0.15) (type default)) (layer "Dwgs.User") (tstamp 155bf1e5-47c5-4f9d-bdca-fa46e3e0addc))
  (gr_line (start 190 143) (end 182 143)
    (stroke (width 0.15) (type default)) (layer "Dwgs.User") (tstamp 18fd0ad5-f303-415a-95a4-160ca7280a15))
  (gr_line (start 184 63) (end 216 63)
    (stroke (width 0.15) (type default)) (layer "Dwgs.User") (tstamp 19064f7b-7884-47c6-a0cf-037c03ccab97))
  (gr_line (start 184 100) (end 184 101)
    (stroke (width 0.15) (type default)) (layer "Dwgs.User") (tstamp 1a68cf38-9fb3-4cba-8fb2-018a35561e64))
  (gr_line (start 216 46) (end 184 46)
    (stroke (width 0.15) (type default)) (layer "Dwgs.User") (tstamp 1aba17a7-7b5e-45ab-af58-2efdb06f7fc9))
  (gr_line (start 184 50) (end 184 51)
    (stroke (width 0.15) (type default)) (layer "Dwgs.User") (tstamp 1daa9ba2-5d1f-46c0-bad1-2cf063c66e04))
  (gr_line (start 182 140) (end 190 140)
    (stroke (width 0.15) (type default)) (layer "Dwgs.User") (tstamp 1ea13a66-cb88-4431-b402-ded402171e07))
  (gr_line (start 184 81) (end 216 81)
    (stroke (width 0.15) (type default)) (layer "Dwgs.User") (tstamp 20aa9d92-2a09-4536-ac7f-0f74e2d7b029))
  (gr_line (start 216 51) (end 216 52)
    (stroke (width 0.15) (type default)) (layer "Dwgs.User") (tstamp 212dac16-8945-4752-8c1f-26ab8b488999))
  (gr_line (start 190 147) (end 182 147)
    (stroke (width 0.15) (type default)) (layer "Dwgs.User") (tstamp 21f664bc-c362-424e-956a-79b33829e1cd))
  (gr_line (start 184 82) (end 184 83)
    (stroke (width 0.15) (type default)) (layer "Dwgs.User") (tstamp 23251836-cfa4-454c-9df1-d2f872d629de))
  (gr_circle (center 164 138.5) (end 166.38125 138.5)
    (stroke (width 0.15) (type default)) (fill none) (layer "Dwgs.User") (tstamp 23bc2e5e-cec8-41ed-8046-dda52102edd3))
  (gr_line (start 216 41) (end 216 42)
    (stroke (width 0.15) (type default)) (layer "Dwgs.User") (tstamp 26868c42-7cf3-48bd-accd-0e1ea1f2b104))
  (gr_line (start 184 95) (end 216 95)
    (stroke (width 0.15) (type default)) (layer "Dwgs.User") (tstamp 2770bc31-2c74-46e1-8d87-4382c0a868e6))
  (gr_line (start 184 69) (end 216 69)
    (stroke (width 0.15) (type default)) (layer "Dwgs.User") (tstamp 2a40db28-9bb3-43da-8ea5-20356d3016c1))
  (gr_line (start 184 61) (end 216 61)
    (stroke (width 0.15) (type default)) (layer "Dwgs.User") (tstamp 2b2c1b51-aa31-4339-89f7-15d87d90ecfe))
  (gr_line (start 216 49) (end 216 50)
    (stroke (width 0.15) (type default)) (layer "Dwgs.User") (tstamp 2b318bcc-fd5e-4426-a56e-9d9edf36708c))
  (gr_line (start 182 136) (end 190 136)
    (stroke (width 0.15) (type default)) (layer "Dwgs.User") (tstamp 2b9fda8d-bf8e-4ed9-bd7b-b784a32589a1))
  (gr_line (start 190 134) (end 190 135)
    (stroke (width 0.15) (type default)) (layer "Dwgs.User") (tstamp 2c632e62-d773-4680-9c14-f8c19eeb0185))
  (gr_line (start 190 131) (end 182 131)
    (stroke (width 0.15) (type default)) (layer "Dwgs.User") (tstamp 2c82e0bf-9c40-48c2-8cd9-784bb60f7063))
  (gr_line (start 182 134) (end 190 134)
    (stroke (width 0.15) (type default)) (layer "Dwgs.User") (tstamp 304a0dc2-2c8c-4e24-8862-abf36ad0ca1c))
  (gr_line (start 182 137) (end 182 138)
    (stroke (width 0.15) (type default)) (layer "Dwgs.User") (tstamp 31f5c4fd-bfbe-4c54-a17d-072239cda4cc))
  (gr_line (start 190 140) (end 190 141)
    (stroke (width 0.15) (type default)) (layer "Dwgs.User") (tstamp 38620629-71ac-4f6e-b870-e63b91a916f4))
  (gr_circle (center 76 70) (end 77.190625 70)
    (stroke (width 0.15) (type default)) (fill none) (layer "Dwgs.User") (tstamp 39a3c83b-4073-4206-bed0-9bf9fc6c085a))
  (gr_line (start 216 52) (end 184 52)
    (stroke (width 0.15) (type default)) (layer "Dwgs.User") (tstamp 3a347f33-6835-4b90-a778-ef9f3c65591f))
  (gr_line (start 184 46) (end 184 47)
    (stroke (width 0.15) (type default)) (layer "Dwgs.User") (tstamp 3ae504dc-2e23-4b26-9723-c14aa05f4509))
  (gr_line (start 184 49) (end 216 49)
    (stroke (width 0.15) (type default)) (layer "Dwgs.User") (tstamp 3f5b0c29-6504-428f-ad74-5f451450bd79))
  (gr_line (start 216 90) (end 184 90)
    (stroke (width 0.15) (type default)) (layer "Dwgs.User") (tstamp 4091ff08-aa3b-4b27-9a9b-de64eace5580))
  (gr_line (start 190 137) (end 182 137)
    (stroke (width 0.15) (type default)) (layer "Dwgs.User") (tstamp 42c8c86a-6021-492e-8f1d-9743d524ba7a))
  (gr_line (start 184 98) (end 184 99)
    (stroke (width 0.15) (type default)) (layer "Dwgs.User") (tstamp 445c845f-a15c-45bb-a722-fb337a4168af))
  (gr_circle (center 120 46) (end 121.190625 46)
    (stroke (width 0.15) (type default)) (fill none) (layer "Dwgs.User") (tstamp 446e3022-0891-44ec-9e09-5d3ee5af790d))
  (gr_line (start 190 138) (end 190 139)
    (stroke (width 0.15) (type default)) (layer "Dwgs.User") (tstamp 4a95996a-c8bd-4588-90aa-633e4e647e9a))
  (gr_line (start 184 86) (end 184 87)
    (stroke (width 0.15) (type default)) (layer "Dwgs.User") (tstamp 4ba82e82-6a2f-46c7-9952-2d985f400cfb))
  (gr_line (start 184 59) (end 216 59)
    (stroke (width 0.15) (type default)) (layer "Dwgs.User") (tstamp 4c58b1a9-d863-4b50-80d3-f086c2d21cf5))
  (gr_line (start 216 94) (end 184 94)
    (stroke (width 0.15) (type default)) (layer "Dwgs.User") (tstamp 4edb62d8-1d11-4def-9545-7924b4b21bbb))
  (gr_line (start 216 96) (end 184 96)
    (stroke (width 0.15) (type default)) (layer "Dwgs.User") (tstamp 5119775e-1fd7-4102-a467-adba1be716f8))
  (gr_line (start 184 94) (end 184 95)
    (stroke (width 0.15) (type default)) (layer "Dwgs.User") (tstamp 51de17db-43f1-4d2b-baa1-cf4e3a93c0a8))
  (gr_line (start 190 146) (end 190 147)
    (stroke (width 0.15) (type default)) (layer "Dwgs.User") (tstamp 5288b345-56f7-4655-9065-05d74731e9df))
  (gr_line (start 184 36) (end 184 37)
    (stroke (width 0.15) (type default)) (layer "Dwgs.User") (tstamp 53c8efab-7e4f-4e11-91ef-507986d798ed))
  (gr_line (start 216 48) (end 184 48)
    (stroke (width 0.15) (type default)) (layer "Dwgs.User") (tstamp 570fb605-b69c-4a01-9761-6d68f1a48163))
  (gr_line (start 184 75) (end 216 75)
    (stroke (width 0.15) (type default)) (layer "Dwgs.User") (tstamp 57226503-a38e-47bd-a5cf-d75e48abaca1))
  (gr_line (start 184 76) (end 184 77)
    (stroke (width 0.15) (type default)) (layer "Dwgs.User") (tstamp 5981e437-549d-421b-a55f-0ae4886dbcea))
  (gr_line (start 216 99) (end 216 100)
    (stroke (width 0.15) (type default)) (layer "Dwgs.User") (tstamp 5a0ccbeb-4922-4d02-9f12-b8fa5c6b91ea))
  (gr_line (start 190 127) (end 190 125)
    (stroke (width 0.15) (type default)) (layer "Dwgs.User") (tstamp 5a5f37cd-f55c-49b7-ad0f-33e3b8c4b25e))
  (gr_circle (center 120 70) (end 121.190625 70)
    (stroke (width 0.15) (type default)) (fill none) (layer "Dwgs.User") (tstamp 5b53e586-a94f-4e50-bbdd-5bb023671665))
  (gr_line (start 182 146) (end 190 146)
    (stroke (width 0.15) (type default)) (layer "Dwgs.User") (tstamp 5baed730-58ba-4cd0-9c79-95c12ceff877))
  (gr_line (start 216 71) (end 216 72)
    (stroke (width 0.15) (type default)) (layer "Dwgs.User") (tstamp 5d2517d7-258f-44fb-a820-bf3c1a544409))
  (gr_line (start 216 77) (end 216 78)
    (stroke (width 0.15) (type default)) (layer "Dwgs.User") (tstamp 5d305a77-d34d-4ea5-bf33-ef04fc2b11b9))
  (gr_line (start 216 62) (end 184 62)
    (stroke (width 0.15) (type default)) (layer "Dwgs.User") (tstamp 5ecedb70-ed50-42f6-8292-02ba9f8647a8))
  (gr_line (start 180 103) (end 216 103)
    (stroke (width 0.15) (type default)) (layer "Dwgs.User") (tstamp 5eedecf5-68bc-43a8-a5f9-f8d36de087c2))
  (gr_line (start 184 54) (end 184 55)
    (stroke (width 0.15) (type default)) (layer "Dwgs.User") (tstamp 5f716587-5188-4e44-bb93-debd64bd6385))
  (gr_line (start 184 60) (end 184 61)
    (stroke (width 0.15) (type default)) (layer "Dwgs.User") (tstamp 5fd7e150-e0a3-420b-a2a3-2f3761278daa))
  (gr_line (start 184 97) (end 216 97)
    (stroke (width 0.15) (type default)) (layer "Dwgs.User") (tstamp 606ce42f-1964-41de-bcf7-f70985aa4db9))
  (gr_line (start 216 73) (end 216 74)
    (stroke (width 0.15) (type default)) (layer "Dwgs.User") (tstamp 64123bc7-3d69-4bc8-8caf-51e4592205c0))
  (gr_line (start 184 38) (end 184 39)
    (stroke (width 0.15) (type default)) (layer "Dwgs.User") (tstamp 6438bbc4-861d-42ea-bcb1-7854bfde23c6))
  (gr_line (start 216 45) (end 216 46)
    (stroke (width 0.15) (type default)) (layer "Dwgs.User") (tstamp 643fb2a5-6e1a-4583-9438-b53d2619ea0f))
  (gr_line (start 182 143) (end 182 144)
    (stroke (width 0.15) (type default)) (layer "Dwgs.User") (tstamp 64ce0487-28f3-4c2c-95df-f757aaad90ca))
  (gr_line (start 184 88) (end 184 89)
    (stroke (width 0.15) (type default)) (layer "Dwgs.User") (tstamp 6557ab32-7ffd-4e27-ab4e-6fc7ef35b64e))
  (gr_line (start 216 66) (end 184 66)
    (stroke (width 0.15) (type default)) (layer "Dwgs.User") (tstamp 66a4fb20-5a5f-43a8-beca-44752ef517f4))
  (gr_line (start 216 60) (end 184 60)
    (stroke (width 0.15) (type default)) (layer "Dwgs.User") (tstamp 6b3813ae-2779-480f-858d-2fa13872e9d6))
  (gr_line (start 216 82) (end 184 82)
    (stroke (width 0.15) (type default)) (layer "Dwgs.User") (tstamp 6cf08049-c5f9-450e-957b-bfba807f0e0d))
  (gr_line (start 184 43) (end 216 43)
    (stroke (width 0.15) (type default)) (layer "Dwgs.User") (tstamp 6cf6e6f7-c1ac-4592-8410-45d1266d4099))
  (gr_line (start 184 78) (end 184 79)
    (stroke (width 0.15) (type default)) (layer "Dwgs.User") (tstamp 6d2075d4-5fe6-4d3a-84bf-53823904912e))
  (gr_line (start 216 80) (end 184 80)
    (stroke (width 0.15) (type default)) (layer "Dwgs.User") (tstamp 6e735cef-8da8-415b-946d-380b966378a4))
  (gr_line (start 190 130) (end 190 131)
    (stroke (width 0.15) (type default)) (layer "Dwgs.User") (tstamp 6ed6ac82-a205-44dc-b98a-5c22a3a22a89))
  (gr_line (start 216 78) (end 184 78)
    (stroke (width 0.15) (type default)) (layer "Dwgs.User") (tstamp 6f8ca620-2261-4809-8edb-65e8a2322a99))
  (gr_line (start 216 63) (end 216 64)
    (stroke (width 0.15) (type default)) (layer "Dwgs.User") (tstamp 710bbe83-2b4c-4567-ab24-45a1fa99ec69))
  (gr_line (start 216 53) (end 216 54)
    (stroke (width 0.15) (type default)) (layer "Dwgs.User") (tstamp 7436a7a2-134d-4738-81b9-b57b1fe8bd1e))
  (gr_line (start 184 37) (end 216 37)
    (stroke (width 0.15) (type default)) (layer "Dwgs.User") (tstamp 75a6514a-6ec8-45e3-9012-bb5cf7ac9486))
  (gr_line (start 216 68) (end 184 68)
    (stroke (width 0.15) (type default)) (layer "Dwgs.User") (tstamp 77bd71de-d827-4dc4-8a7f-6c241c533d84))
  (gr_line (start 216 86) (end 184 86)
    (stroke (width 0.15) (type default)) (layer "Dwgs.User") (tstamp 78e66149-3e51-4626-9915-5e5ba7a2110b))
  (gr_line (start 190 142) (end 190 143)
    (stroke (width 0.15) (type default)) (layer "Dwgs.User") (tstamp 798f6cb1-9e3c-4dd9-8ba7-236452bb804c))
  (gr_line (start 184 79) (end 216 79)
    (stroke (width 0.15) (type default)) (layer "Dwgs.User") (tstamp 7a6012dd-22dc-442c-8d98-2fc4a2de0251))
  (gr_line (start 184 101) (end 216 101)
    (stroke (width 0.15) (type default)) (layer "Dwgs.User") (tstamp 7a65f6cd-4f5f-4bd3-bd6c-f6713bb8d04a))
  (gr_line (start 190 145) (end 182 145)
    (stroke (width 0.15) (type default)) (layer "Dwgs.User") (tstamp 7c174f5a-f170-485d-9e51-3ed7758bbaef))
  (gr_line (start 180 34) (end 216 34)
    (stroke (width 0.15) (type default)) (layer "Dwgs.User") (tstamp 7cfe4074-7322-4ef1-aa95-14656c7ddc20))
  (gr_circle (center 164 46) (end 165.190625 46)
    (stroke (width 0.15) (type default)) (fill none) (layer "Dwgs.User") (tstamp 7d3618c5-ed83-46c4-b686-ed339ad25031))
  (gr_line (start 182 132) (end 190 132)
    (stroke (width 0.15) (type default)) (layer "Dwgs.User") (tstamp 7f9de971-99ff-4f5b-a00b-6fb9fc0f57e2))
  (gr_line (start 216 93) (end 216 94)
    (stroke (width 0.15) (type default)) (layer "Dwgs.User") (tstamp 80088742-85b8-4af5-8c9f-80ff6109a1c1))
  (gr_line (start 184 47) (end 216 47)
    (stroke (width 0.15) (type default)) (layer "Dwgs.User") (tstamp 81b01b9a-f6ae-48a9-8e93-4361a75c41aa))
  (gr_line (start 216 97) (end 216 98)
    (stroke (width 0.15) (type default)) (layer "Dwgs.User") (tstamp 8285515a-2d35-4245-b514-39177398be8b))
  (gr_circle (center 163 89.5) (end 164.5875 89.5)
    (stroke (width 0.15) (type default)) (fill none) (layer "Dwgs.User") (tstamp 82b9979e-13c4-4042-aed1-b217fbc3786e))
  (gr_line (start 184 57) (end 216 57)
    (stroke (width 0.15) (type default)) (layer "Dwgs.User") (tstamp 82e80a62-4130-4bf0-95b6-f329f9b7f0bd))
  (gr_line (start 184 80) (end 184 81)
    (stroke (width 0.15) (type default)) (layer "Dwgs.User") (tstamp 84b618d4-335f-4b8e-a59d-0e7fd8d2a878))
  (gr_line (start 184 40) (end 184 41)
    (stroke (width 0.15) (type default)) (layer "Dwgs.User") (tstamp 86d03953-94d9-4bff-a308-ab400cd930c8))
  (gr_line (start 182 139) (end 182 140)
    (stroke (width 0.15) (type default)) (layer "Dwgs.User") (tstamp 8b1f61b7-1fb3-4871-bdec-173129ae01a9))
  (gr_line (start 216 40) (end 184 40)
    (stroke (width 0.15) (type default)) (layer "Dwgs.User") (tstamp 8c37ee88-f990-4ff1-bfbe-954b33dabe6c))
  (gr_line (start 182 135) (end 182 136)
    (stroke (width 0.15) (type default)) (layer "Dwgs.User") (tstamp 8cdf9e7a-ff7c-45fb-a5be-cd3230d949d7))
  (gr_line (start 184 93) (end 216 93)
    (stroke (width 0.15) (type default)) (layer "Dwgs.User") (tstamp 8e42e2ab-07d8-42d7-b830-f0c837190954))
  (gr_line (start 216 81) (end 216 82)
    (stroke (width 0.15) (type default)) (layer "Dwgs.User") (tstamp 8efaea4f-f87a-4e26-8c9d-307c8b7ada78))
  (gr_rect (start 70 34) (end 170 103)
    (stroke (width 0.15) (type default)) (fill none) (layer "Dwgs.User") (tstamp 91f3b065-f779-4b69-98e0-3fba87cdbdb3))
  (gr_line (start 184 85) (end 216 85)
    (stroke (width 0.15) (type default)) (layer "Dwgs.User") (tstamp 929a5ca6-5d7e-4caf-b6c0-828f4972d61b))
  (gr_line (start 184 53) (end 216 53)
    (stroke (width 0.15) (type default)) (layer "Dwgs.User") (tstamp 94af4113-3046-4c3f-bff6-6f8696068156))
  (gr_line (start 182 145) (end 182 146)
    (stroke (width 0.15) (type default)) (layer "Dwgs.User") (tstamp 9530bc24-c60c-4369-9078-35f6eee72a77))
  (gr_rect (start 70 125) (end 170 150)
    (stroke (width 0.15) (type default)) (fill none) (layer "Dwgs.User") (tstamp 955c050f-553b-4e82-8726-8d447fe65e04))
  (gr_line (start 190 132) (end 190 133)
    (stroke (width 0.15) (type default)) (layer "Dwgs.User") (tstamp 9674080c-bc74-4a19-be00-5999cd624e2a))
  (gr_line (start 216 37) (end 216 38)
    (stroke (width 0.15) (type default)) (layer "Dwgs.User") (tstamp 98a43c69-c05b-40c6-a1d5-0b98d02c443c))
  (gr_line (start 182 127) (end 182 128)
    (stroke (width 0.15) (type default)) (layer "Dwgs.User") (tstamp 9b475360-8c92-4f62-98ca-f39e20b5f135))
  (gr_circle (center 120 38) (end 121.190625 38)
    (stroke (width 0.15) (type default)) (fill none) (layer "Dwgs.User") (tstamp 9b65dab9-aa9e-41b8-a774-bcbaa5493b44))
  (gr_line (start 216 87) (end 216 88)
    (stroke (width 0.15) (type default)) (layer "Dwgs.User") (tstamp 9db8335e-fd44-46ad-b57a-c6116316659d))
  (gr_line (start 216 75) (end 216 76)
    (stroke (width 0.15) (type default)) (layer "Dwgs.User") (tstamp 9e50f784-19a4-49be-a425-fbf24fc2550d))
  (gr_line (start 190 129) (end 182 129)
    (stroke (width 0.15) (type default)) (layer "Dwgs.User") (tstamp 9e78615f-38c2-4a77-8d7e-e2931429ccaf))
  (gr_line (start 184 72) (end 184 73)
    (stroke (width 0.15) (type default)) (layer "Dwgs.User") (tstamp a1df11d3-cc7a-4fc4-a29f-8e4df7b20022))
  (gr_line (start 216 36) (end 184 36)
    (stroke (width 0.15) (type default)) (layer "Dwgs.User") (tstamp a2d1bd8b-5c94-4df4-ae54-6e8d56012cb5))
  (gr_line (start 180 125) (end 180 150)
    (stroke (width 0.15) (type default)) (layer "Dwgs.User") (tstamp a6efbbed-8fa4-4630-aa08-d85074b681c3))
  (gr_line (start 184 90) (end 184 91)
    (stroke (width 0.15) (type default)) (layer "Dwgs.User") (tstamp a72c846f-e1d4-4c6b-8d56-01214129edf5))
  (gr_line (start 184 45) (end 216 45)
    (stroke (width 0.15) (type default)) (layer "Dwgs.User") (tstamp a7df09b8-2029-4a75-abba-4d6d190a2c88))
  (gr_line (start 184 89) (end 216 89)
    (stroke (width 0.15) (type default)) (layer "Dwgs.User") (tstamp a809c43e-86e3-47db-a40b-92bb33714051))
  (gr_line (start 184 66) (end 184 67)
    (stroke (width 0.15) (type default)) (layer "Dwgs.User") (tstamp a83ee3ed-58db-4ddf-87b2-686920599e8e))
  (gr_line (start 184 62) (end 184 63)
    (stroke (width 0.15) (type default)) (layer "Dwgs.User") (tstamp aab62e31-f5b9-4e94-9007-1e342477408c))
  (gr_line (start 216 61) (end 216 62)
    (stroke (width 0.15) (type default)) (layer "Dwgs.User") (tstamp ab6d4003-a643-4bae-9e89-23ae7cee39d7))
  (gr_line (start 182 142) (end 190 142)
    (stroke (width 0.15) (type default)) (layer "Dwgs.User") (tstamp ab9394ae-b85c-40ac-9e1e-ce8b65349c59))
  (gr_line (start 180 34) (end 180 103)
    (stroke (width 0.15) (type default)) (layer "Dwgs.User") (tstamp ac48a470-bd0c-4f4b-9a2f-e4d40877f566))
  (gr_line (start 184 99) (end 216 99)
    (stroke (width 0.15) (type default)) (layer "Dwgs.User") (tstamp ac9a7429-0bed-4366-9cbb-b6c272111a47))
  (gr_line (start 184 44) (end 184 45)
    (stroke (width 0.15) (type default)) (layer "Dwgs.User") (tstamp aead206f-30b7-4d45-badb-83fa0abae09d))
  (gr_circle (center 120 138.5) (end 122.38125 138.5)
    (stroke (width 0.15) (type default)) (fill none) (layer "Dwgs.User") (tstamp aeb08814-a4a0-4769-beff-1136641dc0e2))
  (gr_line (start 216 47) (end 216 48)
    (stroke (width 0.15) (type default)) (layer "Dwgs.User") (tstamp b1a4bd02-6beb-4432-88e4-d0cd35190590))
  (gr_line (start 184 74) (end 184 75)
    (stroke (width 0.15) (type default)) (layer "Dwgs.User") (tstamp b2112183-5922-4a65-ba16-3865f23a96c3))
  (gr_line (start 184 68) (end 184 69)
    (stroke (width 0.15) (type default)) (layer "Dwgs.User") (tstamp b2a66dd5-e023-4ebb-bc55-4d1219115716))
  (gr_line (start 184 84) (end 184 85)
    (stroke (width 0.15) (type default)) (layer "Dwgs.User") (tstamp b3a0e9f9-8369-460d-8f1c-7d21956da79a))
  (gr_line (start 182 130) (end 190 130)
    (stroke (width 0.15) (type default)) (layer "Dwgs.User") (tstamp b8756b80-58c4-4964-9eea-de7195ece109))
  (gr_line (start 216 43) (end 216 44)
    (stroke (width 0.15) (type default)) (layer "Dwgs.User") (tstamp b93ac73c-23c2-499d-aa71-690820ffceec))
  (gr_line (start 190 133) (end 182 133)
    (stroke (width 0.15) (type default)) (layer "Dwgs.User") (tstamp ba169acf-4a21-45c5-bd47-10ca285b80ed))
  (gr_line (start 182 144) (end 190 144)
    (stroke (width 0.15) (type default)) (layer "Dwgs.User") (tstamp bb5ee232-74b9-4680-a013-8f9f1b9b7ea3))
  (gr_line (start 216 58) (end 184 58)
    (stroke (width 0.15) (type default)) (layer "Dwgs.User") (tstamp bbc1c143-6f4f-4a23-9faa-31ce5aa2cdf6))
  (gr_line (start 184 91) (end 216 91)
    (stroke (width 0.15) (type default)) (layer "Dwgs.User") (tstamp bc6acff2-33ea-4240-a861-de5b9888ff52))
  (gr_line (start 184 92) (end 184 93)
    (stroke (width 0.15) (type default)) (layer "Dwgs.User") (tstamp bcd78690-d4f5-434d-a241-0f91ad72ac9e))
  (gr_line (start 216 44) (end 184 44)
    (stroke (width 0.15) (type default)) (layer "Dwgs.User") (tstamp bda7d96a-4a49-46d0-b137-8351d8e3b90f))
  (gr_line (start 216 92) (end 184 92)
    (stroke (width 0.15) (type default)) (layer "Dwgs.User") (tstamp bdd58023-3dbb-4579-8d08-40303a809af8))
  (gr_line (start 216 101) (end 216 103)
    (stroke (width 0.15) (type default)) (layer "Dwgs.User") (tstamp bdd9a42c-3f1a-4bc4-83f2-0b2f92aba667))
  (gr_line (start 216 65) (end 216 66)
    (stroke (width 0.15) (type default)) (layer "Dwgs.User") (tstamp bee571c2-2ff3-41df-8ec0-c8434c55498a))
  (gr_line (start 190 135) (end 182 135)
    (stroke (width 0.15) (type default)) (layer "Dwgs.User") (tstamp c3d39474-9745-4671-9fb8-96af51e566ae))
  (gr_line (start 182 147) (end 182 148)
    (stroke (width 0.15) (type default)) (layer "Dwgs.User") (tstamp c3ee21ee-3058-480a-8800-0703ca2dcfda))
  (gr_line (start 216 64) (end 184 64)
    (stroke (width 0.15) (type default)) (layer "Dwgs.User") (tstamp c47aabf2-4810-40f1-bb21-b7076785271a))
  (gr_line (start 216 84) (end 184 84)
    (stroke (width 0.15) (type default)) (layer "Dwgs.User") (tstamp c7b7adc8-7d5e-40bb-999f-a09dea272bf9))
  (gr_circle (center 77 89.5) (end 78.5875 89.5)
    (stroke (width 0.15) (type default)) (fill none) (layer "Dwgs.User") (tstamp c8fecf6a-982b-4684-88b2-aea3cc66f4de))
  (gr_line (start 216 91) (end 216 92)
    (stroke (width 0.15) (type default)) (layer "Dwgs.User") (tstamp c9d5a1f4-4904-4af8-9f77-3aaee823f2b9))
  (gr_line (start 182 133) (end 182 134)
    (stroke (width 0.15) (type default)) (layer "Dwgs.User") (tstamp ca358e9f-e4b4-40e4-a0d4-5bc9b2a43348))
  (gr_line (start 190 139) (end 182 139)
    (stroke (width 0.15) (type default)) (layer "Dwgs.User") (tstamp cabbf05e-c55b-4891-bcd1-6e5faef8e3a8))
  (gr_line (start 182 131) (end 182 132)
    (stroke (width 0.15) (type default)) (layer "Dwgs.User") (tstamp cc5b2906-583b-4422-a934-130d4205ac8e))
  (gr_circle (center 76 46) (end 77.190625 46)
    (stroke (width 0.15) (type default)) (fill none) (layer "Dwgs.User") (tstamp cceabf0f-47a8-402c-a6b6-fced736747e5))
  (gr_line (start 216 88) (end 184 88)
    (stroke (width 0.15) (type default)) (layer "Dwgs.User") (tstamp cfd794a7-9568-407c-9ea5-2118229c25d2))
  (gr_line (start 184 55) (end 216 55)
    (stroke (width 0.15) (type default)) (layer "Dwgs.User") (tstamp d053305a-48ea-4f6e-8f17-97c8ffcd0d8a))
  (gr_line (start 184 65) (end 216 65)
    (stroke (width 0.15) (type default)) (layer "Dwgs.User") (tstamp d0b6a171-825d-42f5-81b6-8287f6f2d2b0))
  (gr_line (start 184 51) (end 216 51)
    (stroke (width 0.15) (type default)) (layer "Dwgs.User") (tstamp d19af4b8-8a12-4c78-800b-85a22f9be973))
  (gr_line (start 216 42) (end 184 42)
    (stroke (width 0.15) (type default)) (layer "Dwgs.User") (tstamp d1d0b0ff-d0b6-4eb5-a16a-f943c39729b5))
  (gr_line (start 216 39) (end 216 40)
    (stroke (width 0.15) (type default)) (layer "Dwgs.User") (tstamp d1d7a2fd-2b94-42eb-96a6-29294bba193d))
  (gr_line (start 216 89) (end 216 90)
    (stroke (width 0.15) (type default)) (layer "Dwgs.User") (tstamp d348ce9d-e31f-4409-a090-4ae244277eac))
  (gr_circle (center 76 138.5) (end 78.38125 138.5)
    (stroke (width 0.15) (type default)) (fill none) (layer "Dwgs.User") (tstamp d3c1d390-7970-42d5-a859-e43784db7ca6))
  (gr_line (start 190 128) (end 190 129)
    (stroke (width 0.15) (type default)) (layer "Dwgs.User") (tstamp d868cf0e-2a33-4b37-8357-0f835f55b4c2))
  (gr_line (start 184 77) (end 216 77)
    (stroke (width 0.15) (type default)) (layer "Dwgs.User") (tstamp d999471e-77f8-4790-9efd-72de116639bd))
  (gr_circle (center 164 70) (end 165.190625 70)
    (stroke (width 0.15) (type default)) (fill none) (layer "Dwgs.User") (tstamp da4a5f32-2c5b-4e3a-b269-bd4d23114055))
  (gr_line (start 216 67) (end 216 68)
    (stroke (width 0.15) (type default)) (layer "Dwgs.User") (tstamp dac98e96-d989-405d-8a37-dde74f69f1ef))
  (gr_line (start 182 138) (end 190 138)
    (stroke (width 0.15) (type default)) (layer "Dwgs.User") (tstamp dd1c6884-dba7-40e0-8a4a-b5ff8f6ccc94))
  (gr_line (start 216 54) (end 184 54)
    (stroke (width 0.15) (type default)) (layer "Dwgs.User") (tstamp e12411c9-3293-4ac6-a560-ec1ebe9a0cd0))
  (gr_line (start 216 59) (end 216 60)
    (stroke (width 0.15) (type default)) (layer "Dwgs.User") (tstamp e1bbd2c3-d6ed-46ab-acd9-9ae97ccded96))
  (gr_line (start 216 95) (end 216 96)
    (stroke (width 0.15) (type default)) (layer "Dwgs.User") (tstamp e1e34e84-5d07-452f-ac06-52e42fd8a114))
  (gr_line (start 190 148) (end 190 150)
    (stroke (width 0.15) (type default)) (layer "Dwgs.User") (tstamp e2c73c76-681a-47e1-9134-18951bd437b3))
  (gr_line (start 182 141) (end 182 142)
    (stroke (width 0.15) (type default)) (layer "Dwgs.User") (tstamp e2d18165-e541-4c6e-89a6-51c688dcd5b7))
  (gr_line (start 184 52) (end 184 53)
    (stroke (width 0.15) (type default)) (layer "Dwgs.User") (tstamp e2e1e65a-e00b-4b90-96a7-21de3524c574))
  (gr_line (start 216 70) (end 184 70)
    (stroke (width 0.15) (type default)) (layer "Dwgs.User") (tstamp e41c31ab-b52b-44a2-bec3-55008031238e))
  (gr_line (start 184 56) (end 184 57)
    (stroke (width 0.15) (type default)) (layer "Dwgs.User") (tstamp e45d537d-4a89-479b-b660-1b6171ec28a1))
  (gr_line (start 216 79) (end 216 80)
    (stroke (width 0.15) (type default)) (layer "Dwgs.User") (tstamp e461d027-ea05-449c-9a79-b51dece4feb2))
  (gr_line (start 182 128) (end 190 128)
    (stroke (width 0.15) (type default)) (layer "Dwgs.User") (tstamp e7da7286-7e3c-424e-a1a2-32baf9536661))
  (gr_line (start 216 50) (end 184 50)
    (stroke (width 0.15) (type default)) (layer "Dwgs.User") (tstamp e8805b19-fbdf-4fc5-906a-741c4596d435))
  (gr_line (start 184 83) (end 216 83)
    (stroke (width 0.15) (type default)) (layer "Dwgs.User") (tstamp e953df95-9b5a-4e40-8be0-6504c927203a))
  (gr_line (start 190 144) (end 190 145)
    (stroke (width 0.15) (type default)) (layer "Dwgs.User") (tstamp eb7cce95-6efc-417d-aedc-db6d71a05745))
  (gr_line (start 184 64) (end 184 65)
    (stroke (width 0.15) (type default)) (layer "Dwgs.User") (tstamp ebd5aa1c-fec4-4507-a9e8-365ea92ba074))
  (gr_line (start 182 129) (end 182 130)
    (stroke (width 0.15) (type default)) (layer "Dwgs.User") (tstamp ec779fe6-9281-4314-abb4-759b34df6acc))
  (gr_line (start 184 48) (end 184 49)
    (stroke (width 0.15) (type default)) (layer "Dwgs.User") (tstamp ef579342-53a4-4af6-abc1-dd237a9a1c63))
  (gr_line (start 184 73) (end 216 73)
    (stroke (width 0.15) (type default)) (layer "Dwgs.User") (tstamp ef7fb394-1960-4fe7-823d-3dcf863bbbd4))
  (gr_line (start 216 56) (end 184 56)
    (stroke (width 0.15) (type default)) (layer "Dwgs.User") (tstamp f02d9282-ffb7-46eb-9014-4c13e04bcaf9))
  (gr_line (start 184 96) (end 184 97)
    (stroke (width 0.15) (type default)) (layer "Dwgs.User") (tstamp f0df5cbd-f239-43db-8c40-94c12d7d46e3))
  (gr_line (start 216 76) (end 184 76)
    (stroke (width 0.15) (type default)) (layer "Dwgs.User") (tstamp f106251f-f2ea-48f7-9842-40b43b8cea25))
  (gr_line (start 184 39) (end 216 39)
    (stroke (width 0.15) (type default)) (layer "Dwgs.User") (tstamp f2ccb201-c16a-4a16-b2d1-d2afe37677e4))
  (gr_line (start 184 67) (end 216 67)
    (stroke (width 0.15) (type default)) (layer "Dwgs.User") (tstamp f328d12f-3c14-4fcf-a08a-cce162b94dcb))
  (gr_line (start 180 125) (end 190 125)
    (stroke (width 0.15) (type default)) (layer "Dwgs.User") (tstamp f3f5b8c9-6162-429b-b83d-f5c915038097))
  (gr_line (start 216 38) (end 184 38)
    (stroke (width 0.15) (type default)) (layer "Dwgs.User") (tstamp f6e556d7-adbc-41a0-b2a0-45489424e4fd))
  (gr_line (start 184 42) (end 184 43)
    (stroke (width 0.15) (type default)) (layer "Dwgs.User") (tstamp f7a48104-a238-4259-ac43-c0fb65ba16a7))
  (gr_line (start 180 150) (end 190 150)
    (stroke (width 0.15) (type default)) (layer "Dwgs.User") (tstamp f89e0096-12a5-421f-8ad3-d38d8c02434d))
  (gr_line (start 216 100) (end 184 100)
    (stroke (width 0.15) (type default)) (layer "Dwgs.User") (tstamp fb2b20c4-880e-48a5-99fa-5bc806834757))
  (gr_line (start 184 87) (end 216 87)
    (stroke (width 0.15) (type default)) (layer "Dwgs.User") (tstamp fbeff39f-f6df-4ca5-a57f-42289a79986f))
  (gr_line (start 216 74) (end 184 74)
    (stroke (width 0.15) (type default)) (layer "Dwgs.User") (tstamp fc8f9559-58d2-453c-9294-deecfa79ade4))
  (gr_line (start 184 41) (end 216 41)
    (stroke (width 0.15) (type default)) (layer "Dwgs.User") (tstamp fe9cf3a6-7237-4581-a971-a25f2d3817de))
  (gr_line (start 162.75 68.75) (end 165.25 71.25)
    (stroke (width 0.15) (type default)) (layer "Cmts.User") (tstamp 1378b9eb-1783-4679-ac8f-d904cd1f9539))
  (gr_line (start 118.75 68.75) (end 121.25 71.25)
    (stroke (width 0.15) (type default)) (layer "Cmts.User") (tstamp 14256cb7-7fdc-4c84-a005-4520b24d78e6))
  (gr_line (start 162.25 140.25) (end 165.75 136.75)
    (stroke (width 0.15) (type default)) (layer "Cmts.User") (tstamp 166322cf-52e0-4713-b23a-5fe7a9338ea7))
  (gr_line (start 118.25 140.25) (end 121.75 136.75)
    (stroke (width 0.15) (type default)) (layer "Cmts.User") (tstamp 1991b4fe-2980-4bb9-924d-faabb103b840))
  (gr_line (start 118.75 47.25) (end 121.25 44.75)
    (stroke (width 0.15) (type default)) (layer "Cmts.User") (tstamp 27cdd805-63ae-4138-ad45-380834251ea9))
  (gr_line (start 118.25 136.75) (end 121.75 140.25)
    (stroke (width 0.15) (type default)) (layer "Cmts.User") (tstamp 2887e5e6-871f-400c-8f47-f6fa022ead55))
  (gr_line (start 74.75 47.25) (end 77.25 44.75)
    (stroke (width 0.15) (type default)) (layer "Cmts.User") (tstamp 2a4568b2-5ad7-4405-ad21-d76c631df98a))
  (gr_line (start 118.75 39.25) (end 121.25 36.75)
    (stroke (width 0.15) (type default)) (layer "Cmts.User") (tstamp 31176d5a-38c0-4d64-8c50-2fb0e2036106))
  (gr_line (start 162.75 71.25) (end 165.25 68.75)
    (stroke (width 0.15) (type default)) (layer "Cmts.User") (tstamp 31549aa6-0aea-4106-9cd2-5334b627f545))
  (gr_line (start 74.75 71.25) (end 77.25 68.75)
    (stroke (width 0.15) (type default)) (layer "Cmts.User") (tstamp 46e7f6a9-3c2c-4787-8deb-fa1c597c0d72))
  (gr_line (start 161.25 87.75) (end 164.75 91.25)
    (stroke (width 0.15) (type default)) (layer "Cmts.User") (tstamp 4a6e7962-9310-4a7e-926f-dd2e961da193))
  (gr_line (start 162.75 47.25) (end 165.25 44.75)
    (stroke (width 0.15) (type default)) (layer "Cmts.User") (tstamp 622636e4-ec0b-4cee-bd29-bb12e8fd2c71))
  (gr_line (start 74.75 44.75) (end 77.25 47.25)
    (stroke (width 0.15) (type default)) (layer "Cmts.User") (tstamp 6f1b0676-9f01-411b-8380-d0602876867a))
  (gr_line (start 74.25 140.25) (end 77.75 136.75)
    (stroke (width 0.15) (type default)) (layer "Cmts.User") (tstamp 76c6ee35-2565-42b9-bef4-89dd3883a5cc))
  (gr_line (start 118.75 36.75) (end 121.25 39.25)
    (stroke (width 0.15) (type default)) (layer "Cmts.User") (tstamp 96e47b3e-e687-4512-bd4e-5c9b941fbeb7))
  (gr_line (start 118.75 71.25) (end 121.25 68.75)
    (stroke (width 0.15) (type default)) (layer "Cmts.User") (tstamp 9d9aba0d-3260-4a69-af20-8b1a9350ff19))
  (gr_line (start 162.25 136.75) (end 165.75 140.25)
    (stroke (width 0.15) (type default)) (layer "Cmts.User") (tstamp 9f50833d-bf49-4237-a403-971bddcda982))
  (gr_line (start 74.25 136.75) (end 77.75 140.25)
    (stroke (width 0.15) (type default)) (layer "Cmts.User") (tstamp b623f76e-20f7-4d73-a3f1-67b89f35f508))
  (gr_line (start 118.75 44.75) (end 121.25 47.25)
    (stroke (width 0.15) (type default)) (layer "Cmts.User") (tstamp c604399d-4c64-4e1f-b646-ea988cdeb05c))
  (gr_line (start 161.25 91.25) (end 164.75 87.75)
    (stroke (width 0.15) (type default)) (layer "Cmts.User") (tstamp cff424f6-aeae-49e1-b56b-f03df6c8f9a0))
  (gr_line (start 75.25 91.25) (end 78.75 87.75)
    (stroke (width 0.15) (type default)) (layer "Cmts.User") (tstamp d212fa2e-b616-427f-8025-1d1647c1d776))
  (gr_line (start 74.75 68.75) (end 77.25 71.25)
    (stroke (width 0.15) (type default)) (layer "Cmts.User") (tstamp d721be06-517c-4ef7-bedd-f26b0826599e))
  (gr_line (start 75.25 87.75) (end 78.75 91.25)
    (stroke (width 0.15) (type default)) (layer "Cmts.User") (tstamp e28ab8da-84ae-4a6d-b33e-d58b26646b32))
  (gr_line (start 162.75 44.75) (end 165.25 47.25)
    (stroke (width 0.15) (type default)) (layer "Cmts.User") (tstamp f8daadce-d043-4e3c-906d-c6f3d025ed82))
  (gr_text "Tap for M4" (at 155.5 87.5) (layer "Cmts.User") (tstamp 146de727-1912-4a0b-94ae-df8ab5d0ec9c)
    (effects (font (size 1 1) (thickness 0.15)) (justify right))
  )
  (gr_text "Small heatsink, 2x" (at 70 119) (layer "Cmts.User") (tstamp 2b6794b3-c827-4cd1-b491-37fb81add0be)
    (effects (font (size 2 2) (thickness 0.15)) (justify left bottom))
  )
  (gr_text "Large heatsink" (at 70 27) (layer "Cmts.User") (tstamp 854017fa-1cbf-4f4a-9dcd-0350fe7d22e4)
    (effects (font (size 2 2) (thickness 0.15)) (justify left bottom))
  )
  (gr_text "Tap for M3" (at 82 42.5) (layer "Cmts.User") (tstamp 88812382-cf2e-4c71-b307-f9985332ca82)
    (effects (font (size 1 1) (thickness 0.15)) (justify left))
  )
  (gr_text "In case heatsink dimensions differ from specification, locations\nof the holes shall be measured relative to this bottom edge." (at 70 104) (layer "Cmts.User") (tstamp 894145e5-e89e-4444-a0d3-e64498c3db43)
    (effects (font (size 1 1) (thickness 0.15)) (justify left top))
  )
  (gr_text "Tap for M4" (at 83 87.5) (layer "Cmts.User") (tstamp a82065cd-7a57-4213-a9eb-9822b58ce3d5)
    (effects (font (size 1 1) (thickness 0.15)) (justify left))
  )
  (dimension (type aligned) (layer "Cmts.User") (tstamp 041053d1-7cad-40d7-9685-39ddcd9c8885)
    (pts (xy 76 70) (xy 70 70))
    (height -5)
    (gr_text "6.0 mm" (at 73 73.85) (layer "Cmts.User") (tstamp 041053d1-7cad-40d7-9685-39ddcd9c8885)
      (effects (font (size 1 1) (thickness 0.15)))
    )
    (format (prefix "") (suffix "") (units 3) (units_format 1) (precision 1))
    (style (thickness 0.15) (arrow_length 1.27) (text_position_mode 0) (extension_height 0.58642) (extension_offset 0.5) keep_text_aligned)
  )
  (dimension (type aligned) (layer "Cmts.User") (tstamp 154d7dee-7c41-473f-bd0a-6126fe47945a)
    (pts (xy 120 138.5) (xy 164 138.5))
    (height -3.5)
    (gr_text "44.0 mm" (at 142 133.85) (layer "Cmts.User") (tstamp 154d7dee-7c41-473f-bd0a-6126fe47945a)
      (effects (font (size 1 1) (thickness 0.15)))
    )
    (format (prefix "") (suffix "") (units 3) (units_format 1) (precision 1))
    (style (thickness 0.15) (arrow_length 1.27) (text_position_mode 0) (extension_height 0.58642) (extension_offset 0.5) keep_text_aligned)
  )
  (dimension (type aligned) (layer "Cmts.User") (tstamp 1f181545-941a-4697-9099-e583ae366a57)
    (pts (xy 77 89.5) (xy 70 89.5))
    (height 4.5)
    (gr_text "7.0 mm" (at 73.5 83.85) (layer "Cmts.User") (tstamp 1f181545-941a-4697-9099-e583ae366a57)
      (effects (font (size 1 1) (thickness 0.15)))
    )
    (format (prefix "") (suffix "") (units 3) (units_format 1) (precision 1))
    (style (thickness 0.15) (arrow_length 1.27) (text_position_mode 0) (extension_height 0.58642) (extension_offset 0.5) keep_text_aligned)
  )
  (dimension (type aligned) (layer "Cmts.User") (tstamp 24290edc-c832-447e-9e47-5347e4a410c1)
    (pts (xy 76 138.5) (xy 120 138.5))
    (height -3.5)
    (gr_text "44.0 mm" (at 98 133.85) (layer "Cmts.User") (tstamp 24290edc-c832-447e-9e47-5347e4a410c1)
      (effects (font (size 1 1) (thickness 0.15)))
    )
    (format (prefix "") (suffix "") (units 3) (units_format 1) (precision 1))
    (style (thickness 0.15) (arrow_length 1.27) (text_position_mode 0) (extension_height 0.58642) (extension_offset 0.5) keep_text_aligned)
  )
  (dimension (type aligned) (layer "Cmts.User") (tstamp 2ff37439-9b69-4ec6-b083-089a2ff15f33)
    (pts (xy 77 89.5) (xy 77 103))
    (height -4)
    (gr_text "13.5 mm" (at 79.85 96.25 90) (layer "Cmts.User") (tstamp 2ff37439-9b69-4ec6-b083-089a2ff15f33)
      (effects (font (size 1 1) (thickness 0.15)))
    )
    (format (prefix "") (suffix "") (units 3) (units_format 1) (precision 1))
    (style (thickness 0.15) (arrow_length 1.27) (text_position_mode 0) (extension_height 0.58642) (extension_offset 0.5) keep_text_aligned)
  )
  (dimension (type aligned) (layer "Cmts.User") (tstamp 36d8e9e2-09b5-4c35-9397-77ef8bf4eda2)
    (pts (xy 76 70) (xy 76 103))
    (height -20.5)
    (gr_text "33.0 mm" (at 95.35 86.5 90) (layer "Cmts.User") (tstamp 36d8e9e2-09b5-4c35-9397-77ef8bf4eda2)
      (effects (font (size 1 1) (thickness 0.15)))
    )
    (format (prefix "") (suffix "") (units 3) (units_format 1) (precision 1))
    (style (thickness 0.15) (arrow_length 1.27) (text_position_mode 0) (extension_height 0.58642) (extension_offset 0.5) keep_text_aligned)
  )
  (dimension (type aligned) (layer "Cmts.User") (tstamp 3fb59d19-beaf-442c-918b-beade3b147ed)
    (pts (xy 180 34) (xy 184 34))
    (height -2)
    (gr_text "Approx. 4.0 mm" (at 185 32) (layer "Cmts.User") (tstamp 3fb59d19-beaf-442c-918b-beade3b147ed)
      (effects (font (size 1 1) (thickness 0.15)) (justify left))
    )
    (format (prefix "Approx. ") (suffix "") (units 3) (units_format 1) (precision 1))
    (style (thickness 0.15) (arrow_length 1.27) (text_position_mode 2) (extension_height 0.58642) (extension_offset 0.5) keep_text_aligned)
  )
  (dimension (type aligned) (layer "Cmts.User") (tstamp 53d41670-5736-40b4-8d3d-642c2366d2c6)
    (pts (xy 120 70) (xy 164 70))
    (height -4.5)
    (gr_text "44.0 mm" (at 142 64.35) (layer "Cmts.User") (tstamp 53d41670-5736-40b4-8d3d-642c2366d2c6)
      (effects (font (size 1 1) (thickness 0.15)))
    )
    (format (prefix "") (suffix "") (units 3) (units_format 1) (precision 1))
    (style (thickness 0.15) (arrow_length 1.27) (text_position_mode 0) (extension_height 0.58642) (extension_offset 0.5) keep_text_aligned)
  )
  (dimension (type aligned) (layer "Cmts.User") (tstamp 571a4d1f-e389-4a93-a248-ed0e04ac0243)
    (pts (xy 70 34) (xy 170 34))
    (height -3)
    (gr_text "100.0 mm" (at 120 29.85) (layer "Cmts.User") (tstamp 571a4d1f-e389-4a93-a248-ed0e04ac0243)
      (effects (font (size 1 1) (thickness 0.15)))
    )
    (format (prefix "") (suffix "") (units 3) (units_format 1) (precision 1))
    (style (thickness 0.15) (arrow_length 1.27) (text_position_mode 0) (extension_height 0.58642) (extension_offset 0.5) keep_text_aligned)
  )
  (dimension (type aligned) (layer "Cmts.User") (tstamp 6f6950c7-231d-45ce-b3af-39773ee33010)
    (pts (xy 70 34) (xy 70 103))
    (height 5)
    (gr_text "69.0 mm" (at 63.85 68.5 90) (layer "Cmts.User") (tstamp 6f6950c7-231d-45ce-b3af-39773ee33010)
      (effects (font (size 1 1) (thickness 0.15)))
    )
    (format (prefix "") (suffix "") (units 3) (units_format 1) (precision 1))
    (style (thickness 0.15) (arrow_length 1.27) (text_position_mode 0) (extension_height 0.58642) (extension_offset 0.5) keep_text_aligned)
  )
  (dimension (type aligned) (layer "Cmts.User") (tstamp 724b1d08-232a-41ae-b798-e9e1f3807a86)
    (pts (xy 70 125) (xy 70 150))
    (height 5)
    (gr_text "25.0 mm" (at 63.85 137.5 90) (layer "Cmts.User") (tstamp 724b1d08-232a-41ae-b798-e9e1f3807a86)
      (effects (font (size 1 1) (thickness 0.15)))
    )
    (format (prefix "") (suffix "") (units 3) (units_format 1) (precision 1))
    (style (thickness 0.15) (arrow_length 1.27) (text_position_mode 0) (extension_height 0.58642) (extension_offset 0.5) keep_text_aligned)
  )
  (dimension (type aligned) (layer "Cmts.User") (tstamp 7b33b1df-86e7-4e78-adf4-5ffb173dd87c)
    (pts (xy 120 46) (xy 164 46))
    (height 4)
    (gr_text "44.0 mm" (at 142 48.85) (layer "Cmts.User") (tstamp 7b33b1df-86e7-4e78-adf4-5ffb173dd87c)
      (effects (font (size 1 1) (thickness 0.15)))
    )
    (format (prefix "") (suffix "") (units 3) (units_format 1) (precision 1))
    (style (thickness 0.15) (arrow_length 1.27) (text_position_mode 0) (extension_height 0.58642) (extension_offset 0.5) keep_text_aligned)
  )
  (dimension (type aligned) (layer "Cmts.User") (tstamp 84a0dc02-94e2-4d6f-9b08-dd627a8f09a6)
    (pts (xy 120 46) (xy 120 38))
    (height -4.5)
    (gr_text "8.0 mm" (at 114.35 42 90) (layer "Cmts.User") (tstamp 84a0dc02-94e2-4d6f-9b08-dd627a8f09a6)
      (effects (font (size 1 1) (thickness 0.15)))
    )
    (format (prefix "") (suffix "") (units 3) (units_format 1) (precision 1))
    (style (thickness 0.15) (arrow_length 1.27) (text_position_mode 0) (extension_height 0.58642) (extension_offset 0.5) keep_text_aligned)
  )
  (dimension (type aligned) (layer "Cmts.User") (tstamp 8b462dec-0b0e-4d08-9b59-40171b43a5ac)
    (pts (xy 70 125) (xy 170 125))
    (height -3)
    (gr_text "100.0 mm" (at 120 120.85) (layer "Cmts.User") (tstamp 8b462dec-0b0e-4d08-9b59-40171b43a5ac)
      (effects (font (size 1 1) (thickness 0.15)))
    )
    (format (prefix "") (suffix "") (units 3) (units_format 1) (precision 1))
    (style (thickness 0.15) (arrow_length 1.27) (text_position_mode 0) (extension_height 0.58642) (extension_offset 0.5) keep_text_aligned)
  )
  (dimension (type aligned) (layer "Cmts.User") (tstamp 8f2c5eb6-45b8-4077-9530-0dfc5bf86a05)
    (pts (xy 76 70) (xy 76 46))
    (height -3)
    (gr_text "24.0 mm" (at 71.85 58 90) (layer "Cmts.User") (tstamp 8f2c5eb6-45b8-4077-9530-0dfc5bf86a05)
      (effects (font (size 1 1) (thickness 0.15)))
    )
    (format (prefix "") (suffix "") (units 3) (units_format 1) (precision 1))
    (style (thickness 0.15) (arrow_length 1.27) (text_position_mode 0) (extension_height 0.58642) (extension_offset 0.5) keep_text_aligned)
  )
  (dimension (type aligned) (layer "Cmts.User") (tstamp 9cfe6970-485c-4dc2-9ff0-0bec9df76dc7)
    (pts (xy 76 138.5) (xy 70 138.5))
    (height 3.5)
    (gr_text "6.0 mm" (at 73 133.85) (layer "Cmts.User") (tstamp 9cfe6970-485c-4dc2-9ff0-0bec9df76dc7)
      (effects (font (size 1 1) (thickness 0.15)))
    )
    (format (prefix "") (suffix "") (units 3) (units_format 1) (precision 1))
    (style (thickness 0.15) (arrow_length 1.27) (text_position_mode 0) (extension_height 0.58642) (extension_offset 0.5) keep_text_aligned)
  )
  (dimension (type aligned) (layer "Cmts.User") (tstamp a7bbfb71-a24e-435a-91cb-a485a445cac2)
    (pts (xy 76 138.5) (xy 76 150))
    (height -4)
    (gr_text "11.5 mm" (at 78.85 144.25 90) (layer "Cmts.User") (tstamp a7bbfb71-a24e-435a-91cb-a485a445cac2)
      (effects (font (size 1 1) (thickness 0.15)))
    )
    (format (prefix "") (suffix "") (units 3) (units_format 1) (precision 1))
    (style (thickness 0.15) (arrow_length 1.27) (text_position_mode 0) (extension_height 0.58642) (extension_offset 0.5) keep_text_aligned)
  )
  (dimension (type aligned) (layer "Cmts.User") (tstamp b23b08fc-da68-4c58-821f-e01f3f18b2c3)
    (pts (xy 180 125) (xy 190 125))
    (height -3)
    (gr_text "10.0 mm" (at 185 120.85) (layer "Cmts.User") (tstamp b23b08fc-da68-4c58-821f-e01f3f18b2c3)
      (effects (font (size 1 1) (thickness 0.15)))
    )
    (format (prefix "") (suffix "") (units 3) (units_format 1) (precision 1))
    (style (thickness 0.15) (arrow_length 1.27) (text_position_mode 0) (extension_height 0.58642) (extension_offset 0.5) keep_text_aligned)
  )
  (dimension (type aligned) (layer "Cmts.User") (tstamp c8ad3a7b-8e5f-460f-80e2-251bf46903c5)
    (pts (xy 163 89.5) (xy 163 103))
    (height 3.5)
    (gr_text "13.5 mm" (at 158.35 96.25 90) (layer "Cmts.User") (tstamp c8ad3a7b-8e5f-460f-80e2-251bf46903c5)
      (effects (font (size 1 1) (thickness 0.15)))
    )
    (format (prefix "") (suffix "") (units 3) (units_format 1) (precision 1))
    (style (thickness 0.15) (arrow_length 1.27) (text_position_mode 0) (extension_height 0.58642) (extension_offset 0.5) keep_text_aligned)
  )
  (dimension (type aligned) (layer "Cmts.User") (tstamp dd7d32ed-cfb7-490a-b6d8-2223eef70b88)
    (pts (xy 180 34) (xy 216 34))
    (height -5)
    (gr_text "36.0 mm" (at 198 27.85) (layer "Cmts.User") (tstamp dd7d32ed-cfb7-490a-b6d8-2223eef70b88)
      (effects (font (size 1 1) (thickness 0.15)))
    )
    (format (prefix "") (suffix "") (units 3) (units_format 1) (precision 1))
    (style (thickness 0.15) (arrow_length 1.27) (text_position_mode 0) (extension_height 0.58642) (extension_offset 0.5) keep_text_aligned)
  )
  (dimension (type aligned) (layer "Cmts.User") (tstamp e808c210-2d9d-4592-9166-08ad5e5cd715)
    (pts (xy 163 89.5) (xy 170 89.5))
    (height -4.5)
    (gr_text "7.0 mm" (at 166.5 83.85) (layer "Cmts.User") (tstamp e808c210-2d9d-4592-9166-08ad5e5cd715)
      (effects (font (size 1 1) (thickness 0.15)))
    )
    (format (prefix "") (suffix "") (units 3) (units_format 1) (precision 1))
    (style (thickness 0.15) (arrow_length 1.27) (text_position_mode 0) (extension_height 0.58642) (extension_offset 0.5) keep_text_aligned)
  )
  (dimension (type aligned) (layer "Cmts.User") (tstamp f7ec0663-4e82-4615-a185-992fb870b165)
    (pts (xy 76 70) (xy 120 70))
    (height -4.5)
    (gr_text "44.0 mm" (at 98 64.35) (layer "Cmts.User") (tstamp f7ec0663-4e82-4615-a185-992fb870b165)
      (effects (font (size 1 1) (thickness 0.15)))
    )
    (format (prefix "") (suffix "") (units 3) (units_format 1) (precision 1))
    (style (thickness 0.15) (arrow_length 1.27) (text_position_mode 0) (extension_height 0.58642) (extension_offset 0.5) keep_text_aligned)
  )
  (dimension (type aligned) (layer "Cmts.User") (tstamp f973c500-1855-4ca1-b225-486af2f21aef)
    (pts (xy 76 46) (xy 120 46))
    (height 4)
    (gr_text "44.0 mm" (at 98 48.85) (layer "Cmts.User") (tstamp f973c500-1855-4ca1-b225-486af2f21aef)
      (effects (font (size 1 1) (thickness 0.15)))
    )
    (format (prefix "") (suffix "") (units 3) (units_format 1) (precision 1))
    (style (thickness 0.15) (arrow_length 1.27) (text_position_mode 0) (extension_height 0.58642) (extension_offset 0.5) keep_text_aligned)
  )
  (dimension (type leader) (layer "Cmts.User") (tstamp 76ffc633-8c06-40c0-8bf8-391d1f53a4a5)
    (pts (xy 118.25 140.25) (xy 116 142.5))
    (gr_text "3x D = 3/16 in" (at 113 142.5) (layer "Cmts.User") (tstamp 76ffc633-8c06-40c0-8bf8-391d1f53a4a5)
      (effects (font (size 1 1) (thickness 0.15)) (justify right))
    )
    (format (prefix "") (suffix "") (units 0) (units_format 0) (precision 4) (override_value "3x D = 3/16 in"))
    (style (thickness 0.15) (arrow_length 1.27) (text_position_mode 0) (text_frame 0) (extension_offset 0.5))
  )
  (dimension (type leader) (layer "Cmts.User") (tstamp 8b18d0f5-985b-42f8-bfec-ade66dd5b6c0)
    (pts (xy 77.5 44.5) (xy 80.5 40.5))
    (gr_text "7x D = 3/32 in" (at 82 40.5) (layer "Cmts.User") (tstamp 8b18d0f5-985b-42f8-bfec-ade66dd5b6c0)
      (effects (font (size 1 1) (thickness 0.15)) (justify left))
    )
    (format (prefix "") (suffix "") (units 0) (units_format 0) (precision 4) (override_value "7x D = 3/32 in"))
    (style (thickness 0.15) (arrow_length 1.27) (text_position_mode 0) (text_frame 0) (extension_offset 0.5))
  )
  (dimension (type leader) (layer "Cmts.User") (tstamp e75a3530-26a3-497c-a7c4-dbc0ffb1f2d2)
    (pts (xy 79 87.5) (xy 81 85.5))
    (gr_text "D = 1/8 in" (at 83 85.5) (layer "Cmts.User") (tstamp e75a3530-26a3-497c-a7c4-dbc0ffb1f2d2)
      (effects (font (size 1 1) (thickness 0.15)) (justify left))
    )
    (format (prefix "") (suffix "") (units 0) (units_format 0) (precision 4) (override_value "D = 1/8 in"))
    (style (thickness 0.15) (arrow_length 1.27) (text_position_mode 0) (text_frame 0) (extension_offset 0.5))
  )
  (dimension (type leader) (layer "Cmts.User") (tstamp fd12971f-8420-4b18-b3a0-44ba859e04ba)
    (pts (xy 161 87.5) (xy 159 85.5))
    (gr_text "D = 1/8 in" (at 155.5 85.5) (layer "Cmts.User") (tstamp fd12971f-8420-4b18-b3a0-44ba859e04ba)
      (effects (font (size 1 1) (thickness 0.15)) (justify right))
    )
    (format (prefix "") (suffix "") (units 0) (units_format 0) (precision 4) (override_value "D = 1/8 in"))
    (style (thickness 0.15) (arrow_length 1.27) (text_position_mode 0) (text_frame 0) (extension_offset 0.5))
  )

)
