(kicad_sch (version 20230409) (generator eeschema)

  (uuid 24341357-78e8-4e8e-bce0-5fed6ae2d89b)

  (paper "A")

  (title_block
    (title "Auxiliary control register")
    (date "2023-03-30")
    (rev "1")
    (company "Free Instruments Project")
    (comment 1 "public domain")
  )

  (lib_symbols
    (symbol "74xx:74HCT595" (in_bom yes) (on_board yes)
      (property "Reference" "U" (at -7.62 13.97 0)
        (effects (font (size 1.27 1.27)))
      )
      (property "Value" "74HCT595" (at -7.62 -16.51 0)
        (effects (font (size 1.27 1.27)))
      )
      (property "Footprint" "" (at 0 0 0)
        (effects (font (size 1.27 1.27)) hide)
      )
      (property "Datasheet" "https://assets.nexperia.com/documents/data-sheet/74HC_HCT595.pdf" (at 0 0 0)
        (effects (font (size 1.27 1.27)) hide)
      )
      (property "ki_keywords" "HCTMOS SR 3State" (at 0 0 0)
        (effects (font (size 1.27 1.27)) hide)
      )
      (property "ki_description" "8-bit serial in/out Shift Register 3-State Outputs" (at 0 0 0)
        (effects (font (size 1.27 1.27)) hide)
      )
      (property "ki_fp_filters" "DIP*W7.62mm* SOIC*3.9x9.9mm*P1.27mm* TSSOP*4.4x5mm*P0.65mm* SOIC*5.3x10.2mm*P1.27mm* SOIC*7.5x10.3mm*P1.27mm*" (at 0 0 0)
        (effects (font (size 1.27 1.27)) hide)
      )
      (symbol "74HCT595_1_0"
        (pin tri_state line (at 10.16 7.62 180) (length 2.54)
          (name "QB" (effects (font (size 1.27 1.27))))
          (number "1" (effects (font (size 1.27 1.27))))
        )
        (pin input line (at -10.16 2.54 0) (length 2.54)
          (name "~{SRCLR}" (effects (font (size 1.27 1.27))))
          (number "10" (effects (font (size 1.27 1.27))))
        )
        (pin input line (at -10.16 5.08 0) (length 2.54)
          (name "SRCLK" (effects (font (size 1.27 1.27))))
          (number "11" (effects (font (size 1.27 1.27))))
        )
        (pin input line (at -10.16 -2.54 0) (length 2.54)
          (name "RCLK" (effects (font (size 1.27 1.27))))
          (number "12" (effects (font (size 1.27 1.27))))
        )
        (pin input line (at -10.16 -5.08 0) (length 2.54)
          (name "~{OE}" (effects (font (size 1.27 1.27))))
          (number "13" (effects (font (size 1.27 1.27))))
        )
        (pin input line (at -10.16 10.16 0) (length 2.54)
          (name "SER" (effects (font (size 1.27 1.27))))
          (number "14" (effects (font (size 1.27 1.27))))
        )
        (pin tri_state line (at 10.16 10.16 180) (length 2.54)
          (name "QA" (effects (font (size 1.27 1.27))))
          (number "15" (effects (font (size 1.27 1.27))))
        )
        (pin power_in line (at 0 15.24 270) (length 2.54)
          (name "VCC" (effects (font (size 1.27 1.27))))
          (number "16" (effects (font (size 1.27 1.27))))
        )
        (pin tri_state line (at 10.16 5.08 180) (length 2.54)
          (name "QC" (effects (font (size 1.27 1.27))))
          (number "2" (effects (font (size 1.27 1.27))))
        )
        (pin tri_state line (at 10.16 2.54 180) (length 2.54)
          (name "QD" (effects (font (size 1.27 1.27))))
          (number "3" (effects (font (size 1.27 1.27))))
        )
        (pin tri_state line (at 10.16 0 180) (length 2.54)
          (name "QE" (effects (font (size 1.27 1.27))))
          (number "4" (effects (font (size 1.27 1.27))))
        )
        (pin tri_state line (at 10.16 -2.54 180) (length 2.54)
          (name "QF" (effects (font (size 1.27 1.27))))
          (number "5" (effects (font (size 1.27 1.27))))
        )
        (pin tri_state line (at 10.16 -5.08 180) (length 2.54)
          (name "QG" (effects (font (size 1.27 1.27))))
          (number "6" (effects (font (size 1.27 1.27))))
        )
        (pin tri_state line (at 10.16 -7.62 180) (length 2.54)
          (name "QH" (effects (font (size 1.27 1.27))))
          (number "7" (effects (font (size 1.27 1.27))))
        )
        (pin power_in line (at 0 -17.78 90) (length 2.54)
          (name "GND" (effects (font (size 1.27 1.27))))
          (number "8" (effects (font (size 1.27 1.27))))
        )
        (pin output line (at 10.16 -12.7 180) (length 2.54)
          (name "QH'" (effects (font (size 1.27 1.27))))
          (number "9" (effects (font (size 1.27 1.27))))
        )
      )
      (symbol "74HCT595_1_1"
        (rectangle (start -7.62 12.7) (end 7.62 -15.24)
          (stroke (width 0.254) (type default))
          (fill (type background))
        )
      )
    )
    (symbol "C_1" (pin_numbers hide) (pin_names (offset 0.254) hide) (in_bom yes) (on_board yes)
      (property "Reference" "C" (at 3.81 1.27 0)
        (effects (font (size 1.27 1.27)))
      )
      (property "Value" "C" (at 3.81 -1.27 0)
        (effects (font (size 1.27 1.27)))
      )
      (property "Footprint" "" (at 0 0 0)
        (effects (font (size 1.27 1.27)) hide)
      )
      (property "Datasheet" "~" (at 0 0 0)
        (effects (font (size 1.27 1.27)) hide)
      )
      (property "ki_keywords" "capacitor" (at 0 0 0)
        (effects (font (size 1.27 1.27)) hide)
      )
      (property "ki_description" "Capacitor" (at 0 0 0)
        (effects (font (size 1.27 1.27)) hide)
      )
      (symbol "C_1_0_1"
        (polyline
          (pts
            (xy -2.032 0.762)
            (xy 2.032 0.762)
          )
          (stroke (width 0.3048) (type default))
          (fill (type none))
        )
      )
      (symbol "C_1_0_2"
        (polyline
          (pts
            (xy -2.032 -0.254)
            (xy 2.032 -0.254)
          )
          (stroke (width 0.3048) (type default))
          (fill (type none))
        )
      )
      (symbol "C_1_1_1"
        (arc (start 2.032 -0.762) (mid 0 -0.3568) (end -2.032 -0.762)
          (stroke (width 0.3048) (type default))
          (fill (type none))
        )
        (pin passive line (at 0 3.81 270) (length 3.048)
          (name "~" (effects (font (size 1.27 1.27))))
          (number "1" (effects (font (size 1.016 1.016))))
        )
        (pin passive line (at 0 -3.81 90) (length 3.429)
          (name "~" (effects (font (size 1.27 1.27))))
          (number "2" (effects (font (size 1.016 1.016))))
        )
      )
      (symbol "C_1_1_2"
        (arc (start -2.032 1.27) (mid 0 0.8648) (end 2.032 1.27)
          (stroke (width 0.3048) (type default))
          (fill (type none))
        )
        (pin passive line (at 0 3.81 270) (length 3.048)
          (name "~" (effects (font (size 1.27 1.27))))
          (number "1" (effects (font (size 1.016 1.016))))
        )
        (pin passive line (at 0 -3.81 90) (length 3.429)
          (name "~" (effects (font (size 1.27 1.27))))
          (number "2" (effects (font (size 1.016 1.016))))
        )
      )
    )
    (symbol "C_2" (pin_numbers hide) (pin_names (offset 0.254) hide) (in_bom yes) (on_board yes)
      (property "Reference" "C" (at 3.81 1.27 0)
        (effects (font (size 1.27 1.27)))
      )
      (property "Value" "C" (at 3.81 -1.27 0)
        (effects (font (size 1.27 1.27)))
      )
      (property "Footprint" "" (at 0 0 0)
        (effects (font (size 1.27 1.27)) hide)
      )
      (property "Datasheet" "~" (at 0 0 0)
        (effects (font (size 1.27 1.27)) hide)
      )
      (property "ki_keywords" "capacitor" (at 0 0 0)
        (effects (font (size 1.27 1.27)) hide)
      )
      (property "ki_description" "Capacitor" (at 0 0 0)
        (effects (font (size 1.27 1.27)) hide)
      )
      (symbol "C_2_0_1"
        (polyline
          (pts
            (xy -2.032 0.762)
            (xy 2.032 0.762)
          )
          (stroke (width 0.3048) (type default))
          (fill (type none))
        )
      )
      (symbol "C_2_0_2"
        (polyline
          (pts
            (xy -2.032 -0.254)
            (xy 2.032 -0.254)
          )
          (stroke (width 0.3048) (type default))
          (fill (type none))
        )
      )
      (symbol "C_2_1_1"
        (arc (start 2.032 -0.762) (mid 0 -0.3568) (end -2.032 -0.762)
          (stroke (width 0.3048) (type default))
          (fill (type none))
        )
        (pin passive line (at 0 3.81 270) (length 3.048)
          (name "~" (effects (font (size 1.27 1.27))))
          (number "1" (effects (font (size 1.016 1.016))))
        )
        (pin passive line (at 0 -3.81 90) (length 3.429)
          (name "~" (effects (font (size 1.27 1.27))))
          (number "2" (effects (font (size 1.016 1.016))))
        )
      )
      (symbol "C_2_1_2"
        (arc (start -2.032 1.27) (mid 0 0.8648) (end 2.032 1.27)
          (stroke (width 0.3048) (type default))
          (fill (type none))
        )
        (pin passive line (at 0 3.81 270) (length 3.048)
          (name "~" (effects (font (size 1.27 1.27))))
          (number "1" (effects (font (size 1.016 1.016))))
        )
        (pin passive line (at 0 -3.81 90) (length 3.429)
          (name "~" (effects (font (size 1.27 1.27))))
          (number "2" (effects (font (size 1.016 1.016))))
        )
      )
    )
    (symbol "C_3" (pin_numbers hide) (pin_names (offset 0.254) hide) (in_bom yes) (on_board yes)
      (property "Reference" "C" (at 3.81 1.27 0)
        (effects (font (size 1.27 1.27)))
      )
      (property "Value" "C" (at 3.81 -1.27 0)
        (effects (font (size 1.27 1.27)))
      )
      (property "Footprint" "" (at 0 0 0)
        (effects (font (size 1.27 1.27)) hide)
      )
      (property "Datasheet" "~" (at 0 0 0)
        (effects (font (size 1.27 1.27)) hide)
      )
      (property "ki_keywords" "capacitor" (at 0 0 0)
        (effects (font (size 1.27 1.27)) hide)
      )
      (property "ki_description" "Capacitor" (at 0 0 0)
        (effects (font (size 1.27 1.27)) hide)
      )
      (symbol "C_3_0_1"
        (polyline
          (pts
            (xy -2.032 0.762)
            (xy 2.032 0.762)
          )
          (stroke (width 0.3048) (type default))
          (fill (type none))
        )
      )
      (symbol "C_3_0_2"
        (polyline
          (pts
            (xy -2.032 -0.254)
            (xy 2.032 -0.254)
          )
          (stroke (width 0.3048) (type default))
          (fill (type none))
        )
      )
      (symbol "C_3_1_1"
        (arc (start 2.032 -0.762) (mid 0 -0.3568) (end -2.032 -0.762)
          (stroke (width 0.3048) (type default))
          (fill (type none))
        )
        (pin passive line (at 0 3.81 270) (length 3.048)
          (name "~" (effects (font (size 1.27 1.27))))
          (number "1" (effects (font (size 1.016 1.016))))
        )
        (pin passive line (at 0 -3.81 90) (length 3.429)
          (name "~" (effects (font (size 1.27 1.27))))
          (number "2" (effects (font (size 1.016 1.016))))
        )
      )
      (symbol "C_3_1_2"
        (arc (start -2.032 1.27) (mid 0 0.8648) (end 2.032 1.27)
          (stroke (width 0.3048) (type default))
          (fill (type none))
        )
        (pin passive line (at 0 3.81 270) (length 3.048)
          (name "~" (effects (font (size 1.27 1.27))))
          (number "1" (effects (font (size 1.016 1.016))))
        )
        (pin passive line (at 0 -3.81 90) (length 3.429)
          (name "~" (effects (font (size 1.27 1.27))))
          (number "2" (effects (font (size 1.016 1.016))))
        )
      )
    )
    (symbol "C_4" (pin_numbers hide) (pin_names (offset 0.254) hide) (in_bom yes) (on_board yes)
      (property "Reference" "C" (at 3.81 1.27 0)
        (effects (font (size 1.27 1.27)))
      )
      (property "Value" "C" (at 3.81 -1.27 0)
        (effects (font (size 1.27 1.27)))
      )
      (property "Footprint" "" (at 0 0 0)
        (effects (font (size 1.27 1.27)) hide)
      )
      (property "Datasheet" "~" (at 0 0 0)
        (effects (font (size 1.27 1.27)) hide)
      )
      (property "ki_keywords" "capacitor" (at 0 0 0)
        (effects (font (size 1.27 1.27)) hide)
      )
      (property "ki_description" "Capacitor" (at 0 0 0)
        (effects (font (size 1.27 1.27)) hide)
      )
      (symbol "C_4_0_1"
        (polyline
          (pts
            (xy -2.032 0.762)
            (xy 2.032 0.762)
          )
          (stroke (width 0.3048) (type default))
          (fill (type none))
        )
      )
      (symbol "C_4_0_2"
        (polyline
          (pts
            (xy -2.032 -0.254)
            (xy 2.032 -0.254)
          )
          (stroke (width 0.3048) (type default))
          (fill (type none))
        )
      )
      (symbol "C_4_1_1"
        (arc (start 2.032 -0.762) (mid 0 -0.3568) (end -2.032 -0.762)
          (stroke (width 0.3048) (type default))
          (fill (type none))
        )
        (pin passive line (at 0 3.81 270) (length 3.048)
          (name "~" (effects (font (size 1.27 1.27))))
          (number "1" (effects (font (size 1.016 1.016))))
        )
        (pin passive line (at 0 -3.81 90) (length 3.429)
          (name "~" (effects (font (size 1.27 1.27))))
          (number "2" (effects (font (size 1.016 1.016))))
        )
      )
      (symbol "C_4_1_2"
        (arc (start -2.032 1.27) (mid 0 0.8648) (end 2.032 1.27)
          (stroke (width 0.3048) (type default))
          (fill (type none))
        )
        (pin passive line (at 0 3.81 270) (length 3.048)
          (name "~" (effects (font (size 1.27 1.27))))
          (number "1" (effects (font (size 1.016 1.016))))
        )
        (pin passive line (at 0 -3.81 90) (length 3.429)
          (name "~" (effects (font (size 1.27 1.27))))
          (number "2" (effects (font (size 1.016 1.016))))
        )
      )
    )
    (symbol "Connector:TestPoint_Probe" (pin_numbers hide) (pin_names (offset 0.762) hide) (in_bom yes) (on_board yes)
      (property "Reference" "TP" (at 1.651 5.842 0)
        (effects (font (size 1.27 1.27)))
      )
      (property "Value" "TestPoint_Probe" (at 1.651 4.064 0)
        (effects (font (size 1.27 1.27)))
      )
      (property "Footprint" "" (at 5.08 0 0)
        (effects (font (size 1.27 1.27)) hide)
      )
      (property "Datasheet" "~" (at 5.08 0 0)
        (effects (font (size 1.27 1.27)) hide)
      )
      (property "ki_keywords" "test point tp" (at 0 0 0)
        (effects (font (size 1.27 1.27)) hide)
      )
      (property "ki_description" "test point (alternative probe-style design)" (at 0 0 0)
        (effects (font (size 1.27 1.27)) hide)
      )
      (property "ki_fp_filters" "Pin* Test*" (at 0 0 0)
        (effects (font (size 1.27 1.27)) hide)
      )
      (symbol "TestPoint_Probe_0_1"
        (polyline
          (pts
            (xy 1.27 0.762)
            (xy 0 0)
            (xy 0.762 1.27)
            (xy 1.27 0.762)
          )
          (stroke (width 0) (type default))
          (fill (type outline))
        )
        (polyline
          (pts
            (xy 1.397 0.635)
            (xy 0.635 1.397)
            (xy 2.413 3.175)
            (xy 3.175 2.413)
            (xy 1.397 0.635)
          )
          (stroke (width 0) (type default))
          (fill (type background))
        )
      )
      (symbol "TestPoint_Probe_1_1"
        (pin passive line (at 0 0 90) (length 0)
          (name "1" (effects (font (size 1.27 1.27))))
          (number "1" (effects (font (size 1.27 1.27))))
        )
      )
    )
    (symbol "Transistor_Array:ULN2003A" (in_bom yes) (on_board yes)
      (property "Reference" "U" (at 0 15.875 0)
        (effects (font (size 1.27 1.27)))
      )
      (property "Value" "ULN2003A" (at 0 13.97 0)
        (effects (font (size 1.27 1.27)))
      )
      (property "Footprint" "" (at 1.27 -13.97 0)
        (effects (font (size 1.27 1.27)) (justify left) hide)
      )
      (property "Datasheet" "http://www.ti.com/lit/ds/symlink/uln2003a.pdf" (at 2.54 -5.08 0)
        (effects (font (size 1.27 1.27)) hide)
      )
      (property "ki_keywords" "darlington transistor array" (at 0 0 0)
        (effects (font (size 1.27 1.27)) hide)
      )
      (property "ki_description" "High Voltage, High Current Darlington Transistor Arrays, SOIC16/SOIC16W/DIP16/TSSOP16" (at 0 0 0)
        (effects (font (size 1.27 1.27)) hide)
      )
      (property "ki_fp_filters" "DIP*W7.62mm* SOIC*3.9x9.9mm*P1.27mm* SSOP*4.4x5.2mm*P0.65mm* TSSOP*4.4x5mm*P0.65mm* SOIC*W*5.3x10.2mm*P1.27mm*" (at 0 0 0)
        (effects (font (size 1.27 1.27)) hide)
      )
      (symbol "ULN2003A_0_1"
        (rectangle (start -7.62 -12.7) (end 7.62 12.7)
          (stroke (width 0.254) (type default))
          (fill (type background))
        )
        (circle (center -1.778 5.08) (radius 0.254)
          (stroke (width 0) (type default))
          (fill (type none))
        )
        (circle (center -1.27 -2.286) (radius 0.254)
          (stroke (width 0) (type default))
          (fill (type outline))
        )
        (circle (center -1.27 0) (radius 0.254)
          (stroke (width 0) (type default))
          (fill (type outline))
        )
        (circle (center -1.27 2.54) (radius 0.254)
          (stroke (width 0) (type default))
          (fill (type outline))
        )
        (circle (center -0.508 5.08) (radius 0.254)
          (stroke (width 0) (type default))
          (fill (type outline))
        )
        (polyline
          (pts
            (xy -4.572 5.08)
            (xy -3.556 5.08)
          )
          (stroke (width 0) (type default))
          (fill (type none))
        )
        (polyline
          (pts
            (xy -1.524 5.08)
            (xy 4.064 5.08)
          )
          (stroke (width 0) (type default))
          (fill (type none))
        )
        (polyline
          (pts
            (xy 0 6.731)
            (xy -1.016 6.731)
          )
          (stroke (width 0) (type default))
          (fill (type none))
        )
        (polyline
          (pts
            (xy -0.508 5.08)
            (xy -0.508 10.16)
            (xy 2.921 10.16)
          )
          (stroke (width 0) (type default))
          (fill (type none))
        )
        (polyline
          (pts
            (xy -3.556 6.096)
            (xy -3.556 4.064)
            (xy -2.032 5.08)
            (xy -3.556 6.096)
          )
          (stroke (width 0) (type default))
          (fill (type none))
        )
        (polyline
          (pts
            (xy 0 5.969)
            (xy -1.016 5.969)
            (xy -0.508 6.731)
            (xy 0 5.969)
          )
          (stroke (width 0) (type default))
          (fill (type none))
        )
      )
      (symbol "ULN2003A_1_1"
        (pin input line (at -10.16 5.08 0) (length 2.54)
          (name "I1" (effects (font (size 1.27 1.27))))
          (number "1" (effects (font (size 1.27 1.27))))
        )
        (pin open_collector line (at 10.16 -10.16 180) (length 2.54)
          (name "O7" (effects (font (size 1.27 1.27))))
          (number "10" (effects (font (size 1.27 1.27))))
        )
        (pin open_collector line (at 10.16 -7.62 180) (length 2.54)
          (name "O6" (effects (font (size 1.27 1.27))))
          (number "11" (effects (font (size 1.27 1.27))))
        )
        (pin open_collector line (at 10.16 -5.08 180) (length 2.54)
          (name "O5" (effects (font (size 1.27 1.27))))
          (number "12" (effects (font (size 1.27 1.27))))
        )
        (pin open_collector line (at 10.16 -2.54 180) (length 2.54)
          (name "O4" (effects (font (size 1.27 1.27))))
          (number "13" (effects (font (size 1.27 1.27))))
        )
        (pin open_collector line (at 10.16 0 180) (length 2.54)
          (name "O3" (effects (font (size 1.27 1.27))))
          (number "14" (effects (font (size 1.27 1.27))))
        )
        (pin open_collector line (at 10.16 2.54 180) (length 2.54)
          (name "O2" (effects (font (size 1.27 1.27))))
          (number "15" (effects (font (size 1.27 1.27))))
        )
        (pin open_collector line (at 10.16 5.08 180) (length 2.54)
          (name "O1" (effects (font (size 1.27 1.27))))
          (number "16" (effects (font (size 1.27 1.27))))
        )
        (pin input line (at -10.16 2.54 0) (length 2.54)
          (name "I2" (effects (font (size 1.27 1.27))))
          (number "2" (effects (font (size 1.27 1.27))))
        )
        (pin input line (at -10.16 0 0) (length 2.54)
          (name "I3" (effects (font (size 1.27 1.27))))
          (number "3" (effects (font (size 1.27 1.27))))
        )
        (pin input line (at -10.16 -2.54 0) (length 2.54)
          (name "I4" (effects (font (size 1.27 1.27))))
          (number "4" (effects (font (size 1.27 1.27))))
        )
        (pin input line (at -10.16 -5.08 0) (length 2.54)
          (name "I5" (effects (font (size 1.27 1.27))))
          (number "5" (effects (font (size 1.27 1.27))))
        )
        (pin input line (at -10.16 -7.62 0) (length 2.54)
          (name "I6" (effects (font (size 1.27 1.27))))
          (number "6" (effects (font (size 1.27 1.27))))
        )
        (pin input line (at -10.16 -10.16 0) (length 2.54)
          (name "I7" (effects (font (size 1.27 1.27))))
          (number "7" (effects (font (size 1.27 1.27))))
        )
        (pin power_in line (at 0 -15.24 90) (length 2.54)
          (name "GND" (effects (font (size 1.27 1.27))))
          (number "8" (effects (font (size 1.27 1.27))))
        )
        (pin passive line (at 10.16 10.16 180) (length 2.54)
          (name "COM" (effects (font (size 1.27 1.27))))
          (number "9" (effects (font (size 1.27 1.27))))
        )
      )
    )
    (symbol "alexisvl_device:C" (pin_numbers hide) (pin_names (offset 0.254) hide) (in_bom yes) (on_board yes)
      (property "Reference" "C" (at 3.81 1.27 0)
        (effects (font (size 1.27 1.27)))
      )
      (property "Value" "C" (at 3.81 -1.27 0)
        (effects (font (size 1.27 1.27)))
      )
      (property "Footprint" "" (at 0 0 0)
        (effects (font (size 1.27 1.27)) hide)
      )
      (property "Datasheet" "~" (at 0 0 0)
        (effects (font (size 1.27 1.27)) hide)
      )
      (property "ki_keywords" "capacitor" (at 0 0 0)
        (effects (font (size 1.27 1.27)) hide)
      )
      (property "ki_description" "Capacitor" (at 0 0 0)
        (effects (font (size 1.27 1.27)) hide)
      )
      (symbol "C_0_1"
        (polyline
          (pts
            (xy -2.032 0.762)
            (xy 2.032 0.762)
          )
          (stroke (width 0.3048) (type default))
          (fill (type none))
        )
      )
      (symbol "C_0_2"
        (polyline
          (pts
            (xy -2.032 -0.254)
            (xy 2.032 -0.254)
          )
          (stroke (width 0.3048) (type default))
          (fill (type none))
        )
      )
      (symbol "C_1_1"
        (arc (start 2.032 -0.762) (mid 0 -0.3568) (end -2.032 -0.762)
          (stroke (width 0.3048) (type default))
          (fill (type none))
        )
        (pin passive line (at 0 3.81 270) (length 3.048)
          (name "~" (effects (font (size 1.27 1.27))))
          (number "1" (effects (font (size 1.016 1.016))))
        )
        (pin passive line (at 0 -3.81 90) (length 3.429)
          (name "~" (effects (font (size 1.27 1.27))))
          (number "2" (effects (font (size 1.016 1.016))))
        )
      )
      (symbol "C_1_2"
        (arc (start -2.032 1.27) (mid 0 0.8648) (end 2.032 1.27)
          (stroke (width 0.3048) (type default))
          (fill (type none))
        )
        (pin passive line (at 0 3.81 270) (length 3.048)
          (name "~" (effects (font (size 1.27 1.27))))
          (number "1" (effects (font (size 1.016 1.016))))
        )
        (pin passive line (at 0 -3.81 90) (length 3.429)
          (name "~" (effects (font (size 1.27 1.27))))
          (number "2" (effects (font (size 1.016 1.016))))
        )
      )
    )
    (symbol "alexisvl_device:Polyfuse" (pin_numbers hide) (pin_names (offset 0)) (in_bom yes) (on_board yes)
      (property "Reference" "F" (at -2.54 0 90)
        (effects (font (size 1.27 1.27)))
      )
      (property "Value" "Polyfuse" (at 2.54 0 90)
        (effects (font (size 1.27 1.27)))
      )
      (property "Footprint" "" (at 1.27 -5.08 0)
        (effects (font (size 1.27 1.27)) (justify left) hide)
      )
      (property "Datasheet" "~" (at 0 0 0)
        (effects (font (size 1.27 1.27)) hide)
      )
      (property "ki_keywords" "resettable fuse PTC PPTC polyfuse polyswitch" (at 0 0 0)
        (effects (font (size 1.27 1.27)) hide)
      )
      (property "ki_description" "Resettable fuse, polymeric positive temperature coefficient" (at 0 0 0)
        (effects (font (size 1.27 1.27)) hide)
      )
      (property "ki_fp_filters" "*polyfuse* *PTC*" (at 0 0 0)
        (effects (font (size 1.27 1.27)) hide)
      )
      (symbol "Polyfuse_0_1"
        (rectangle (start -0.762 2.54) (end 0.762 -2.54)
          (stroke (width 0.254) (type default))
          (fill (type none))
        )
        (polyline
          (pts
            (xy 0 2.54)
            (xy 0 -2.54)
          )
          (stroke (width 0) (type default))
          (fill (type none))
        )
        (polyline
          (pts
            (xy -1.524 2.54)
            (xy -1.524 1.524)
            (xy 1.524 -1.524)
            (xy 1.524 -2.54)
          )
          (stroke (width 0) (type default))
          (fill (type none))
        )
      )
      (symbol "Polyfuse_1_1"
        (pin passive line (at 0 3.81 270) (length 1.27)
          (name "~" (effects (font (size 1.27 1.27))))
          (number "1" (effects (font (size 1.016 1.016))))
        )
        (pin passive line (at 0 -3.81 90) (length 1.27)
          (name "~" (effects (font (size 1.27 1.27))))
          (number "2" (effects (font (size 1.016 1.016))))
        )
      )
    )
    (symbol "alexisvl_device:Q_NMOS_GSD" (pin_names (offset 0) hide) (in_bom yes) (on_board yes)
      (property "Reference" "Q" (at 6.35 0 0)
        (effects (font (size 1.27 1.27)))
      )
      (property "Value" "Q_NMOS_GSD" (at 5.08 -1.27 0)
        (effects (font (size 1.27 1.27)) (justify left) hide)
      )
      (property "Footprint" "" (at 5.08 2.54 0)
        (effects (font (size 1.27 1.27)) hide)
      )
      (property "Datasheet" "~" (at 0 0 0)
        (effects (font (size 1.27 1.27)) hide)
      )
      (property "ki_keywords" "transistor NMOS N-MOS N-MOSFET" (at 0 0 0)
        (effects (font (size 1.27 1.27)) hide)
      )
      (property "ki_description" "N-MOSFET transistor, gate/source/drain" (at 0 0 0)
        (effects (font (size 1.27 1.27)) hide)
      )
      (symbol "Q_NMOS_GSD_0_1"
        (polyline
          (pts
            (xy 0.254 0)
            (xy -2.54 0)
          )
          (stroke (width 0) (type default))
          (fill (type none))
        )
        (polyline
          (pts
            (xy 0.254 1.905)
            (xy 0.254 -1.905)
          )
          (stroke (width 0.254) (type default))
          (fill (type none))
        )
        (polyline
          (pts
            (xy 0.762 -1.27)
            (xy 0.762 -2.286)
          )
          (stroke (width 0.254) (type default))
          (fill (type none))
        )
        (polyline
          (pts
            (xy 0.762 0.508)
            (xy 0.762 -0.508)
          )
          (stroke (width 0.254) (type default))
          (fill (type none))
        )
        (polyline
          (pts
            (xy 0.762 2.286)
            (xy 0.762 1.27)
          )
          (stroke (width 0.254) (type default))
          (fill (type none))
        )
        (polyline
          (pts
            (xy 2.54 -1.778)
            (xy 0.762 -1.778)
          )
          (stroke (width 0.1524) (type default))
          (fill (type none))
        )
        (polyline
          (pts
            (xy 2.54 1.778)
            (xy 0.762 1.778)
          )
          (stroke (width 0.1524) (type default))
          (fill (type none))
        )
        (polyline
          (pts
            (xy 2.54 2.54)
            (xy 2.54 1.778)
          )
          (stroke (width 0) (type default))
          (fill (type none))
        )
        (polyline
          (pts
            (xy 2.54 -2.54)
            (xy 2.54 0)
            (xy 0.762 0)
          )
          (stroke (width 0) (type default))
          (fill (type none))
        )
        (polyline
          (pts
            (xy 1.016 0)
            (xy 2.032 0.381)
            (xy 2.032 -0.381)
            (xy 1.016 0)
          )
          (stroke (width 0) (type default))
          (fill (type outline))
        )
        (circle (center 1.27 0) (radius 3.175)
          (stroke (width 0.254) (type default))
          (fill (type none))
        )
        (circle (center 2.54 -1.778) (radius 0.254)
          (stroke (width 0) (type default))
          (fill (type outline))
        )
      )
      (symbol "Q_NMOS_GSD_1_1"
        (pin input line (at -5.08 0 0) (length 2.54)
          (name "G" (effects (font (size 1.27 1.27))))
          (number "1" (effects (font (size 1.016 1.016))))
        )
        (pin passive line (at 2.54 -5.08 90) (length 2.54)
          (name "S" (effects (font (size 1.27 1.27))))
          (number "2" (effects (font (size 1.016 1.016))))
        )
        (pin passive line (at 2.54 5.08 270) (length 2.54)
          (name "D" (effects (font (size 1.27 1.27))))
          (number "3" (effects (font (size 1.016 1.016))))
        )
      )
    )
    (symbol "alexisvl_device:Q_PMOS_GSD" (pin_names (offset 0) hide) (in_bom yes) (on_board yes)
      (property "Reference" "Q" (at 6.35 0 0)
        (effects (font (size 1.27 1.27)))
      )
      (property "Value" "Q_PMOS_GSD" (at 5.08 -1.27 0)
        (effects (font (size 1.27 1.27)) (justify left) hide)
      )
      (property "Footprint" "" (at 5.08 2.54 0)
        (effects (font (size 1.27 1.27)) hide)
      )
      (property "Datasheet" "~" (at 0 0 0)
        (effects (font (size 1.27 1.27)) hide)
      )
      (property "ki_keywords" "transistor PMOS P-MOS P-MOSFET" (at 0 0 0)
        (effects (font (size 1.27 1.27)) hide)
      )
      (property "ki_description" "P-MOSFET transistor, gate/source/drain" (at 0 0 0)
        (effects (font (size 1.27 1.27)) hide)
      )
      (symbol "Q_PMOS_GSD_0_1"
        (polyline
          (pts
            (xy 0.254 0)
            (xy -2.54 0)
          )
          (stroke (width 0) (type default))
          (fill (type none))
        )
        (polyline
          (pts
            (xy 0.254 1.905)
            (xy 0.254 -1.905)
          )
          (stroke (width 0.254) (type default))
          (fill (type none))
        )
        (polyline
          (pts
            (xy 0.762 -1.27)
            (xy 0.762 -2.286)
          )
          (stroke (width 0.254) (type default))
          (fill (type none))
        )
        (polyline
          (pts
            (xy 0.762 0.508)
            (xy 0.762 -0.508)
          )
          (stroke (width 0.254) (type default))
          (fill (type none))
        )
        (polyline
          (pts
            (xy 0.762 2.286)
            (xy 0.762 1.27)
          )
          (stroke (width 0.254) (type default))
          (fill (type none))
        )
        (polyline
          (pts
            (xy 2.54 -1.778)
            (xy 0.762 -1.778)
          )
          (stroke (width 0.1524) (type default))
          (fill (type none))
        )
        (polyline
          (pts
            (xy 2.54 1.778)
            (xy 0.762 1.778)
          )
          (stroke (width 0.1524) (type default))
          (fill (type none))
        )
        (polyline
          (pts
            (xy 2.54 2.54)
            (xy 2.54 1.778)
          )
          (stroke (width 0) (type default))
          (fill (type none))
        )
        (polyline
          (pts
            (xy 2.54 -2.54)
            (xy 2.54 0)
            (xy 0.762 0)
          )
          (stroke (width 0) (type default))
          (fill (type none))
        )
        (polyline
          (pts
            (xy 2.286 0)
            (xy 1.27 0.381)
            (xy 1.27 -0.381)
            (xy 2.286 0)
          )
          (stroke (width 0) (type default))
          (fill (type outline))
        )
        (circle (center 1.27 0) (radius 3.175)
          (stroke (width 0.254) (type default))
          (fill (type none))
        )
        (circle (center 2.54 -1.778) (radius 0.254)
          (stroke (width 0) (type default))
          (fill (type outline))
        )
      )
      (symbol "Q_PMOS_GSD_1_1"
        (pin input line (at -5.08 0 0) (length 2.54)
          (name "G" (effects (font (size 1.27 1.27))))
          (number "1" (effects (font (size 1.016 1.016))))
        )
        (pin passive line (at 2.54 -5.08 90) (length 2.54)
          (name "S" (effects (font (size 1.27 1.27))))
          (number "2" (effects (font (size 1.016 1.016))))
        )
        (pin passive line (at 2.54 5.08 270) (length 2.54)
          (name "D" (effects (font (size 1.27 1.27))))
          (number "3" (effects (font (size 1.016 1.016))))
        )
      )
    )
    (symbol "alexisvl_device:R" (pin_numbers hide) (pin_names (offset 0)) (in_bom yes) (on_board yes)
      (property "Reference" "R" (at 3.81 1.27 0)
        (effects (font (size 1.27 1.27)))
      )
      (property "Value" "R" (at 3.81 -1.27 0)
        (effects (font (size 1.27 1.27)))
      )
      (property "Footprint" "" (at 1.016 -0.254 90)
        (effects (font (size 1.27 1.27)) hide)
      )
      (property "Datasheet" "~" (at 0 0 0)
        (effects (font (size 1.27 1.27)) hide)
      )
      (property "ki_keywords" "R res resistor" (at 0 0 0)
        (effects (font (size 1.27 1.27)) hide)
      )
      (property "ki_description" "Resistor, US symbol" (at 0 0 0)
        (effects (font (size 1.27 1.27)) hide)
      )
      (property "ki_fp_filters" "R_*" (at 0 0 0)
        (effects (font (size 1.27 1.27)) hide)
      )
      (symbol "R_0_1"
        (polyline
          (pts
            (xy 0 -2.286)
            (xy 0 -2.54)
          )
          (stroke (width 0) (type default))
          (fill (type none))
        )
        (polyline
          (pts
            (xy 0 2.286)
            (xy 0 2.54)
          )
          (stroke (width 0) (type default))
          (fill (type none))
        )
        (polyline
          (pts
            (xy 0 -0.762)
            (xy 1.016 -1.143)
            (xy 0 -1.524)
            (xy -1.016 -1.905)
            (xy 0 -2.286)
          )
          (stroke (width 0) (type default))
          (fill (type none))
        )
        (polyline
          (pts
            (xy 0 0.762)
            (xy 1.016 0.381)
            (xy 0 0)
            (xy -1.016 -0.381)
            (xy 0 -0.762)
          )
          (stroke (width 0) (type default))
          (fill (type none))
        )
        (polyline
          (pts
            (xy 0 2.286)
            (xy 1.016 1.905)
            (xy 0 1.524)
            (xy -1.016 1.143)
            (xy 0 0.762)
          )
          (stroke (width 0) (type default))
          (fill (type none))
        )
      )
      (symbol "R_1_1"
        (pin passive line (at 0 3.81 270) (length 1.27)
          (name "~" (effects (font (size 1.27 1.27))))
          (number "1" (effects (font (size 1.016 1.016))))
        )
        (pin passive line (at 0 -3.81 90) (length 1.27)
          (name "~" (effects (font (size 1.27 1.27))))
          (number "2" (effects (font (size 1.016 1.016))))
        )
      )
    )
    (symbol "power:+12V" (power) (pin_names (offset 0)) (in_bom yes) (on_board yes)
      (property "Reference" "#PWR" (at 0 -3.81 0)
        (effects (font (size 1.27 1.27)) hide)
      )
      (property "Value" "+12V" (at 0 3.556 0)
        (effects (font (size 1.27 1.27)))
      )
      (property "Footprint" "" (at 0 0 0)
        (effects (font (size 1.27 1.27)) hide)
      )
      (property "Datasheet" "" (at 0 0 0)
        (effects (font (size 1.27 1.27)) hide)
      )
      (property "ki_keywords" "global power" (at 0 0 0)
        (effects (font (size 1.27 1.27)) hide)
      )
      (property "ki_description" "Power symbol creates a global label with name \"+12V\"" (at 0 0 0)
        (effects (font (size 1.27 1.27)) hide)
      )
      (symbol "+12V_0_1"
        (polyline
          (pts
            (xy -0.762 1.27)
            (xy 0 2.54)
          )
          (stroke (width 0) (type default))
          (fill (type none))
        )
        (polyline
          (pts
            (xy 0 0)
            (xy 0 2.54)
          )
          (stroke (width 0) (type default))
          (fill (type none))
        )
        (polyline
          (pts
            (xy 0 2.54)
            (xy 0.762 1.27)
          )
          (stroke (width 0) (type default))
          (fill (type none))
        )
      )
      (symbol "+12V_1_1"
        (pin power_in line (at 0 0 90) (length 0) hide
          (name "+12V" (effects (font (size 1.27 1.27))))
          (number "1" (effects (font (size 1.27 1.27))))
        )
      )
    )
    (symbol "power:+5V" (power) (pin_names (offset 0)) (in_bom yes) (on_board yes)
      (property "Reference" "#PWR" (at 0 -3.81 0)
        (effects (font (size 1.27 1.27)) hide)
      )
      (property "Value" "+5V" (at 0 3.556 0)
        (effects (font (size 1.27 1.27)))
      )
      (property "Footprint" "" (at 0 0 0)
        (effects (font (size 1.27 1.27)) hide)
      )
      (property "Datasheet" "" (at 0 0 0)
        (effects (font (size 1.27 1.27)) hide)
      )
      (property "ki_keywords" "global power" (at 0 0 0)
        (effects (font (size 1.27 1.27)) hide)
      )
      (property "ki_description" "Power symbol creates a global label with name \"+5V\"" (at 0 0 0)
        (effects (font (size 1.27 1.27)) hide)
      )
      (symbol "+5V_0_1"
        (polyline
          (pts
            (xy -0.762 1.27)
            (xy 0 2.54)
          )
          (stroke (width 0) (type default))
          (fill (type none))
        )
        (polyline
          (pts
            (xy 0 0)
            (xy 0 2.54)
          )
          (stroke (width 0) (type default))
          (fill (type none))
        )
        (polyline
          (pts
            (xy 0 2.54)
            (xy 0.762 1.27)
          )
          (stroke (width 0) (type default))
          (fill (type none))
        )
      )
      (symbol "+5V_1_1"
        (pin power_in line (at 0 0 90) (length 0) hide
          (name "+5V" (effects (font (size 1.27 1.27))))
          (number "1" (effects (font (size 1.27 1.27))))
        )
      )
    )
    (symbol "power:GND" (power) (pin_names (offset 0)) (in_bom yes) (on_board yes)
      (property "Reference" "#PWR" (at 0 -6.35 0)
        (effects (font (size 1.27 1.27)) hide)
      )
      (property "Value" "GND" (at 0 -3.81 0)
        (effects (font (size 1.27 1.27)))
      )
      (property "Footprint" "" (at 0 0 0)
        (effects (font (size 1.27 1.27)) hide)
      )
      (property "Datasheet" "" (at 0 0 0)
        (effects (font (size 1.27 1.27)) hide)
      )
      (property "ki_keywords" "global power" (at 0 0 0)
        (effects (font (size 1.27 1.27)) hide)
      )
      (property "ki_description" "Power symbol creates a global label with name \"GND\" , ground" (at 0 0 0)
        (effects (font (size 1.27 1.27)) hide)
      )
      (symbol "GND_0_1"
        (polyline
          (pts
            (xy 0 0)
            (xy 0 -1.27)
            (xy 1.27 -1.27)
            (xy 0 -2.54)
            (xy -1.27 -1.27)
            (xy 0 -1.27)
          )
          (stroke (width 0) (type default))
          (fill (type none))
        )
      )
      (symbol "GND_1_1"
        (pin power_in line (at 0 0 270) (length 0) hide
          (name "GND" (effects (font (size 1.27 1.27))))
          (number "1" (effects (font (size 1.27 1.27))))
        )
      )
    )
  )

  (junction (at 63.5 147.32) (diameter 0) (color 0 0 0 0)
    (uuid 1ea64b30-803a-4361-b08a-eaa79bc33cc3)
  )
  (junction (at 182.88 50.8) (diameter 0) (color 0 0 0 0)
    (uuid 3fa4ce08-a658-45ab-8050-127516b5a437)
  )
  (junction (at 173.99 50.8) (diameter 0) (color 0 0 0 0)
    (uuid 8c6e5bfb-e46e-4975-86f7-050f515abd02)
  )
  (junction (at 63.5 121.92) (diameter 0) (color 0 0 0 0)
    (uuid 8f624edb-de10-4bda-9be3-439f815b7e79)
  )
  (junction (at 181.61 50.8) (diameter 0) (color 0 0 0 0)
    (uuid 980a6ecc-212f-47b0-92d3-ce6dd049cffa)
  )
  (junction (at 194.31 58.42) (diameter 0) (color 0 0 0 0)
    (uuid a56065de-8b31-494a-a92f-9ca267b8989d)
  )
  (junction (at 90.17 139.7) (diameter 0) (color 0 0 0 0)
    (uuid ce911ff9-e25c-4a01-89af-3aad2b7147f5)
  )
  (junction (at 208.28 58.42) (diameter 0) (color 0 0 0 0)
    (uuid e5f8e324-2144-4131-8f2c-39035a5f0048)
  )
  (junction (at 73.66 139.7) (diameter 0) (color 0 0 0 0)
    (uuid f9f50b9f-c253-49af-abd5-173a50dc0568)
  )

  (no_connect (at 157.48 88.9) (uuid 15eb7bda-d930-473f-92ea-cb0d63d01057))
  (no_connect (at 118.11 132.08) (uuid 19428ad1-9685-4a18-96de-23f89bbf7fac))
  (no_connect (at 137.16 88.9) (uuid a2ba35a1-fce6-43a7-8a95-aa5f2511653c))

  (wire (pts (xy 157.48 81.28) (xy 214.63 81.28))
    (stroke (width 0) (type default))
    (uuid 0424371d-7521-405f-8fad-d501fb15c290)
  )
  (wire (pts (xy 63.5 138.43) (xy 63.5 147.32))
    (stroke (width 0) (type default))
    (uuid 07ff2b4c-4979-44b1-9155-31dc29a07915)
  )
  (wire (pts (xy 133.35 121.92) (xy 118.11 121.92))
    (stroke (width 0) (type default))
    (uuid 17b31f0e-0665-487c-98f5-a305d5fc95d2)
  )
  (wire (pts (xy 133.35 86.36) (xy 137.16 86.36))
    (stroke (width 0) (type default))
    (uuid 1b9cf191-c346-470d-8424-05d0354e5353)
  )
  (wire (pts (xy 128.27 81.28) (xy 128.27 116.84))
    (stroke (width 0) (type default))
    (uuid 1daf4a42-3da9-47a3-b5dd-6ad936ea70a9)
  )
  (wire (pts (xy 157.48 78.74) (xy 214.63 78.74))
    (stroke (width 0) (type default))
    (uuid 229fc73c-0cac-4131-9622-d89bf7b00d18)
  )
  (wire (pts (xy 182.88 49.53) (xy 182.88 50.8))
    (stroke (width 0) (type default))
    (uuid 231d9b03-a177-4277-9b0e-9d79afc7b22f)
  )
  (wire (pts (xy 125.73 78.74) (xy 125.73 114.3))
    (stroke (width 0) (type default))
    (uuid 27ea23e2-5bf1-48d3-99dc-f9ff09b41766)
  )
  (wire (pts (xy 194.31 58.42) (xy 198.12 58.42))
    (stroke (width 0) (type default))
    (uuid 2c62890f-f5d1-48d1-9d28-6216b43199ee)
  )
  (wire (pts (xy 130.81 83.82) (xy 130.81 119.38))
    (stroke (width 0) (type default))
    (uuid 3117167a-df66-4b0d-aa0c-5e2c39f5e6c3)
  )
  (wire (pts (xy 63.5 147.32) (xy 66.04 147.32))
    (stroke (width 0) (type default))
    (uuid 32d1fbd5-a9b9-4631-a91f-be6341580d71)
  )
  (wire (pts (xy 120.65 73.66) (xy 137.16 73.66))
    (stroke (width 0) (type default))
    (uuid 356628f2-8605-477f-bd7e-4b9d1de3bc8e)
  )
  (wire (pts (xy 173.99 49.53) (xy 173.99 50.8))
    (stroke (width 0) (type default))
    (uuid 3a9d088f-babf-4d0b-a231-3a32111d1578)
  )
  (wire (pts (xy 173.99 50.8) (xy 173.99 55.88))
    (stroke (width 0) (type default))
    (uuid 3fb08386-3f2f-4398-9110-a5dc2d6505cc)
  )
  (wire (pts (xy 184.15 58.42) (xy 181.61 58.42))
    (stroke (width 0) (type default))
    (uuid 46bb06a3-a138-4431-8601-9243c355cfe1)
  )
  (wire (pts (xy 118.11 111.76) (xy 123.19 111.76))
    (stroke (width 0) (type default))
    (uuid 4ec64e0c-f74d-4865-adbf-e6dcfe2639f7)
  )
  (wire (pts (xy 63.5 121.92) (xy 97.79 121.92))
    (stroke (width 0) (type default))
    (uuid 4ecbe670-2c2d-4366-b71d-41950bb8e728)
  )
  (wire (pts (xy 208.28 58.42) (xy 208.28 60.96))
    (stroke (width 0) (type default))
    (uuid 4f32d442-8738-4fdd-b886-18ea2e8c3dfe)
  )
  (wire (pts (xy 173.99 50.8) (xy 181.61 50.8))
    (stroke (width 0) (type default))
    (uuid 51815fbf-aecd-40db-b134-569a73c90a80)
  )
  (wire (pts (xy 118.11 124.46) (xy 214.63 124.46))
    (stroke (width 0) (type default))
    (uuid 5523cc90-aed0-4800-85c1-49a4ff7886b4)
  )
  (wire (pts (xy 173.99 73.66) (xy 157.48 73.66))
    (stroke (width 0) (type default))
    (uuid 57166def-50f7-41ee-b5c9-9693b87d4838)
  )
  (wire (pts (xy 128.27 116.84) (xy 118.11 116.84))
    (stroke (width 0) (type default))
    (uuid 5d2a5f70-e30d-4514-9e38-b152bc991aa1)
  )
  (wire (pts (xy 133.35 86.36) (xy 133.35 121.92))
    (stroke (width 0) (type default))
    (uuid 6888e0aa-8603-44ca-b949-b572e56c790b)
  )
  (wire (pts (xy 90.17 139.7) (xy 90.17 124.46))
    (stroke (width 0) (type default))
    (uuid 6d5155f0-b833-4985-974d-cde58eb51f19)
  )
  (wire (pts (xy 118.11 114.3) (xy 125.73 114.3))
    (stroke (width 0) (type default))
    (uuid 7046f01e-c884-4e53-8530-676fa6cc96f5)
  )
  (wire (pts (xy 73.66 139.7) (xy 90.17 139.7))
    (stroke (width 0) (type default))
    (uuid 704d02cb-07c3-4f4a-8cf1-3e16b56f1c99)
  )
  (wire (pts (xy 73.66 138.43) (xy 73.66 139.7))
    (stroke (width 0) (type default))
    (uuid 7239adb8-e590-4fe9-b441-423b0e48bc0f)
  )
  (wire (pts (xy 125.73 78.74) (xy 137.16 78.74))
    (stroke (width 0) (type default))
    (uuid 799b5ac7-1176-4e5a-a0c4-c2801a0057c8)
  )
  (wire (pts (xy 73.66 139.7) (xy 73.66 142.24))
    (stroke (width 0) (type default))
    (uuid 7e1612e9-51ca-4837-90f2-b4af3c8280da)
  )
  (wire (pts (xy 208.28 58.42) (xy 214.63 58.42))
    (stroke (width 0) (type default))
    (uuid 7f1c567d-03f4-411d-8295-7dfd7fdc94c6)
  )
  (wire (pts (xy 118.11 109.22) (xy 120.65 109.22))
    (stroke (width 0) (type default))
    (uuid 80a5206a-ae37-4b53-89d7-085f4844a948)
  )
  (wire (pts (xy 123.19 76.2) (xy 137.16 76.2))
    (stroke (width 0) (type default))
    (uuid 81a777c6-3f2c-40ea-af9d-2a0dc802f32d)
  )
  (wire (pts (xy 194.31 41.91) (xy 194.31 45.72))
    (stroke (width 0) (type default))
    (uuid 8452f3f7-97d9-4537-b324-db9218599483)
  )
  (wire (pts (xy 182.88 50.8) (xy 186.69 50.8))
    (stroke (width 0) (type default))
    (uuid 84bfa6ad-0d4c-4217-8450-e1e5951ed14d)
  )
  (wire (pts (xy 59.69 121.92) (xy 63.5 121.92))
    (stroke (width 0) (type default))
    (uuid 952ee3d1-7287-4225-bb3b-b9337bb19674)
  )
  (wire (pts (xy 142.24 66.04) (xy 142.24 64.77))
    (stroke (width 0) (type default))
    (uuid 9665eb19-412e-42e9-9cb2-7e48fc868992)
  )
  (wire (pts (xy 147.32 64.77) (xy 147.32 68.58))
    (stroke (width 0) (type default))
    (uuid 990feb97-3429-4428-8704-a9e7678b2bbf)
  )
  (wire (pts (xy 90.17 124.46) (xy 97.79 124.46))
    (stroke (width 0) (type default))
    (uuid 9dc3e957-c730-401c-b76b-3c101ea15ebc)
  )
  (wire (pts (xy 173.99 63.5) (xy 173.99 73.66))
    (stroke (width 0) (type default))
    (uuid 9e24217d-eab2-442e-bf90-16965ad629ee)
  )
  (wire (pts (xy 59.69 109.22) (xy 97.79 109.22))
    (stroke (width 0) (type default))
    (uuid a0ca6520-b330-407e-bf06-bf3a383f8524)
  )
  (wire (pts (xy 205.74 58.42) (xy 208.28 58.42))
    (stroke (width 0) (type default))
    (uuid a13866b8-bb4d-4d75-a729-e46c49c8944a)
  )
  (wire (pts (xy 63.5 121.92) (xy 63.5 130.81))
    (stroke (width 0) (type default))
    (uuid a5c7b93c-86e4-417d-b88a-6104488768fe)
  )
  (wire (pts (xy 194.31 55.88) (xy 194.31 58.42))
    (stroke (width 0) (type default))
    (uuid aad058a4-e985-462d-9a18-132a6613b921)
  )
  (wire (pts (xy 157.48 76.2) (xy 214.63 76.2))
    (stroke (width 0) (type default))
    (uuid aaf11649-ed6b-4d63-8a98-5381be566fa1)
  )
  (wire (pts (xy 123.19 111.76) (xy 123.19 76.2))
    (stroke (width 0) (type default))
    (uuid ac50e500-161f-4b23-9655-4d197779382f)
  )
  (wire (pts (xy 59.69 114.3) (xy 97.79 114.3))
    (stroke (width 0) (type default))
    (uuid b20c3bbe-ec77-41b7-bd78-69ba054888df)
  )
  (wire (pts (xy 118.11 119.38) (xy 130.81 119.38))
    (stroke (width 0) (type default))
    (uuid b4c3703c-c31f-4946-966f-eb2234290538)
  )
  (wire (pts (xy 90.17 139.7) (xy 90.17 142.24))
    (stroke (width 0) (type default))
    (uuid b6ebf96c-f547-4118-a5b5-c795d0edefff)
  )
  (wire (pts (xy 130.81 83.82) (xy 137.16 83.82))
    (stroke (width 0) (type default))
    (uuid ba9ccefc-571a-4e85-8a91-cb8440368a02)
  )
  (wire (pts (xy 157.48 86.36) (xy 214.63 86.36))
    (stroke (width 0) (type default))
    (uuid c1283228-16bf-474d-a556-aefffdb278f3)
  )
  (wire (pts (xy 181.61 50.8) (xy 182.88 50.8))
    (stroke (width 0) (type default))
    (uuid c2859d16-5286-47e0-9f11-3a6904fea987)
  )
  (wire (pts (xy 191.77 58.42) (xy 194.31 58.42))
    (stroke (width 0) (type default))
    (uuid c3d439c3-202d-4c05-b09f-effc3d7f92fe)
  )
  (wire (pts (xy 157.48 83.82) (xy 214.63 83.82))
    (stroke (width 0) (type default))
    (uuid c965200b-0639-4045-b41f-2ebac5e7558d)
  )
  (wire (pts (xy 181.61 58.42) (xy 181.61 50.8))
    (stroke (width 0) (type default))
    (uuid d22545a9-7542-4339-98a4-dd0bbd63d703)
  )
  (wire (pts (xy 128.27 81.28) (xy 137.16 81.28))
    (stroke (width 0) (type default))
    (uuid d34b9c15-ebb8-4bdd-8a34-202d6120e4fd)
  )
  (wire (pts (xy 120.65 109.22) (xy 120.65 73.66))
    (stroke (width 0) (type default))
    (uuid e6169e98-217d-4240-8a09-650953c50210)
  )
  (wire (pts (xy 63.5 147.32) (xy 63.5 149.86))
    (stroke (width 0) (type default))
    (uuid e867524c-5853-464e-95bf-8e21c4d1e85f)
  )
  (wire (pts (xy 142.24 64.77) (xy 147.32 64.77))
    (stroke (width 0) (type default))
    (uuid eddfc79b-c2c2-49b5-9a02-cd75eb3f23ec)
  )
  (wire (pts (xy 118.11 127) (xy 214.63 127))
    (stroke (width 0) (type default))
    (uuid f785eb7d-299c-4db0-b8a7-f8d59008e1de)
  )

  (label "~{EN_FAN}" (at 161.29 73.66 0) (fields_autoplaced)
    (effects (font (size 1.27 1.27)) (justify left bottom))
    (uuid 71ec4cb7-85b1-4470-b8e6-ff2cc3aa3f00)
  )

  (hierarchical_label "SCK" (shape input) (at 59.69 114.3 180) (fields_autoplaced)
    (effects (font (size 1.27 1.27)) (justify right))
    (uuid 01db8ecd-286e-4670-aa1e-4f49d5b2cf41)
  )
  (hierarchical_label "~{CS}" (shape input) (at 59.69 121.92 180) (fields_autoplaced)
    (effects (font (size 1.27 1.27)) (justify right))
    (uuid 0626f9b3-0fdc-4e24-8b01-67c33398d92c)
  )
  (hierarchical_label "COPI" (shape input) (at 59.69 109.22 180) (fields_autoplaced)
    (effects (font (size 1.27 1.27)) (justify right))
    (uuid 1ac1868d-119b-498a-a72c-d62299b2edc3)
  )
  (hierarchical_label "InnerGang-" (shape output) (at 214.63 127 0) (fields_autoplaced)
    (effects (font (size 1.27 1.27)) (justify left))
    (uuid 21eb6bef-96ae-433e-8dd1-6ee7f40f80f4)
  )
  (hierarchical_label "RelayCVGang" (shape output) (at 214.63 76.2 0) (fields_autoplaced)
    (effects (font (size 1.27 1.27)) (justify left))
    (uuid 26c4d9c9-375e-48e5-8407-060fd063a845)
  )
  (hierarchical_label "FanPwr" (shape output) (at 214.63 58.42 0) (fields_autoplaced)
    (effects (font (size 1.27 1.27)) (justify left))
    (uuid 3ef49be4-5155-4b7c-9324-f696802d45a5)
  )
  (hierarchical_label "InnerGang+" (shape output) (at 214.63 124.46 0) (fields_autoplaced)
    (effects (font (size 1.27 1.27)) (justify left))
    (uuid 4e869ea0-db72-48df-9756-be552b4a7410)
  )
  (hierarchical_label "~{EthLink}" (shape output) (at 214.63 83.82 0) (fields_autoplaced)
    (effects (font (size 1.27 1.27)) (justify left))
    (uuid 5c1c0d48-dae4-40a9-9dd0-30c6d0234fd0)
  )
  (hierarchical_label "RelayParallel" (shape output) (at 214.63 78.74 0) (fields_autoplaced)
    (effects (font (size 1.27 1.27)) (justify left))
    (uuid 7add6443-5028-4d1b-97de-bb9c5322186c)
  )
  (hierarchical_label "RelaySeries" (shape output) (at 214.63 81.28 0) (fields_autoplaced)
    (effects (font (size 1.27 1.27)) (justify left))
    (uuid c5b2569b-6dba-41d3-9e78-2ec80a30c36a)
  )
  (hierarchical_label "~{EthAct}" (shape output) (at 214.63 86.36 0) (fields_autoplaced)
    (effects (font (size 1.27 1.27)) (justify left))
    (uuid cf3fdd42-4e3d-48b2-b62c-5f108b002dc3)
  )

  (symbol (lib_id "alexisvl_device:R") (at 173.99 45.72 0) (unit 1)
    (in_bom yes) (on_board yes) (dnp no)
    (uuid 0088ab91-9019-41c4-a604-7559303b1918)
    (property "Reference" "R9" (at 177.8 44.45 0)
      (effects (font (size 1.27 1.27)))
    )
    (property "Value" "1M" (at 177.8 46.99 0)
      (effects (font (size 1.27 1.27)))
    )
    (property "Footprint" "Resistor_SMD:R_0603_1608Metric" (at 175.006 45.974 90)
      (effects (font (size 1.27 1.27)) hide)
    )
    (property "Datasheet" "~" (at 173.99 45.72 0)
      (effects (font (size 1.27 1.27)) hide)
    )
    (property "JLC" "C22935" (at 173.99 45.72 0)
      (effects (font (size 1.27 1.27)) hide)
    )
    (property "BOM" "UNTR:Res-1M-0603" (at 173.99 45.72 0)
      (effects (font (size 1.27 1.27)) hide)
    )
    (pin "1" (uuid 568a6ff0-bdaf-4a31-b857-d2015cc47e4e))
    (pin "2" (uuid 2cca6600-1dab-4345-8d05-8d2b1dda841c))
    (instances
      (project "pd2530-regulator"
        (path "/b090e0bb-cc02-44ac-aa41-16a606fea46f/2bc86199-4afa-440a-a948-246f0c97c8fb"
          (reference "R9") (unit 1)
        )
      )
    )
  )

  (symbol (lib_id "power:GND") (at 142.24 66.04 0) (unit 1)
    (in_bom yes) (on_board yes) (dnp no)
    (uuid 06d370b0-f720-4871-8926-6c970b998427)
    (property "Reference" "#PWR043" (at 142.24 72.39 0)
      (effects (font (size 1.27 1.27)) hide)
    )
    (property "Value" "GND" (at 142.24 69.85 0)
      (effects (font (size 1.27 1.27)))
    )
    (property "Footprint" "" (at 142.24 66.04 0)
      (effects (font (size 1.27 1.27)) hide)
    )
    (property "Datasheet" "" (at 142.24 66.04 0)
      (effects (font (size 1.27 1.27)) hide)
    )
    (pin "1" (uuid d1aa62ed-f312-4afd-9088-88554501900f))
    (instances
      (project "pd2530-regulator"
        (path "/b090e0bb-cc02-44ac-aa41-16a606fea46f/2bc86199-4afa-440a-a948-246f0c97c8fb"
          (reference "#PWR043") (unit 1)
        )
      )
    )
  )

  (symbol (lib_id "power:+12V") (at 194.31 41.91 0) (unit 1)
    (in_bom yes) (on_board yes) (dnp no)
    (uuid 07afeb00-39d7-4678-b002-03b3d4e5b7a0)
    (property "Reference" "#PWR047" (at 194.31 45.72 0)
      (effects (font (size 1.27 1.27)) hide)
    )
    (property "Value" "+12V" (at 194.31 38.354 0)
      (effects (font (size 1.27 1.27)))
    )
    (property "Footprint" "" (at 194.31 41.91 0)
      (effects (font (size 1.27 1.27)) hide)
    )
    (property "Datasheet" "" (at 194.31 41.91 0)
      (effects (font (size 1.27 1.27)) hide)
    )
    (pin "1" (uuid 2ce00ccc-8921-4270-959d-8e8c28b7e090))
    (instances
      (project "pd2530-regulator"
        (path "/b090e0bb-cc02-44ac-aa41-16a606fea46f/2bc86199-4afa-440a-a948-246f0c97c8fb"
          (reference "#PWR047") (unit 1)
        )
      )
    )
  )

  (symbol (lib_id "power:GND") (at 73.66 152.4 0) (unit 1)
    (in_bom yes) (on_board yes) (dnp no)
    (uuid 07e92a1a-148e-47a4-8641-e76768b6b1ab)
    (property "Reference" "#PWR039" (at 73.66 158.75 0)
      (effects (font (size 1.27 1.27)) hide)
    )
    (property "Value" "GND" (at 73.66 156.21 0)
      (effects (font (size 1.27 1.27)))
    )
    (property "Footprint" "" (at 73.66 152.4 0)
      (effects (font (size 1.27 1.27)) hide)
    )
    (property "Datasheet" "" (at 73.66 152.4 0)
      (effects (font (size 1.27 1.27)) hide)
    )
    (pin "1" (uuid f2cff6ed-76e6-43e1-a53b-d7638d7f6f56))
    (instances
      (project "pd2530-regulator"
        (path "/b090e0bb-cc02-44ac-aa41-16a606fea46f/2bc86199-4afa-440a-a948-246f0c97c8fb"
          (reference "#PWR039") (unit 1)
        )
      )
    )
  )

  (symbol (lib_id "74xx:74HCT595") (at 107.95 119.38 0) (unit 1)
    (in_bom yes) (on_board yes) (dnp no)
    (uuid 195c1c5f-b0fc-48a7-a698-9759d3215413)
    (property "Reference" "U1" (at 116.84 138.43 0)
      (effects (font (size 1.27 1.27)))
    )
    (property "Value" "74HCT595" (at 116.84 140.97 0)
      (effects (font (size 1.27 1.27)))
    )
    (property "Footprint" "Package_SO:SOIC-16_3.9x9.9mm_P1.27mm" (at 107.95 119.38 0)
      (effects (font (size 1.27 1.27)) hide)
    )
    (property "Datasheet" "https://assets.nexperia.com/documents/data-sheet/74HC_HCT595.pdf" (at 107.95 119.38 0)
      (effects (font (size 1.27 1.27)) hide)
    )
    (property "BOM" "74HCT595-SOIC" (at 107.95 119.38 0)
      (effects (font (size 1.27 1.27)) hide)
    )
    (pin "1" (uuid 7a1536b1-35bc-44d8-bf70-f231ce387232))
    (pin "10" (uuid ba7bcbf4-c0ec-4f07-bab0-68a8eeafec45))
    (pin "11" (uuid ed68496d-2660-4b39-a624-959cc9991d2a))
    (pin "12" (uuid 547618cb-eeca-44fc-a137-915cc6678599))
    (pin "13" (uuid 34eaddc4-df11-4f81-8d11-e83bbdb012ff))
    (pin "14" (uuid 9837a32a-6442-4ba7-965b-2da1c872572f))
    (pin "15" (uuid 5aba426c-4028-4512-acc6-d5d6014898d8))
    (pin "16" (uuid 8cbff371-4abb-4e77-95d3-86678521684f))
    (pin "2" (uuid 2e9d41e8-d6a9-4d1e-a8a5-f2d2d5a20236))
    (pin "3" (uuid 8a0c19e6-2e75-4b67-a590-a58cf0e412da))
    (pin "4" (uuid 0406b3a9-cf68-43d2-a9b5-1e1826adf32c))
    (pin "5" (uuid 0b660acc-09a4-455e-90ba-8cd24c943833))
    (pin "6" (uuid e1b38334-e23d-472d-8b69-e3e6da0d3eab))
    (pin "7" (uuid e0ede37c-b42c-461c-9653-fbcec9c178c8))
    (pin "8" (uuid 7bb51773-edc0-4402-a07d-34904541eda7))
    (pin "9" (uuid a71b6de1-49e0-48ea-a737-88348ee15a8c))
    (instances
      (project "pd2530-regulator"
        (path "/b090e0bb-cc02-44ac-aa41-16a606fea46f/2bc86199-4afa-440a-a948-246f0c97c8fb"
          (reference "U1") (unit 1)
        )
      )
    )
  )

  (symbol (lib_id "power:GND") (at 63.5 157.48 0) (unit 1)
    (in_bom yes) (on_board yes) (dnp no)
    (uuid 3235903b-8056-4aaf-bdfb-b26db4c6da4e)
    (property "Reference" "#PWR037" (at 63.5 163.83 0)
      (effects (font (size 1.27 1.27)) hide)
    )
    (property "Value" "GND" (at 63.5 161.29 0)
      (effects (font (size 1.27 1.27)))
    )
    (property "Footprint" "" (at 63.5 157.48 0)
      (effects (font (size 1.27 1.27)) hide)
    )
    (property "Datasheet" "" (at 63.5 157.48 0)
      (effects (font (size 1.27 1.27)) hide)
    )
    (pin "1" (uuid cb6ed840-07a8-49c7-8bde-ac246d6f8f5b))
    (instances
      (project "pd2530-regulator"
        (path "/b090e0bb-cc02-44ac-aa41-16a606fea46f/2bc86199-4afa-440a-a948-246f0c97c8fb"
          (reference "#PWR037") (unit 1)
        )
      )
    )
  )

  (symbol (lib_id "Connector:TestPoint_Probe") (at 90.17 142.24 0) (mirror x) (unit 1)
    (in_bom no) (on_board yes) (dnp no)
    (uuid 33eaa671-aea3-4e80-bbb1-8f7ee6d81851)
    (property "Reference" "TP9" (at 90.17 146.05 0)
      (effects (font (size 1.27 1.27)))
    )
    (property "Value" "~{OE}" (at 90.17 148.59 0)
      (effects (font (size 1.27 1.27)))
    )
    (property "Footprint" "fixed_standard:TestPoint_THTPad_1.2mm_Drill0.7mm" (at 95.25 142.24 0)
      (effects (font (size 1.27 1.27)) hide)
    )
    (property "Datasheet" "~" (at 95.25 142.24 0)
      (effects (font (size 1.27 1.27)) hide)
    )
    (pin "1" (uuid a7817f0c-1926-4ba5-9fb4-9b4b5da20f2b))
    (instances
      (project "pd2530-regulator"
        (path "/b090e0bb-cc02-44ac-aa41-16a606fea46f/0f130ac6-d3ec-4095-a8b6-dccbe0873064/54082ef9-6ae6-4e35-b08e-707a2e83c64c"
          (reference "TP9") (unit 1)
        )
        (path "/b090e0bb-cc02-44ac-aa41-16a606fea46f/32223ca4-ed47-4ac5-8182-4542bbf1db4e/54082ef9-6ae6-4e35-b08e-707a2e83c64c"
          (reference "TP10") (unit 1)
        )
        (path "/b090e0bb-cc02-44ac-aa41-16a606fea46f/45f42e06-3ff7-4640-8302-1534e3ab44cf"
          (reference "TP19") (unit 1)
        )
        (path "/b090e0bb-cc02-44ac-aa41-16a606fea46f/2bc86199-4afa-440a-a948-246f0c97c8fb"
          (reference "TP2") (unit 1)
        )
      )
    )
  )

  (symbol (lib_id "alexisvl_device:Q_NMOS_GSD") (at 71.12 147.32 0) (unit 1)
    (in_bom yes) (on_board yes) (dnp no)
    (uuid 3d73a794-7816-45e3-9a36-86baab448782)
    (property "Reference" "Q35" (at 78.74 147.32 0)
      (effects (font (size 1.27 1.27)))
    )
    (property "Value" "2N7002" (at 76.2 148.59 0)
      (effects (font (size 1.27 1.27)) hide)
    )
    (property "Footprint" "fixed_standard:SOT-23" (at 76.2 144.78 0)
      (effects (font (size 1.27 1.27)) hide)
    )
    (property "Datasheet" "~" (at 71.12 147.32 0)
      (effects (font (size 1.27 1.27)) hide)
    )
    (property "JLC" "C8545" (at 71.12 147.32 0)
      (effects (font (size 1.27 1.27)) hide)
    )
    (property "BOM" "2N7002" (at 71.12 147.32 0)
      (effects (font (size 1.27 1.27)) hide)
    )
    (pin "1" (uuid e9e33094-593c-46b6-ac6a-faada556fb9d))
    (pin "2" (uuid 809d3543-2f94-4fb8-a3ba-9be56e345dba))
    (pin "3" (uuid a28181af-d962-4c4e-a137-6293df349b04))
    (instances
      (project "pd2530-regulator"
        (path "/b090e0bb-cc02-44ac-aa41-16a606fea46f/b7159ee6-7374-42c5-b52c-d995a83d0c7d"
          (reference "Q35") (unit 1)
        )
        (path "/b090e0bb-cc02-44ac-aa41-16a606fea46f/2bc86199-4afa-440a-a948-246f0c97c8fb"
          (reference "Q1") (unit 1)
        )
      )
    )
  )

  (symbol (lib_id "alexisvl_device:R") (at 63.5 134.62 0) (unit 1)
    (in_bom yes) (on_board yes) (dnp no)
    (uuid 45fae299-7295-46b2-8946-4901e8b2c36e)
    (property "Reference" "R7" (at 67.31 133.35 0)
      (effects (font (size 1.27 1.27)))
    )
    (property "Value" "220k" (at 67.31 135.89 0)
      (effects (font (size 1.27 1.27)))
    )
    (property "Footprint" "Resistor_SMD:R_0603_1608Metric" (at 64.516 134.874 90)
      (effects (font (size 1.27 1.27)) hide)
    )
    (property "Datasheet" "~" (at 63.5 134.62 0)
      (effects (font (size 1.27 1.27)) hide)
    )
    (property "JLC" "C22961" (at 63.5 134.62 0)
      (effects (font (size 1.27 1.27)) hide)
    )
    (property "BOM" "UNTR:Res-220k-0603" (at 63.5 134.62 0)
      (effects (font (size 1.27 1.27)) hide)
    )
    (pin "1" (uuid 04adc1c3-e3a9-41f2-8fdf-90043a16ebf1))
    (pin "2" (uuid eab417e0-e808-4dd7-8caa-057c1a5b7696))
    (instances
      (project "pd2530-regulator"
        (path "/b090e0bb-cc02-44ac-aa41-16a606fea46f/2bc86199-4afa-440a-a948-246f0c97c8fb"
          (reference "R7") (unit 1)
        )
      )
    )
  )

  (symbol (lib_id "alexisvl_device:R") (at 73.66 134.62 0) (unit 1)
    (in_bom yes) (on_board yes) (dnp no)
    (uuid 53394c24-cc3f-4316-b214-dacf0aec5708)
    (property "Reference" "R8" (at 77.47 133.35 0)
      (effects (font (size 1.27 1.27)))
    )
    (property "Value" "100k" (at 77.47 135.89 0)
      (effects (font (size 1.27 1.27)))
    )
    (property "Footprint" "Resistor_SMD:R_0603_1608Metric" (at 74.676 134.874 90)
      (effects (font (size 1.27 1.27)) hide)
    )
    (property "Datasheet" "~" (at 73.66 134.62 0)
      (effects (font (size 1.27 1.27)) hide)
    )
    (property "JLC" "C25803" (at 73.66 134.62 0)
      (effects (font (size 1.27 1.27)) hide)
    )
    (property "BOM" "UNTR:Res-100k-0603" (at 73.66 134.62 0)
      (effects (font (size 1.27 1.27)) hide)
    )
    (pin "1" (uuid 79446b84-2858-4cb2-a2fa-af78fafa4d93))
    (pin "2" (uuid 07b03d4c-1d89-485c-809d-c89fe9c54878))
    (instances
      (project "pd2530-regulator"
        (path "/b090e0bb-cc02-44ac-aa41-16a606fea46f/2bc86199-4afa-440a-a948-246f0c97c8fb"
          (reference "R8") (unit 1)
        )
      )
    )
  )

  (symbol (lib_id "power:+12V") (at 182.88 41.91 0) (unit 1)
    (in_bom yes) (on_board yes) (dnp no)
    (uuid 55d23c6d-8fc4-4e93-b6e9-5d851d90fcf1)
    (property "Reference" "#PWR046" (at 182.88 45.72 0)
      (effects (font (size 1.27 1.27)) hide)
    )
    (property "Value" "+12V" (at 182.88 38.354 0)
      (effects (font (size 1.27 1.27)))
    )
    (property "Footprint" "" (at 182.88 41.91 0)
      (effects (font (size 1.27 1.27)) hide)
    )
    (property "Datasheet" "" (at 182.88 41.91 0)
      (effects (font (size 1.27 1.27)) hide)
    )
    (pin "1" (uuid d4922781-3813-43a1-adfb-57f9ef03d828))
    (instances
      (project "pd2530-regulator"
        (path "/b090e0bb-cc02-44ac-aa41-16a606fea46f/2bc86199-4afa-440a-a948-246f0c97c8fb"
          (reference "#PWR046") (unit 1)
        )
      )
    )
  )

  (symbol (lib_id "alexisvl_device:C") (at 63.5 153.67 0) (unit 1)
    (in_bom yes) (on_board yes) (dnp no)
    (uuid 5f5ba058-6b34-4eea-b9c1-6b7c0d55d1cf)
    (property "Reference" "C5" (at 68.58 152.4 0)
      (effects (font (size 1.27 1.27)))
    )
    (property "Value" "1µ" (at 68.58 154.94 0)
      (effects (font (size 1.27 1.27)))
    )
    (property "Footprint" "Capacitor_SMD:C_0603_1608Metric" (at 63.5 153.67 0)
      (effects (font (size 1.27 1.27)) hide)
    )
    (property "Datasheet" "~" (at 63.5 153.67 0)
      (effects (font (size 1.27 1.27)) hide)
    )
    (property "JLC" "C15849" (at 63.5 153.67 0)
      (effects (font (size 1.27 1.27)) hide)
    )
    (property "BOM" "Cap-1u-0603" (at 63.5 153.67 0)
      (effects (font (size 1.27 1.27)) hide)
    )
    (pin "1" (uuid ab1cd6af-22b4-463d-a8c4-40ba70420c0b))
    (pin "2" (uuid ec1a3d88-5ec1-4856-8a8f-e0d3c52fe64e))
    (instances
      (project "pd2530-regulator"
        (path "/b090e0bb-cc02-44ac-aa41-16a606fea46f/2bc86199-4afa-440a-a948-246f0c97c8fb"
          (reference "C5") (unit 1)
        )
      )
    )
  )

  (symbol (lib_id "Transistor_Array:ULN2003A") (at 147.32 83.82 0) (mirror x) (unit 1)
    (in_bom yes) (on_board yes) (dnp no)
    (uuid 654c421f-80d7-4585-a0e5-db20d8081271)
    (property "Reference" "U2" (at 147.32 99.06 0)
      (effects (font (size 1.27 1.27)))
    )
    (property "Value" "ULN2003A" (at 147.32 100.965 0)
      (effects (font (size 1.27 1.27)))
    )
    (property "Footprint" "Package_SO:SOIC-16_3.9x9.9mm_P1.27mm" (at 148.59 69.85 0)
      (effects (font (size 1.27 1.27)) (justify left) hide)
    )
    (property "Datasheet" "http://www.ti.com/lit/ds/symlink/uln2003a.pdf" (at 149.86 78.74 0)
      (effects (font (size 1.27 1.27)) hide)
    )
    (property "BOM" "ULN2003-SOIC" (at 147.32 83.82 0)
      (effects (font (size 1.27 1.27)) hide)
    )
    (pin "1" (uuid 19ac9bb0-ef54-4f16-883a-1dc521afbbd9))
    (pin "10" (uuid 5eb71da2-281e-430a-a5d9-b049959a7dd3))
    (pin "11" (uuid 7cde7c14-bfa1-4907-9cf6-975e329cb889))
    (pin "12" (uuid afbe87f6-0f0b-41db-a1cb-7105fd8c8b07))
    (pin "13" (uuid 94cb728b-0db5-42de-afe2-13e78c8a3f59))
    (pin "14" (uuid 75eeeaad-119a-4ebc-82e6-e543f37a1b79))
    (pin "15" (uuid 3b37fee8-cac7-4ba9-9f86-c7b805fa2d12))
    (pin "16" (uuid 12a7559e-fbcc-4ffc-a642-75f16e2a2e60))
    (pin "2" (uuid 25264eb9-0ca1-4e8b-9552-2baa5c4f96e5))
    (pin "3" (uuid a11ca28e-e75f-4b4e-bf54-68146a98a4a7))
    (pin "4" (uuid 524168a2-a4fe-4cee-8092-9d6f32fb5168))
    (pin "5" (uuid 41aa0194-ea2e-4ab3-a150-6deff2efa563))
    (pin "6" (uuid 319c63bd-aa17-4c20-a9c9-f85aba80ed3a))
    (pin "7" (uuid 01b33ade-8ccf-4d98-bcf4-a66333bc417a))
    (pin "8" (uuid 25532f8c-897e-4a6d-b5a3-9afe1298e944))
    (pin "9" (uuid 09dee8c3-1577-46e4-932c-1ecf2fa50a8a))
    (instances
      (project "pd2530-regulator"
        (path "/b090e0bb-cc02-44ac-aa41-16a606fea46f/2bc86199-4afa-440a-a948-246f0c97c8fb"
          (reference "U2") (unit 1)
        )
      )
    )
  )

  (symbol (lib_name "C_1") (lib_id "alexisvl_device:C") (at 182.88 45.72 0) (unit 1)
    (in_bom yes) (on_board yes) (dnp no)
    (uuid 740c054e-25aa-4e5b-8615-28817a623e71)
    (property "Reference" "C6" (at 187.96 44.45 0)
      (effects (font (size 1.27 1.27)))
    )
    (property "Value" "DNP" (at 187.96 46.99 0)
      (effects (font (size 1.27 1.27)))
    )
    (property "Footprint" "Capacitor_SMD:C_0603_1608Metric" (at 182.88 45.72 0)
      (effects (font (size 1.27 1.27)) hide)
    )
    (property "Datasheet" "~" (at 182.88 45.72 0)
      (effects (font (size 1.27 1.27)) hide)
    )
    (property "BOM" "DNP" (at 182.88 45.72 0)
      (effects (font (size 1.27 1.27)) hide)
    )
    (pin "1" (uuid 4605dfa0-f081-433c-a56c-ff82635fd8e7))
    (pin "2" (uuid c1353fe7-c724-4137-92e2-df031cda654d))
    (instances
      (project "pd2530-regulator"
        (path "/b090e0bb-cc02-44ac-aa41-16a606fea46f/2bc86199-4afa-440a-a948-246f0c97c8fb"
          (reference "C6") (unit 1)
        )
      )
    )
  )

  (symbol (lib_id "power:+5V") (at 107.95 104.14 0) (unit 1)
    (in_bom yes) (on_board yes) (dnp no)
    (uuid 77dd99eb-04c5-474a-bdfd-54216c978dc3)
    (property "Reference" "#PWR041" (at 107.95 107.95 0)
      (effects (font (size 1.27 1.27)) hide)
    )
    (property "Value" "+5V" (at 107.95 100.584 0)
      (effects (font (size 1.27 1.27)))
    )
    (property "Footprint" "" (at 107.95 104.14 0)
      (effects (font (size 1.27 1.27)) hide)
    )
    (property "Datasheet" "" (at 107.95 104.14 0)
      (effects (font (size 1.27 1.27)) hide)
    )
    (pin "1" (uuid 6926bb2d-4ee1-4685-9284-427a10cc7489))
    (instances
      (project "pd2530-regulator"
        (path "/b090e0bb-cc02-44ac-aa41-16a606fea46f/2bc86199-4afa-440a-a948-246f0c97c8fb"
          (reference "#PWR041") (unit 1)
        )
      )
    )
  )

  (symbol (lib_id "alexisvl_device:Q_PMOS_GSD") (at 191.77 50.8 0) (mirror x) (unit 1)
    (in_bom yes) (on_board yes) (dnp no)
    (uuid 8c83db78-b163-4bc1-85b4-745cf8bbe8fa)
    (property "Reference" "Q2" (at 198.12 50.8 0)
      (effects (font (size 1.27 1.27)))
    )
    (property "Value" "AOSS21319C" (at 196.85 49.53 0)
      (effects (font (size 1.27 1.27)) hide)
    )
    (property "Footprint" "fixed_standard:SOT-23" (at 196.85 53.34 0)
      (effects (font (size 1.27 1.27)) hide)
    )
    (property "Datasheet" "~" (at 191.77 50.8 0)
      (effects (font (size 1.27 1.27)) hide)
    )
    (property "BOM" "AOSS21319C" (at 191.77 50.8 0)
      (effects (font (size 1.27 1.27)) hide)
    )
    (pin "1" (uuid b836b82c-78d3-4aca-910e-51d21787cb10))
    (pin "2" (uuid 42be399b-13f3-4f63-8903-233fe367eab9))
    (pin "3" (uuid 97a14c7a-42f5-4fc0-855f-1571c575f6d6))
    (instances
      (project "pd2530-regulator"
        (path "/b090e0bb-cc02-44ac-aa41-16a606fea46f/2bc86199-4afa-440a-a948-246f0c97c8fb"
          (reference "Q2") (unit 1)
        )
      )
    )
  )

  (symbol (lib_id "power:+5V") (at 73.66 130.81 0) (unit 1)
    (in_bom yes) (on_board yes) (dnp no)
    (uuid 8dc59390-c2c0-4f08-b4a5-3b9d20018952)
    (property "Reference" "#PWR038" (at 73.66 134.62 0)
      (effects (font (size 1.27 1.27)) hide)
    )
    (property "Value" "+5V" (at 73.66 127.254 0)
      (effects (font (size 1.27 1.27)))
    )
    (property "Footprint" "" (at 73.66 130.81 0)
      (effects (font (size 1.27 1.27)) hide)
    )
    (property "Datasheet" "" (at 73.66 130.81 0)
      (effects (font (size 1.27 1.27)) hide)
    )
    (pin "1" (uuid 9d2385d1-38ff-43ed-a388-72c416c1dc34))
    (instances
      (project "pd2530-regulator"
        (path "/b090e0bb-cc02-44ac-aa41-16a606fea46f/2bc86199-4afa-440a-a948-246f0c97c8fb"
          (reference "#PWR038") (unit 1)
        )
      )
    )
  )

  (symbol (lib_name "C_2") (lib_id "alexisvl_device:C") (at 208.28 64.77 0) (unit 1)
    (in_bom yes) (on_board yes) (dnp no)
    (uuid 93860d6b-7396-44d1-bcb9-cb12085bc91f)
    (property "Reference" "C107" (at 213.36 63.5 0)
      (effects (font (size 1.27 1.27)))
    )
    (property "Value" "22µ" (at 213.36 66.04 0)
      (effects (font (size 1.27 1.27)))
    )
    (property "Footprint" "Capacitor_SMD:C_0805_2012Metric" (at 208.28 64.77 0)
      (effects (font (size 1.27 1.27)) hide)
    )
    (property "Datasheet" "~" (at 208.28 64.77 0)
      (effects (font (size 1.27 1.27)) hide)
    )
    (property "BOM" "Cap-22U-25V-0805" (at 208.28 64.77 0)
      (effects (font (size 1.27 1.27)) hide)
    )
    (pin "1" (uuid dca5cdbf-b385-484d-940c-d7e7c7acc793))
    (pin "2" (uuid 3ef12154-e2d0-4ae0-94e6-2925c53bbf0e))
    (instances
      (project "pd2530-regulator"
        (path "/b090e0bb-cc02-44ac-aa41-16a606fea46f/0f130ac6-d3ec-4095-a8b6-dccbe0873064/54082ef9-6ae6-4e35-b08e-707a2e83c64c"
          (reference "C107") (unit 1)
        )
        (path "/b090e0bb-cc02-44ac-aa41-16a606fea46f/32223ca4-ed47-4ac5-8182-4542bbf1db4e/54082ef9-6ae6-4e35-b08e-707a2e83c64c"
          (reference "C108") (unit 1)
        )
        (path "/b090e0bb-cc02-44ac-aa41-16a606fea46f/0f130ac6-d3ec-4095-a8b6-dccbe0873064/6f27f36c-408f-4d7f-a54a-24e4e48d84b1"
          (reference "C174") (unit 1)
        )
        (path "/b090e0bb-cc02-44ac-aa41-16a606fea46f/32223ca4-ed47-4ac5-8182-4542bbf1db4e/6f27f36c-408f-4d7f-a54a-24e4e48d84b1"
          (reference "C175") (unit 1)
        )
        (path "/b090e0bb-cc02-44ac-aa41-16a606fea46f/2bc86199-4afa-440a-a948-246f0c97c8fb"
          (reference "C8") (unit 1)
        )
      )
    )
  )

  (symbol (lib_name "C_3") (lib_id "alexisvl_device:C") (at 52.07 153.67 0) (unit 1)
    (in_bom yes) (on_board yes) (dnp no)
    (uuid 940c9aab-96e5-4f51-8c02-5a11a17c0fa5)
    (property "Reference" "C11" (at 57.15 152.4 0)
      (effects (font (size 1.27 1.27)))
    )
    (property "Value" "1µ" (at 57.15 154.94 0)
      (effects (font (size 1.27 1.27)))
    )
    (property "Footprint" "Capacitor_SMD:C_0603_1608Metric" (at 52.07 153.67 0)
      (effects (font (size 1.27 1.27)) hide)
    )
    (property "Datasheet" "~" (at 52.07 153.67 0)
      (effects (font (size 1.27 1.27)) hide)
    )
    (property "JLC" "C15849" (at 52.07 153.67 0)
      (effects (font (size 1.27 1.27)) hide)
    )
    (property "BOM" "Cap-1u-0603" (at 52.07 153.67 0)
      (effects (font (size 1.27 1.27)) hide)
    )
    (pin "1" (uuid f268fa21-c63a-4784-9a4d-6ef6d1b90b6f))
    (pin "2" (uuid 475bd708-9b84-428e-908c-5bd83d5fc761))
    (instances
      (project "pd2530-regulator"
        (path "/b090e0bb-cc02-44ac-aa41-16a606fea46f/2bc86199-4afa-440a-a948-246f0c97c8fb"
          (reference "C11") (unit 1)
        )
      )
    )
  )

  (symbol (lib_id "power:GND") (at 52.07 157.48 0) (unit 1)
    (in_bom yes) (on_board yes) (dnp no)
    (uuid 95a6e687-a8aa-43ca-a643-c624b4ae5268)
    (property "Reference" "#PWR064" (at 52.07 163.83 0)
      (effects (font (size 1.27 1.27)) hide)
    )
    (property "Value" "GND" (at 52.07 161.29 0)
      (effects (font (size 1.27 1.27)))
    )
    (property "Footprint" "" (at 52.07 157.48 0)
      (effects (font (size 1.27 1.27)) hide)
    )
    (property "Datasheet" "" (at 52.07 157.48 0)
      (effects (font (size 1.27 1.27)) hide)
    )
    (pin "1" (uuid fd267aad-627c-4fc0-8c07-605c1d0f2f34))
    (instances
      (project "pd2530-regulator"
        (path "/b090e0bb-cc02-44ac-aa41-16a606fea46f/2bc86199-4afa-440a-a948-246f0c97c8fb"
          (reference "#PWR064") (unit 1)
        )
      )
    )
  )

  (symbol (lib_id "power:GND") (at 208.28 68.58 0) (unit 1)
    (in_bom yes) (on_board yes) (dnp no)
    (uuid 96f7f8c3-1f5d-4b88-bdd7-8e105d020fb9)
    (property "Reference" "#PWR048" (at 208.28 74.93 0)
      (effects (font (size 1.27 1.27)) hide)
    )
    (property "Value" "GND" (at 208.28 72.39 0)
      (effects (font (size 1.27 1.27)))
    )
    (property "Footprint" "" (at 208.28 68.58 0)
      (effects (font (size 1.27 1.27)) hide)
    )
    (property "Datasheet" "" (at 208.28 68.58 0)
      (effects (font (size 1.27 1.27)) hide)
    )
    (pin "1" (uuid 157d2719-94c1-426e-a612-66118bf4b866))
    (instances
      (project "pd2530-regulator"
        (path "/b090e0bb-cc02-44ac-aa41-16a606fea46f/2bc86199-4afa-440a-a948-246f0c97c8fb"
          (reference "#PWR048") (unit 1)
        )
      )
    )
  )

  (symbol (lib_id "power:+12V") (at 157.48 93.98 270) (unit 1)
    (in_bom yes) (on_board yes) (dnp no)
    (uuid 985a8326-ddc3-4f24-863a-698b9370f03c)
    (property "Reference" "#PWR044" (at 153.67 93.98 0)
      (effects (font (size 1.27 1.27)) hide)
    )
    (property "Value" "+12V" (at 163.83 93.98 90)
      (effects (font (size 1.27 1.27)))
    )
    (property "Footprint" "" (at 157.48 93.98 0)
      (effects (font (size 1.27 1.27)) hide)
    )
    (property "Datasheet" "" (at 157.48 93.98 0)
      (effects (font (size 1.27 1.27)) hide)
    )
    (pin "1" (uuid ee42e383-a8f0-40ca-960a-50eda794f1c5))
    (instances
      (project "pd2530-regulator"
        (path "/b090e0bb-cc02-44ac-aa41-16a606fea46f/2bc86199-4afa-440a-a948-246f0c97c8fb"
          (reference "#PWR044") (unit 1)
        )
      )
    )
  )

  (symbol (lib_id "alexisvl_device:Polyfuse") (at 201.93 58.42 270) (unit 1)
    (in_bom yes) (on_board yes) (dnp no)
    (uuid a2e315ab-5739-48a0-858b-a5ba35d6950a)
    (property "Reference" "F4" (at 201.93 55.88 90)
      (effects (font (size 1.27 1.27)))
    )
    (property "Value" "750mA" (at 201.93 60.96 90)
      (effects (font (size 1.27 1.27)))
    )
    (property "Footprint" "Fuse:Fuse_1206_3216Metric" (at 196.85 59.69 0)
      (effects (font (size 1.27 1.27)) (justify left) hide)
    )
    (property "Datasheet" "~" (at 201.93 58.42 0)
      (effects (font (size 1.27 1.27)) hide)
    )
    (property "Field4" "" (at 201.93 58.42 90)
      (effects (font (size 1.27 1.27)) hide)
    )
    (property "BOM" "BelFuse-0ZCJ0075AF2E" (at 201.93 58.42 0)
      (effects (font (size 1.27 1.27)) hide)
    )
    (pin "1" (uuid baf15fcb-835b-4478-a052-4194ffb46bd6))
    (pin "2" (uuid 9c86a1f6-b0ad-478f-b2d1-874c007a9ba6))
    (instances
      (project "pd2530-regulator"
        (path "/b090e0bb-cc02-44ac-aa41-16a606fea46f/2bc86199-4afa-440a-a948-246f0c97c8fb"
          (reference "F4") (unit 1)
        )
      )
      (project "pdp1-electronics"
        (path "/f1c50fef-9096-48d5-a2ef-5237791787d0/ba0af680-1a8e-4a53-ad98-1d87661c5a03"
          (reference "F1") (unit 1)
        )
      )
    )
  )

  (symbol (lib_id "power:+5V") (at 52.07 149.86 0) (unit 1)
    (in_bom yes) (on_board yes) (dnp no)
    (uuid a4aca2bd-31e9-41ac-af79-33f6efae9822)
    (property "Reference" "#PWR063" (at 52.07 153.67 0)
      (effects (font (size 1.27 1.27)) hide)
    )
    (property "Value" "+5V" (at 52.07 146.304 0)
      (effects (font (size 1.27 1.27)))
    )
    (property "Footprint" "" (at 52.07 149.86 0)
      (effects (font (size 1.27 1.27)) hide)
    )
    (property "Datasheet" "" (at 52.07 149.86 0)
      (effects (font (size 1.27 1.27)) hide)
    )
    (pin "1" (uuid 40762325-cf66-48f3-9a58-60f06cf3f273))
    (instances
      (project "pd2530-regulator"
        (path "/b090e0bb-cc02-44ac-aa41-16a606fea46f/2bc86199-4afa-440a-a948-246f0c97c8fb"
          (reference "#PWR063") (unit 1)
        )
      )
    )
  )

  (symbol (lib_id "power:+12V") (at 173.99 41.91 0) (unit 1)
    (in_bom yes) (on_board yes) (dnp no)
    (uuid afdff56b-1a3b-4c24-a844-b12fe01aafb6)
    (property "Reference" "#PWR045" (at 173.99 45.72 0)
      (effects (font (size 1.27 1.27)) hide)
    )
    (property "Value" "+12V" (at 173.99 38.354 0)
      (effects (font (size 1.27 1.27)))
    )
    (property "Footprint" "" (at 173.99 41.91 0)
      (effects (font (size 1.27 1.27)) hide)
    )
    (property "Datasheet" "" (at 173.99 41.91 0)
      (effects (font (size 1.27 1.27)) hide)
    )
    (pin "1" (uuid 1fd1aeca-4a4b-4370-8ac4-d41b275fbf06))
    (instances
      (project "pd2530-regulator"
        (path "/b090e0bb-cc02-44ac-aa41-16a606fea46f/2bc86199-4afa-440a-a948-246f0c97c8fb"
          (reference "#PWR045") (unit 1)
        )
      )
    )
  )

  (symbol (lib_id "power:GND") (at 107.95 137.16 0) (unit 1)
    (in_bom yes) (on_board yes) (dnp no)
    (uuid bd9a6ae5-a333-4d97-8795-ecf285a3a26b)
    (property "Reference" "#PWR042" (at 107.95 143.51 0)
      (effects (font (size 1.27 1.27)) hide)
    )
    (property "Value" "GND" (at 107.95 140.97 0)
      (effects (font (size 1.27 1.27)))
    )
    (property "Footprint" "" (at 107.95 137.16 0)
      (effects (font (size 1.27 1.27)) hide)
    )
    (property "Datasheet" "" (at 107.95 137.16 0)
      (effects (font (size 1.27 1.27)) hide)
    )
    (pin "1" (uuid 8f931cae-cbfe-497f-9c84-f14e4ebea5e1))
    (instances
      (project "pd2530-regulator"
        (path "/b090e0bb-cc02-44ac-aa41-16a606fea46f/2bc86199-4afa-440a-a948-246f0c97c8fb"
          (reference "#PWR042") (unit 1)
        )
      )
    )
  )

  (symbol (lib_name "C_4") (lib_id "alexisvl_device:C") (at 187.96 58.42 90) (unit 1)
    (in_bom yes) (on_board yes) (dnp no) (fields_autoplaced)
    (uuid bec104a6-9974-42b0-b8d6-43d566256805)
    (property "Reference" "C7" (at 187.96 63.5 90)
      (effects (font (size 1.27 1.27)))
    )
    (property "Value" "DNP" (at 187.96 66.04 90)
      (effects (font (size 1.27 1.27)))
    )
    (property "Footprint" "Capacitor_SMD:C_0603_1608Metric" (at 187.96 58.42 0)
      (effects (font (size 1.27 1.27)) hide)
    )
    (property "Datasheet" "~" (at 187.96 58.42 0)
      (effects (font (size 1.27 1.27)) hide)
    )
    (property "BOM" "DNP" (at 187.96 58.42 0)
      (effects (font (size 1.27 1.27)) hide)
    )
    (pin "1" (uuid 30832cdf-3de1-4d71-b2e6-eb48c025ef87))
    (pin "2" (uuid 95955cd7-0445-407f-b46e-092bf450a0a4))
    (instances
      (project "pd2530-regulator"
        (path "/b090e0bb-cc02-44ac-aa41-16a606fea46f/2bc86199-4afa-440a-a948-246f0c97c8fb"
          (reference "C7") (unit 1)
        )
      )
    )
  )

  (symbol (lib_id "alexisvl_device:R") (at 173.99 59.69 180) (unit 1)
    (in_bom yes) (on_board yes) (dnp no) (fields_autoplaced)
    (uuid cc84ffa5-3ad4-440a-bd4d-6da67984f5d4)
    (property "Reference" "R10" (at 177.8 59.055 0)
      (effects (font (size 1.27 1.27)))
    )
    (property "Value" "1M" (at 177.8 61.595 0)
      (effects (font (size 1.27 1.27)))
    )
    (property "Footprint" "Resistor_SMD:R_0603_1608Metric" (at 172.974 59.436 90)
      (effects (font (size 1.27 1.27)) hide)
    )
    (property "Datasheet" "~" (at 173.99 59.69 0)
      (effects (font (size 1.27 1.27)) hide)
    )
    (property "JLC" "C22935" (at 173.99 59.69 0)
      (effects (font (size 1.27 1.27)) hide)
    )
    (property "BOM" "UNTR:Res-1M-0603" (at 173.99 59.69 0)
      (effects (font (size 1.27 1.27)) hide)
    )
    (pin "1" (uuid 47f7fcc0-2b71-47dd-808f-cf96c19679cd))
    (pin "2" (uuid f957358b-efa7-4796-99d4-9cf534065f98))
    (instances
      (project "pd2530-regulator"
        (path "/b090e0bb-cc02-44ac-aa41-16a606fea46f/2bc86199-4afa-440a-a948-246f0c97c8fb"
          (reference "R10") (unit 1)
        )
      )
    )
  )

  (symbol (lib_id "power:+5V") (at 97.79 116.84 90) (unit 1)
    (in_bom yes) (on_board yes) (dnp no)
    (uuid dbc8a5d9-1d9c-456d-b7ff-f6ae9db3bd02)
    (property "Reference" "#PWR040" (at 101.6 116.84 0)
      (effects (font (size 1.27 1.27)) hide)
    )
    (property "Value" "+5V" (at 92.71 116.84 90)
      (effects (font (size 1.27 1.27)))
    )
    (property "Footprint" "" (at 97.79 116.84 0)
      (effects (font (size 1.27 1.27)) hide)
    )
    (property "Datasheet" "" (at 97.79 116.84 0)
      (effects (font (size 1.27 1.27)) hide)
    )
    (pin "1" (uuid abfdf1ed-6629-4420-a55f-e2dc8eaf3633))
    (instances
      (project "pd2530-regulator"
        (path "/b090e0bb-cc02-44ac-aa41-16a606fea46f/2bc86199-4afa-440a-a948-246f0c97c8fb"
          (reference "#PWR040") (unit 1)
        )
      )
    )
  )
)
