(kicad_pcb (version 20230410) (generator pcbnew)

  (general
    (thickness 1.58)
  )

  (paper "A")
  (title_block
    (title "PD2530 banana board")
    (date "2022-12-30")
    (rev "1")
    (company "Free Instruments Project")
    (comment 1 "ip is fake. steal this")
  )

  (layers
    (0 "F.Cu" signal)
    (31 "B.Cu" signal)
    (32 "B.Adhes" user "B.Adhesive")
    (33 "F.Adhes" user "F.Adhesive")
    (34 "B.Paste" user)
    (35 "F.Paste" user)
    (36 "B.SilkS" user "B.Silkscreen")
    (37 "F.SilkS" user "F.Silkscreen")
    (38 "B.Mask" user)
    (39 "F.Mask" user)
    (40 "Dwgs.User" user "User.Drawings")
    (41 "Cmts.User" user "User.Comments")
    (42 "Eco1.User" user "User.Eco1")
    (43 "Eco2.User" user "User.Eco2")
    (44 "Edge.Cuts" user)
    (45 "Margin" user)
    (46 "B.CrtYd" user "B.Courtyard")
    (47 "F.CrtYd" user "F.Courtyard")
    (48 "B.Fab" user)
    (49 "F.Fab" user)
    (50 "User.1" user)
    (51 "User.2" user)
    (52 "User.3" user)
    (53 "User.4" user)
    (54 "User.5" user)
    (55 "User.6" user)
    (56 "User.7" user)
    (57 "User.8" user)
    (58 "User.9" user)
  )

  (setup
    (stackup
      (layer "F.Cu" (type "copper") (thickness 0.035))
      (layer "dielectric 1" (type "core") (thickness 1.51) (material "FR4") (epsilon_r 4.5) (loss_tangent 0.02))
      (layer "B.Cu" (type "copper") (thickness 0.035))
      (copper_finish "None")
      (dielectric_constraints no)
    )
    (pad_to_mask_clearance 0)
    (aux_axis_origin 81.43 69.525)
    (grid_origin 81.43 69.525)
    (pcbplotparams
      (layerselection 0x00011f0_ffffffff)
      (plot_on_all_layers_selection 0x0000000_00000000)
      (disableapertmacros true)
      (usegerberextensions true)
      (usegerberattributes false)
      (usegerberadvancedattributes true)
      (creategerberjobfile false)
      (dashed_line_dash_ratio 12.000000)
      (dashed_line_gap_ratio 3.000000)
      (svgprecision 4)
      (plotframeref false)
      (viasonmask false)
      (mode 1)
      (useauxorigin false)
      (hpglpennumber 1)
      (hpglpenspeed 20)
      (hpglpendiameter 15.000000)
      (pdf_front_fp_property_popups true)
      (pdf_back_fp_property_popups true)
      (dxfpolygonmode true)
      (dxfimperialunits true)
      (dxfusepcbnewfont true)
      (psnegative false)
      (psa4output false)
      (plotreference true)
      (plotvalue true)
      (plotinvisibletext false)
      (sketchpadsonfab false)
      (subtractmaskfromsilk true)
      (outputformat 1)
      (mirror false)
      (drillshape 0)
      (scaleselection 1)
      (outputdirectory "gerbers")
    )
  )

  (net 0 "")
  (net 1 "/DRIVE_POS")
  (net 2 "/DRIVE_NEG")
  (net 3 "/TERM_POS")
  (net 4 "/TERM_NEG")
  (net 5 "/SENSE_POS")
  (net 6 "GND")
  (net 7 "/SENSE_NEG")

  (footprint "alexisvl:Fuse-Eaton-1245" (layer "B.Cu")
    (tstamp 302d2239-f64e-43e8-8e2b-a389449812e2)
    (at 66.825 54.285)
    (property "Sheetfile" "bananaboard.kicad_sch")
    (property "Sheetname" "")
    (property "ki_description" "Fuse")
    (property "ki_keywords" "fuse")
    (path "/8dd278af-8dc4-43c1-820b-dc189b534e99")
    (attr smd)
    (fp_text reference "F1" (at -10.287 -0.762) (layer "B.SilkS") (tstamp 1a2f7834-b5a2-402b-8094-02e2afa1a79b)
      (effects (font (size 0.8 0.8) (thickness 0.15)) (justify mirror))
    )
    (fp_text value "5A" (at 0 0 180 unlocked) (layer "B.Fab") (tstamp e41e651a-cdea-4577-94be-27f38b6d6211)
      (effects (font (size 0.8 0.8) (thickness 0.15)) (justify mirror))
    )
    (fp_line (start -3 -2.75) (end 3 -2.75)
      (stroke (width 0.2) (type default)) (layer "B.SilkS") (tstamp 48028da1-9885-4d5a-83d4-670d06d2a3e0))
    (fp_line (start -3 2.75) (end 3 2.75)
      (stroke (width 0.2) (type default)) (layer "B.SilkS") (tstamp c3c9fa51-f61b-483f-9b07-090e024a6336))
    (fp_arc (start 0 0) (mid -0.75 0.75) (end -1.5 0)
      (stroke (width 0.2) (type default)) (layer "B.SilkS") (tstamp 941ffe40-21a5-46d8-a923-d92bc736043b))
    (fp_arc (start 0 0) (mid 0.75 -0.75) (end 1.5 0)
      (stroke (width 0.2) (type default)) (layer "B.SilkS") (tstamp 98be9e5f-fe5f-43c7-a28b-f127cc500a04))
    (fp_rect (start -7.15 3.05) (end 7.15 -3.05)
      (stroke (width 0.05) (type default)) (fill none) (layer "B.CrtYd") (tstamp e8d7d5d5-6aaa-44c7-b974-a26e2231c4ee))
    (fp_rect (start -6 2.25) (end 6 -2.25)
      (stroke (width 0.1) (type default)) (fill none) (layer "B.Fab") (tstamp da1d3b9a-5fb2-41a7-a7b4-f166a98c2af7))
    (fp_text user "${REFERENCE}" (at 0 -1.5 180 unlocked) (layer "B.Fab") (tstamp cc696989-60af-41bb-bd68-45c284c854fe)
      (effects (font (size 0.8 0.8) (thickness 0.15)) (justify mirror))
    )
    (pad "1" smd roundrect (at -5.15 0) (size 3.5 5.6) (layers "B.Cu" "B.Paste" "B.Mask") (roundrect_rratio 0.25)
      (net 1 "/DRIVE_POS") (pintype "passive") (thermal_bridge_angle 45) (tstamp 5d55e0e5-4ab0-4cb7-94ea-523d9cf8158a))
    (pad "2" smd roundrect (at 5.15 0) (size 3.5 5.6) (layers "B.Cu" "B.Paste" "B.Mask") (roundrect_rratio 0.25)
      (net 3 "/TERM_POS") (pintype "passive") (thermal_bridge_angle 45) (tstamp 55face1b-3e47-4fa2-b385-2a35a7b2c584))
  )

  (footprint "Capacitor_SMD:C_1206_3216Metric" (layer "B.Cu")
    (tstamp 3fd4fcb6-b005-49c6-aca7-5d5dcdd6b8ba)
    (at 77.366 68.001)
    (descr "Capacitor SMD 1206 (3216 Metric), square (rectangular) end terminal, IPC_7351 nominal, (Body size source: IPC-SM-782 page 76, https://www.pcb-3d.com/wordpress/wp-content/uploads/ipc-sm-782a_amendment_1_and_2.pdf), generated with kicad-footprint-generator")
    (tags "capacitor")
    (property "Sheetfile" "bananaboard.kicad_sch")
    (property "Sheetname" "")
    (property "ki_description" "Gas Discharge Tube with 2 Pins")
    (property "ki_keywords" "gdt")
    (path "/a0f3412f-0814-4e07-8908-d24a10508ffc")
    (attr smd)
    (fp_text reference "GD2" (at 4.572 0) (layer "B.SilkS") (tstamp a30361ed-c65e-4c1e-b46e-3830c2788d98)
      (effects (font (size 0.8 0.8) (thickness 0.15)) (justify mirror))
    )
    (fp_text value "150V" (at 0 -1.85) (layer "B.Fab") (tstamp 47ba742c-33e2-480e-8218-827f43d342c5)
      (effects (font (size 1 1) (thickness 0.15)) (justify mirror))
    )
    (fp_line (start -0.711252 -0.91) (end 0.711252 -0.91)
      (stroke (width 0.12) (type solid)) (layer "B.SilkS") (tstamp 75ad0cb0-4b44-46fa-8b25-1386e78d70d1))
    (fp_line (start -0.711252 0.91) (end 0.711252 0.91)
      (stroke (width 0.12) (type solid)) (layer "B.SilkS") (tstamp 829a5b17-b281-4736-9331-f9dd9ac6a81d))
    (fp_line (start -2.3 -1.15) (end -2.3 1.15)
      (stroke (width 0.05) (type solid)) (layer "B.CrtYd") (tstamp ece70e1a-c59b-4597-8f5b-2d047cb2b714))
    (fp_line (start -2.3 1.15) (end 2.3 1.15)
      (stroke (width 0.05) (type solid)) (layer "B.CrtYd") (tstamp e5fc6c0f-445d-4ec8-83b0-3d9a420bdc0c))
    (fp_line (start 2.3 -1.15) (end -2.3 -1.15)
      (stroke (width 0.05) (type solid)) (layer "B.CrtYd") (tstamp b82361e8-017f-4702-9c2a-a644fe84a39d))
    (fp_line (start 2.3 1.15) (end 2.3 -1.15)
      (stroke (width 0.05) (type solid)) (layer "B.CrtYd") (tstamp 79e67f0a-1dde-4ff8-8ee2-cc67b5ee6e26))
    (fp_line (start -1.6 -0.8) (end -1.6 0.8)
      (stroke (width 0.1) (type solid)) (layer "B.Fab") (tstamp 7ba21991-9044-45c5-bc5c-68e8849abd73))
    (fp_line (start -1.6 0.8) (end 1.6 0.8)
      (stroke (width 0.1) (type solid)) (layer "B.Fab") (tstamp 8c4b7b20-2c94-40c9-b341-df4c8d38d355))
    (fp_line (start 1.6 -0.8) (end -1.6 -0.8)
      (stroke (width 0.1) (type solid)) (layer "B.Fab") (tstamp ec94607e-c82d-47f5-997f-cd5876954eaa))
    (fp_line (start 1.6 0.8) (end 1.6 -0.8)
      (stroke (width 0.1) (type solid)) (layer "B.Fab") (tstamp ac10b7d6-0c11-43df-b926-e362ab5ac905))
    (fp_text user "${REFERENCE}" (at 0 0) (layer "B.Fab") (tstamp d8b7d764-bd30-4262-801e-58a04baa27a9)
      (effects (font (size 0.8 0.8) (thickness 0.12)) (justify mirror))
    )
    (pad "1" smd roundrect (at -1.475 0) (size 1.15 1.8) (layers "B.Cu" "B.Paste" "B.Mask") (roundrect_rratio 0.2173913043)
      (net 1 "/DRIVE_POS") (pintype "passive") (tstamp cc58e813-625a-4aab-8dab-39cc3e06d64f))
    (pad "2" smd roundrect (at 1.475 0) (size 1.15 1.8) (layers "B.Cu" "B.Paste" "B.Mask") (roundrect_rratio 0.2173913043)
      (net 6 "GND") (pintype "passive") (tstamp bb51d9c1-8638-4447-99d2-f9af098fb137))
    (model "${KICAD6_3DMODEL_DIR}/Capacitor_SMD.3dshapes/C_1206_3216Metric.wrl"
      (offset (xyz 0 0 0))
      (scale (xyz 1 1 1))
      (rotate (xyz 0 0 0))
    )
  )

  (footprint "Capacitor_THT:C_Disc_D9.0mm_W5.0mm_P5.00mm" (layer "B.Cu")
    (tstamp 4074ea24-3093-4e24-917d-42e6e6714ba1)
    (at 64.285 65.04 90)
    (descr "C, Disc series, Radial, pin pitch=5.00mm, , diameter*width=9*5.0mm^2, Capacitor, http://www.vishay.com/docs/28535/vy2series.pdf")
    (tags "C Disc series Radial pin pitch 5.00mm  diameter 9mm width 5.0mm Capacitor")
    (property "Sheetfile" "bananaboard.kicad_sch")
    (property "Sheetname" "")
    (property "ki_description" "Resettable fuse, polymeric positive temperature coefficient")
    (property "ki_keywords" "resettable fuse PTC PPTC polyfuse polyswitch")
    (path "/3f36d7eb-34c5-4620-a880-df7bf4c7f48c")
    (attr through_hole)
    (fp_text reference "F3" (at -3.215 -1.905 -180) (layer "B.SilkS") (tstamp bbdf2c3e-484e-4c2b-aad9-b2da6b3660e2)
      (effects (font (size 0.8 0.8) (thickness 0.15)) (justify mirror))
    )
    (fp_text value "80mA" (at 2.5 -3.75 90) (layer "B.Fab") (tstamp 1724f4ee-0cc0-4652-a833-a2959f4b1720)
      (effects (font (size 1 1) (thickness 0.15)) (justify mirror))
    )
    (fp_line (start -2.12 -2.62) (end 7.12 -2.62)
      (stroke (width 0.12) (type solid)) (layer "B.SilkS") (tstamp d168b96b-475a-4c7f-8d9d-21f76ebbd0bb))
    (fp_line (start 7.12 2.62) (end 7.12 -2.62)
      (stroke (width 0.12) (type solid)) (layer "B.SilkS") (tstamp eceddf29-d741-499b-8e4b-f89103746790))
    (fp_line (start -2.12 2.62) (end -2.12 -2.62)
      (stroke (width 0.12) (type solid)) (layer "B.SilkS") (tstamp d84ea125-52a5-4a66-8a21-62659b3abf28))
    (fp_line (start -2.12 2.62) (end 7.12 2.62)
      (stroke (width 0.12) (type solid)) (layer "B.SilkS") (tstamp 2e77135e-af76-4705-9b2d-510f2137d982))
    (fp_line (start 7.25 -2.75) (end 7.25 2.75)
      (stroke (width 0.05) (type solid)) (layer "B.CrtYd") (tstamp 7e3ed0d8-01e1-4509-b59e-8c1b7423889c))
    (fp_line (start -2.25 -2.75) (end 7.25 -2.75)
      (stroke (width 0.05) (type solid)) (layer "B.CrtYd") (tstamp 8fe45977-1c84-4cac-8082-7622a272d451))
    (fp_line (start 7.25 2.75) (end -2.25 2.75)
      (stroke (width 0.05) (type solid)) (layer "B.CrtYd") (tstamp 79c45607-222a-4b2f-843c-75ef653cdedd))
    (fp_line (start -2.25 2.75) (end -2.25 -2.75)
      (stroke (width 0.05) (type solid)) (layer "B.CrtYd") (tstamp 29d07194-9eae-4a4d-a30f-0d576552444a))
    (fp_line (start 7 -2.5) (end 7 2.5)
      (stroke (width 0.1) (type solid)) (layer "B.Fab") (tstamp e3d4f14d-1663-4174-8223-8c989a44633f))
    (fp_line (start -2 -2.5) (end 7 -2.5)
      (stroke (width 0.1) (type solid)) (layer "B.Fab") (tstamp 5f760e36-c73f-4f6c-82d9-196919d7e89d))
    (fp_line (start 7 2.5) (end -2 2.5)
      (stroke (width 0.1) (type solid)) (layer "B.Fab") (tstamp 78b96bd2-f956-4728-b86a-757df9a955c1))
    (fp_line (start -2 2.5) (end -2 -2.5)
      (stroke (width 0.1) (type solid)) (layer "B.Fab") (tstamp 30b7f836-c497-4346-bafc-69b6f311debd))
    (fp_text user "${REFERENCE}" (at 2.5 0 90) (layer "B.Fab") (tstamp 9857af8d-22d5-4416-9db0-e250bda278d0)
      (effects (font (size 1 1) (thickness 0.15)) (justify mirror))
    )
    (pad "1" thru_hole circle (at 0 0 90) (size 2 2) (drill 1) (layers "*.Cu" "*.Mask")
      (net 5 "/SENSE_POS") (pintype "passive") (tstamp 188c44d1-b421-47b9-888c-75eb824a072f))
    (pad "2" thru_hole circle (at 5 0 90) (size 2 2) (drill 1) (layers "*.Cu" "*.Mask")
      (net 3 "/TERM_POS") (pintype "passive") (tstamp a0b34aa8-f529-4165-83e0-46b5f41c4795))
    (model "${KICAD6_3DMODEL_DIR}/Capacitor_THT.3dshapes/C_Disc_D9.0mm_W5.0mm_P5.00mm.wrl"
      (offset (xyz 0 0 0))
      (scale (xyz 1 1 1))
      (rotate (xyz 0 0 0))
    )
  )

  (footprint "Connector_JST:JST_XH_B8B-XH-A_1x08_P2.50mm_Vertical" (layer "B.Cu")
    (tstamp 418b72fd-5130-4e2b-8ab8-02bd7c1a6ba5)
    (at 70.237 60.775 -90)
    (descr "JST XH series connector, B8B-XH-A (http://www.jst-mfg.com/product/pdf/eng/eXH.pdf), generated with kicad-footprint-generator")
    (tags "connector JST XH vertical")
    (property "Sheetfile" "bananaboard.kicad_sch")
    (property "Sheetname" "")
    (property "ki_description" "Generic connector, single row, 01x08, script generated (kicad-library-utils/schlib/autogen/connector/)")
    (property "ki_keywords" "connector")
    (path "/64e17f37-7f3f-4903-b134-9da553df1c8a")
    (attr through_hole)
    (fp_text reference "J1" (at 8.75 3.412 90) (layer "B.SilkS") (tstamp e7e094f3-9932-46fe-8df8-7cd86c4e806e)
      (effects (font (size 0.8 0.8) (thickness 0.15)) (justify mirror))
    )
    (fp_text value "Conn_01x08_Male" (at 8.75 -4.6 90) (layer "B.Fab") (tstamp 5509f236-51be-413a-adec-48a51481e4c5)
      (effects (font (size 1 1) (thickness 0.15)) (justify mirror))
    )
    (fp_line (start -2.85 2.75) (end -2.85 1.5)
      (stroke (width 0.12) (type solid)) (layer "B.SilkS") (tstamp 69c8cfa5-40c4-4a0d-b6fe-23a67b002420))
    (fp_line (start -1.6 2.75) (end -2.85 2.75)
      (stroke (width 0.12) (type solid)) (layer "B.SilkS") (tstamp d9912bc6-2d67-440e-b756-5f6c021f2f04))
    (fp_line (start -2.56 2.46) (end -2.56 -3.51)
      (stroke (width 0.12) (type solid)) (layer "B.SilkS") (tstamp 8b540e5a-115c-4961-a0ed-c019e4f6b887))
    (fp_line (start 20.06 2.46) (end -2.56 2.46)
      (stroke (width 0.12) (type solid)) (layer "B.SilkS") (tstamp 28064d48-79a4-43a8-b82b-40d3df05f9af))
    (fp_line (start -2.55 2.45) (end -2.55 1.7)
      (stroke (width 0.12) (type solid)) (layer "B.SilkS") (tstamp 4574cea8-e752-4ebf-95e5-39582bf606b6))
    (fp_line (start -0.75 2.45) (end -2.55 2.45)
      (stroke (width 0.12) (type solid)) (layer "B.SilkS") (tstamp 8415d984-358d-4f29-8c80-84faadfd8672))
    (fp_line (start 0.75 2.45) (end 0.75 1.7)
      (stroke (width 0.12) (type solid)) (layer "B.SilkS") (tstamp 4444ef2d-4081-46bd-8249-c93ea0914013))
    (fp_line (start 16.75 2.45) (end 0.75 2.45)
      (stroke (width 0.12) (type solid)) (layer "B.SilkS") (tstamp 27c84f07-1dab-4152-9690-33dabd2115aa))
    (fp_line (start 18.25 2.45) (end 18.25 1.7)
      (stroke (width 0.12) (type solid)) (layer "B.SilkS") (tstamp 005642da-1fd2-4c4d-82df-17165269772e))
    (fp_line (start 20.05 2.45) (end 18.25 2.45)
      (stroke (width 0.12) (type solid)) (layer "B.SilkS") (tstamp 8e3a63db-2a21-4cbf-abc1-99588fb5ed7d))
    (fp_line (start -2.55 1.7) (end -0.75 1.7)
      (stroke (width 0.12) (type solid)) (layer "B.SilkS") (tstamp fb18ca5c-ea5b-4b30-9693-4e7f73157935))
    (fp_line (start -0.75 1.7) (end -0.75 2.45)
      (stroke (width 0.12) (type solid)) (layer "B.SilkS") (tstamp e3a2b82b-7ead-4038-85f6-36dbafc98525))
    (fp_line (start 0.75 1.7) (end 16.75 1.7)
      (stroke (width 0.12) (type solid)) (layer "B.SilkS") (tstamp cbac66a1-fb57-4195-89b5-07bf3638059c))
    (fp_line (start 16.75 1.7) (end 16.75 2.45)
      (stroke (width 0.12) (type solid)) (layer "B.SilkS") (tstamp 8244243e-4d1a-471f-bd6d-f536d79232d7))
    (fp_line (start 18.25 1.7) (end 20.05 1.7)
      (stroke (width 0.12) (type solid)) (layer "B.SilkS") (tstamp a81e1fd7-66f2-4278-acc4-e12b3a8fdfc3))
    (fp_line (start 20.05 1.7) (end 20.05 2.45)
      (stroke (width 0.12) (type solid)) (layer "B.SilkS") (tstamp 92c16a41-de98-486c-a59a-e6309ccc9684))
    (fp_line (start -2.55 0.2) (end -1.8 0.2)
      (stroke (width 0.12) (type solid)) (layer "B.SilkS") (tstamp 83466be6-01a2-45ef-92ab-eb0f806d7cf1))
    (fp_line (start -1.8 0.2) (end -1.8 -2.75)
      (stroke (width 0.12) (type solid)) (layer "B.SilkS") (tstamp 0ea8381b-14bc-4264-bee2-c558f25fcf13))
    (fp_line (start 19.3 0.2) (end 19.3 -2.75)
      (stroke (width 0.12) (type solid)) (layer "B.SilkS") (tstamp 81fac016-ab7b-4fe1-a83e-1004b003c164))
    (fp_line (start 20.05 0.2) (end 19.3 0.2)
      (stroke (width 0.12) (type solid)) (layer "B.SilkS") (tstamp 38061a2a-c28c-40b4-896e-d669defbbba7))
    (fp_line (start -1.8 -2.75) (end 8.75 -2.75)
      (stroke (width 0.12) (type solid)) (layer "B.SilkS") (tstamp 746d645d-2352-4116-ac78-c1eff4536ae2))
    (fp_line (start 19.3 -2.75) (end 8.75 -2.75)
      (stroke (width 0.12) (type solid)) (layer "B.SilkS") (tstamp 2c4fb272-e422-4838-abaa-56b53e1ef711))
    (fp_line (start -2.56 -3.51) (end 20.06 -3.51)
      (stroke (width 0.12) (type solid)) (layer "B.SilkS") (tstamp 1f18a77f-54cc-4a98-80cf-23b67466b972))
    (fp_line (start 20.06 -3.51) (end 20.06 2.46)
      (stroke (width 0.12) (type solid)) (layer "B.SilkS") (tstamp c51e8f60-0f47-4b75-95c6-fdd53f5b6ce2))
    (fp_line (start -2.95 2.85) (end -2.95 -3.9)
      (stroke (width 0.05) (type solid)) (layer "B.CrtYd") (tstamp 19ee1257-3156-454f-bd0d-86bd912cbd08))
    (fp_line (start 20.45 2.85) (end -2.95 2.85)
      (stroke (width 0.05) (type solid)) (layer "B.CrtYd") (tstamp 5d239846-d7b0-4cc5-bf71-99ce914fdf2a))
    (fp_line (start -2.95 -3.9) (end 20.45 -3.9)
      (stroke (width 0.05) (type solid)) (layer "B.CrtYd") (tstamp 8093923c-86fb-4e8c-9d10-bf0291ce492d))
    (fp_line (start 20.45 -3.9) (end 20.45 2.85)
      (stroke (width 0.05) (type solid)) (layer "B.CrtYd") (tstamp a4dc2ff3-f34a-4c23-ac63-b1fbe1968edd))
    (fp_line (start -2.45 2.35) (end -2.45 -3.4)
      (stroke (width 0.1) (type solid)) (layer "B.Fab") (tstamp 2300a163-3166-4e5a-a240-2380b21d3b3e))
    (fp_line (start -0.625 2.35) (end 0 1.35)
      (stroke (width 0.1) (type solid)) (layer "B.Fab") (tstamp a69a8e0a-4f75-46f3-a910-f3e80fa1ae2c))
    (fp_line (start 19.95 2.35) (end -2.45 2.35)
      (stroke (width 0.1) (type solid)) (layer "B.Fab") (tstamp 5220a50d-8e7e-4b12-bdb7-df2cb8b56769))
    (fp_line (start 0 1.35) (end 0.625 2.35)
      (stroke (width 0.1) (type solid)) (layer "B.Fab") (tstamp 5dd3efbc-d58d-4ba7-bf49-22bafd30f2a6))
    (fp_line (start -2.45 -3.4) (end 19.95 -3.4)
      (stroke (width 0.1) (type solid)) (layer "B.Fab") (tstamp 26a591cb-f914-435c-a778-f4dc87d708e3))
    (fp_line (start 19.95 -3.4) (end 19.95 2.35)
      (stroke (width 0.1) (type solid)) (layer "B.Fab") (tstamp 14ed876f-fd83-411f-839a-cd4f9cd1bef2))
    (fp_text user "${REFERENCE}" (at 8.75 -2.7 90) (layer "B.Fab") (tstamp 232bdee1-14ee-4875-884c-2d8fbe5c13bf)
      (effects (font (size 1 1) (thickness 0.15)) (justify mirror))
    )
    (pad "1" thru_hole roundrect (at 0 0 270) (size 1.7 1.95) (drill 0.95) (layers "*.Cu" "*.Mask") (roundrect_rratio 0.1470588235)
      (net 1 "/DRIVE_POS") (pinfunction "Pin_1") (pintype "passive") (tstamp 43d12792-1bc3-4b1d-870f-830f812604f5))
    (pad "2" thru_hole oval (at 2.5 0 270) (size 1.7 1.95) (drill 0.95) (layers "*.Cu" "*.Mask")
      (net 1 "/DRIVE_POS") (pinfunction "Pin_2") (pintype "passive") (tstamp d862807f-7c29-4b30-8f19-d2153e2bff98))
    (pad "3" thru_hole oval (at 5 0 270) (size 1.7 1.95) (drill 0.95) (layers "*.Cu" "*.Mask")
      (net 1 "/DRIVE_POS") (pinfunction "Pin_3") (pintype "passive") (tstamp ee666a1e-a8cc-4171-9944-36126ca2055f))
    (pad "4" thru_hole oval (at 7.5 0 270) (size 1.7 1.95) (drill 0.95) (layers "*.Cu" "*.Mask")
      (net 5 "/SENSE_POS") (pinfunction "Pin_4") (pintype "passive") (tstamp 2f556b82-bdd3-43e3-b3f4-3162fad82747))
    (pad "5" thru_hole oval (at 10 0 270) (size 1.7 1.95) (drill 0.95) (layers "*.Cu" "*.Mask")
      (net 7 "/SENSE_NEG") (pinfunction "Pin_5") (pintype "passive") (tstamp 89f00ef6-4d49-4154-8ef1-22af520ddad7))
    (pad "6" thru_hole oval (at 12.5 0 270) (size 1.7 1.95) (drill 0.95) (layers "*.Cu" "*.Mask")
      (net 2 "/DRIVE_NEG") (pinfunction "Pin_6") (pintype "passive") (tstamp d25867a4-c8ee-42c8-a5ab-ed24ad87ba65))
    (pad "7" thru_hole oval (at 15 0 270) (size 1.7 1.95) (drill 0.95) (layers "*.Cu" "*.Mask")
      (net 2 "/DRIVE_NEG") (pinfunction "Pin_7") (pintype "passive") (tstamp 6849ec11-2554-4c2a-bf36-a0c4ab6fdc27))
    (pad "8" thru_hole oval (at 17.5 0 270) (size 1.7 1.95) (drill 0.95) (layers "*.Cu" "*.Mask")
      (net 2 "/DRIVE_NEG") (pinfunction "Pin_8") (pintype "passive") (tstamp eb0ee4a8-73a6-4da6-8986-5f8434eea816))
    (model "${KICAD6_3DMODEL_DIR}/Connector_JST.3dshapes/JST_XH_B8B-XH-A_1x08_P2.50mm_Vertical.wrl"
      (offset (xyz 0 0 0))
      (scale (xyz 1 1 1))
      (rotate (xyz 0 0 0))
    )
  )

  (footprint "alexisvl:Fuse-Eaton-1245" (layer "B.Cu")
    (tstamp 5acaf218-d62b-4ddf-bb03-4c101aa0fa52)
    (at 66.825 84.765)
    (property "Sheetfile" "bananaboard.kicad_sch")
    (property "Sheetname" "")
    (property "ki_description" "Fuse")
    (property "ki_keywords" "fuse")
    (path "/b0f84487-5cd8-4fe7-afc9-c1ff2c12e051")
    (attr smd)
    (fp_text reference "F2" (at -10.287 -0.508) (layer "B.SilkS") (tstamp 86fd6de9-64df-46c1-9f6d-e9f38e56f391)
      (effects (font (size 0.8 0.8) (thickness 0.15)) (justify mirror))
    )
    (fp_text value "5A" (at 0 0 180 unlocked) (layer "B.Fab") (tstamp 1f406fd1-2964-466f-9a96-9c4d55afd3e1)
      (effects (font (size 0.8 0.8) (thickness 0.15)) (justify mirror))
    )
    (fp_line (start -3 -2.75) (end 3 -2.75)
      (stroke (width 0.2) (type default)) (layer "B.SilkS") (tstamp 5da1f9aa-7cae-4b49-b523-a5f08b1df7b0))
    (fp_line (start -3 2.75) (end 3 2.75)
      (stroke (width 0.2) (type default)) (layer "B.SilkS") (tstamp de7f4ff9-4871-403d-996e-66ffb0d8deee))
    (fp_arc (start 0 0) (mid -0.75 0.75) (end -1.5 0)
      (stroke (width 0.2) (type default)) (layer "B.SilkS") (tstamp 824ffea6-6029-4405-8b68-1fa73a09fa87))
    (fp_arc (start 0 0) (mid 0.75 -0.75) (end 1.5 0)
      (stroke (width 0.2) (type default)) (layer "B.SilkS") (tstamp cacbdb82-8896-4c65-bb47-e6068f058384))
    (fp_rect (start -7.15 3.05) (end 7.15 -3.05)
      (stroke (width 0.05) (type default)) (fill none) (layer "B.CrtYd") (tstamp 7ccb5929-4167-4a1c-9e0c-2291869067d6))
    (fp_rect (start -6 2.25) (end 6 -2.25)
      (stroke (width 0.1) (type default)) (fill none) (layer "B.Fab") (tstamp a897bc26-fe1d-43eb-82eb-d08551f6e5f3))
    (fp_text user "${REFERENCE}" (at 0 -1.5 180 unlocked) (layer "B.Fab") (tstamp 7f10cdea-dfa8-4c0a-a37d-1e58967b4be7)
      (effects (font (size 0.8 0.8) (thickness 0.15)) (justify mirror))
    )
    (pad "1" smd roundrect (at -5.15 0) (size 3.5 5.6) (layers "B.Cu" "B.Paste" "B.Mask") (roundrect_rratio 0.25)
      (net 2 "/DRIVE_NEG") (pintype "passive") (thermal_bridge_angle 45) (tstamp a38f7b22-db04-4a31-8965-e644023b7b52))
    (pad "2" smd roundrect (at 5.15 0) (size 3.5 5.6) (layers "B.Cu" "B.Paste" "B.Mask") (roundrect_rratio 0.25)
      (net 4 "/TERM_NEG") (pintype "passive") (thermal_bridge_angle 45) (tstamp dde0f5b4-d250-46b9-9f38-019457178874))
  )

  (footprint "Capacitor_SMD:C_1206_3216Metric" (layer "B.Cu")
    (tstamp 6901f5c9-d4e8-4c7d-b293-50320d717a38)
    (at 77.366 71.049)
    (descr "Capacitor SMD 1206 (3216 Metric), square (rectangular) end terminal, IPC_7351 nominal, (Body size source: IPC-SM-782 page 76, https://www.pcb-3d.com/wordpress/wp-content/uploads/ipc-sm-782a_amendment_1_and_2.pdf), generated with kicad-footprint-generator")
    (tags "capacitor")
    (property "Sheetfile" "bananaboard.kicad_sch")
    (property "Sheetname" "")
    (property "ki_description" "Gas Discharge Tube with 2 Pins")
    (property "ki_keywords" "gdt")
    (path "/729d0632-0718-4111-9518-d741fb812d8a")
    (attr smd)
    (fp_text reference "GD1" (at 4.572 0) (layer "B.SilkS") (tstamp f243df01-ecba-4111-a6b0-5c3b6848600e)
      (effects (font (size 0.8 0.8) (thickness 0.15)) (justify mirror))
    )
    (fp_text value "150V" (at 0 -1.85) (layer "B.Fab") (tstamp 23813a9e-9969-4689-92ad-be5283c49d04)
      (effects (font (size 1 1) (thickness 0.15)) (justify mirror))
    )
    (fp_line (start -0.711252 -0.91) (end 0.711252 -0.91)
      (stroke (width 0.12) (type solid)) (layer "B.SilkS") (tstamp ba00e002-807e-426d-baf6-a17b9c023ee0))
    (fp_line (start -0.711252 0.91) (end 0.711252 0.91)
      (stroke (width 0.12) (type solid)) (layer "B.SilkS") (tstamp 891045b1-2a42-4a54-b561-0feae6e10f9b))
    (fp_line (start -2.3 -1.15) (end -2.3 1.15)
      (stroke (width 0.05) (type solid)) (layer "B.CrtYd") (tstamp ed7c87b7-b9c7-49f6-8edc-3c93cd681765))
    (fp_line (start -2.3 1.15) (end 2.3 1.15)
      (stroke (width 0.05) (type solid)) (layer "B.CrtYd") (tstamp 97c091a3-013a-4432-8946-4336cd21d830))
    (fp_line (start 2.3 -1.15) (end -2.3 -1.15)
      (stroke (width 0.05) (type solid)) (layer "B.CrtYd") (tstamp ca1112a5-e7fd-49b4-af46-0d2d46408630))
    (fp_line (start 2.3 1.15) (end 2.3 -1.15)
      (stroke (width 0.05) (type solid)) (layer "B.CrtYd") (tstamp b052bdb7-1516-4b3d-86d9-78b5f0647975))
    (fp_line (start -1.6 -0.8) (end -1.6 0.8)
      (stroke (width 0.1) (type solid)) (layer "B.Fab") (tstamp 36bd5676-c06f-4d4e-9e9c-728c0e2524a1))
    (fp_line (start -1.6 0.8) (end 1.6 0.8)
      (stroke (width 0.1) (type solid)) (layer "B.Fab") (tstamp f1643e70-8d77-4c54-8f65-095e013ee1ac))
    (fp_line (start 1.6 -0.8) (end -1.6 -0.8)
      (stroke (width 0.1) (type solid)) (layer "B.Fab") (tstamp af56e491-9e19-47e3-8ec7-99836e5fde21))
    (fp_line (start 1.6 0.8) (end 1.6 -0.8)
      (stroke (width 0.1) (type solid)) (layer "B.Fab") (tstamp b0bb49c5-cc1e-4ad6-b529-ed312f033c4a))
    (fp_text user "${REFERENCE}" (at 0 0) (layer "B.Fab") (tstamp 1ace30db-5f16-4844-a9b9-55743fe43d81)
      (effects (font (size 0.8 0.8) (thickness 0.12)) (justify mirror))
    )
    (pad "1" smd roundrect (at -1.475 0) (size 1.15 1.8) (layers "B.Cu" "B.Paste" "B.Mask") (roundrect_rratio 0.2173913043)
      (net 2 "/DRIVE_NEG") (pintype "passive") (tstamp 25904c14-d194-4aa5-82a6-bcc75f69c519))
    (pad "2" smd roundrect (at 1.475 0) (size 1.15 1.8) (layers "B.Cu" "B.Paste" "B.Mask") (roundrect_rratio 0.2173913043)
      (net 6 "GND") (pintype "passive") (tstamp 67d8542d-1a10-4665-a90a-8983bc7bc688))
    (model "${KICAD6_3DMODEL_DIR}/Capacitor_SMD.3dshapes/C_1206_3216Metric.wrl"
      (offset (xyz 0 0 0))
      (scale (xyz 1 1 1))
      (rotate (xyz 0 0 0))
    )
  )

  (footprint "Connector_Wire:SolderWire-2.5sqmm_1x01_D2.4mm_OD4.4mm" (layer "B.Cu")
    (tstamp 9e70a4e8-3ec9-4ea6-a43e-072b4ebd67d7)
    (at 90.066 69.525 180)
    (descr "Soldered wire connection, for a single 2.5 mm² wire, reinforced insulation, conductor diameter 2.4mm, outer diameter 4.4mm, size source Multi-Contact FLEXI-xV 2.5 (https://ec.staubli.com/AcroFiles/Catalogues/TM_Cab-Main-11014119_(en)_hi.pdf), bend radius 3 times outer diameter, generated with kicad-footprint-generator")
    (tags "connector wire 2.5sqmm")
    (property "Sheetfile" "bananaboard.kicad_sch")
    (property "Sheetname" "")
    (property "ki_description" "Generic connector, single row, 01x01, script generated (kicad-library-utils/schlib/autogen/connector/)")
    (property "ki_keywords" "connector")
    (path "/8525e28a-4b4b-43ba-8600-4586511f5fe2")
    (fp_text reference "J4" (at 0 3.556) (layer "B.SilkS") (tstamp 9f88e7c7-757c-4a4d-930a-ec2fca56a010)
      (effects (font (size 0.8 0.8) (thickness 0.15)) (justify mirror))
    )
    (fp_text value "GND" (at 0 -3.4) (layer "B.Fab") (tstamp 2f2f5619-d7b9-43ea-8ede-d57fe4dbb5be)
      (effects (font (size 1 1) (thickness 0.15)) (justify mirror))
    )
    (fp_line (start 2.95 2.7) (end -2.95 2.7)
      (stroke (width 0.05) (type solid)) (layer "B.CrtYd") (tstamp 4b0ba796-283c-4e8b-ba99-7f508f8934f5))
    (fp_line (start 2.95 -2.7) (end 2.95 2.7)
      (stroke (width 0.05) (type solid)) (layer "B.CrtYd") (tstamp ea77891e-95d0-4c76-bd3e-009ea9a712cd))
    (fp_line (start -2.95 2.7) (end -2.95 -2.7)
      (stroke (width 0.05) (type solid)) (layer "B.CrtYd") (tstamp 078cf54d-faff-4244-9208-b6cba7bacd74))
    (fp_line (start -2.95 -2.7) (end 2.95 -2.7)
      (stroke (width 0.05) (type solid)) (layer "B.CrtYd") (tstamp e320c177-d0e9-4f80-bb8c-eb4304b47228))
    (fp_circle (center 0 0) (end 2.2 0)
      (stroke (width 0.1) (type solid)) (fill none) (layer "B.Fab") (tstamp 26fae8c2-010b-4485-ac12-249036d9d821))
    (fp_text user "${REFERENCE}" (at 0 0) (layer "B.Fab") (tstamp c930b30d-dbf3-4239-a3de-c407d8c6fe08)
      (effects (font (size 1 1) (thickness 0.15)) (justify mirror))
    )
    (pad "1" thru_hole roundrect (at 0 0 180) (size 4.4 4.4) (drill 3) (layers "*.Cu" "*.Mask") (roundrect_rratio 0.05681795455)
      (net 6 "GND") (pinfunction "Pin_1") (pintype "passive") (tstamp 511de15a-7c50-4457-8d98-acb5f7c3ab4a))
    (model "${KICAD6_3DMODEL_DIR}/Connector_Wire.3dshapes/SolderWire-2.5sqmm_1x01_D2.4mm_OD4.4mm.wrl"
      (offset (xyz 0 0 0))
      (scale (xyz 1 1 1))
      (rotate (xyz 0 0 0))
    )
  )

  (footprint "Capacitor_THT:C_Rect_L18.0mm_W8.0mm_P15.00mm_FKS3_FKP3" (layer "B.Cu")
    (tstamp bf89d607-8112-428d-bd88-c390a60b5086)
    (at 56.665 62.025 -90)
    (descr "C, Rect series, Radial, pin pitch=15.00mm, , length*width=18*8mm^2, Capacitor, http://www.wima.com/EN/WIMA_FKS_3.pdf")
    (tags "C Rect series Radial pin pitch 15.00mm  length 18mm width 8mm Capacitor")
    (property "BOM" "CDE-105MMR250K")
    (property "Sheetfile" "bananaboard.kicad_sch")
    (property "Sheetname" "")
    (property "ki_description" "Capacitor")
    (property "ki_keywords" "capacitor")
    (path "/61451c14-a035-4f07-b150-d89b9cab16e2")
    (zone_connect 1)
    (attr through_hole)
    (fp_text reference "C1" (at -2.66 0) (layer "B.SilkS") (tstamp 9af3cecd-e6ea-4c44-97d1-44f328cf9962)
      (effects (font (size 0.8 0.8) (thickness 0.15)) (justify mirror))
    )
    (fp_text value "1µ" (at 7.5 -5.25 90) (layer "B.Fab") (tstamp 52f8528f-0dc7-4c9c-b860-3460b15cb6e7)
      (effects (font (size 1 1) (thickness 0.15)) (justify mirror))
    )
    (fp_line (start -1.62 4.12) (end 16.62 4.12)
      (stroke (width 0.12) (type solid)) (layer "B.SilkS") (tstamp 619c92a0-0f4e-494f-b79a-9c0a594aabee))
    (fp_line (start -1.62 4.12) (end -1.62 -4.12)
      (stroke (width 0.12) (type solid)) (layer "B.SilkS") (tstamp 73de9b8a-1bcd-4043-836d-2ea4c37be1e2))
    (fp_line (start 16.62 4.12) (end 16.62 -4.12)
      (stroke (width 0.12) (type solid)) (layer "B.SilkS") (tstamp 6546a32f-a6ee-418d-ba9a-481e1fbf034a))
    (fp_line (start -1.62 -4.12) (end 16.62 -4.12)
      (stroke (width 0.12) (type solid)) (layer "B.SilkS") (tstamp 7d21ef6a-5050-48ec-a663-b13ff0d240e8))
    (fp_line (start -1.75 4.25) (end -1.75 -4.25)
      (stroke (width 0.05) (type solid)) (layer "B.CrtYd") (tstamp a42bd80a-a686-4206-ac8d-8f316ed8dd6a))
    (fp_line (start 16.75 4.25) (end -1.75 4.25)
      (stroke (width 0.05) (type solid)) (layer "B.CrtYd") (tstamp 404f1799-130a-47c1-b442-dbd768d2a043))
    (fp_line (start -1.75 -4.25) (end 16.75 -4.25)
      (stroke (width 0.05) (type solid)) (layer "B.CrtYd") (tstamp 7b006f2c-a01b-488b-b145-ed42a56812fe))
    (fp_line (start 16.75 -4.25) (end 16.75 4.25)
      (stroke (width 0.05) (type solid)) (layer "B.CrtYd") (tstamp bc6acaf3-5a44-43ff-b263-77322c7196e7))
    (fp_line (start -1.5 4) (end -1.5 -4)
      (stroke (width 0.1) (type solid)) (layer "B.Fab") (tstamp 428f9cfb-e4c2-4ffd-ad3e-1b52863fb6b0))
    (fp_line (start 16.5 4) (end -1.5 4)
      (stroke (width 0.1) (type solid)) (layer "B.Fab") (tstamp 378a0687-0694-4ac4-8bb7-57875c9c9aa9))
    (fp_line (start -1.5 -4) (end 16.5 -4)
      (stroke (width 0.1) (type solid)) (layer "B.Fab") (tstamp 6029e338-41d4-45ff-8029-285412362b65))
    (fp_line (start 16.5 -4) (end 16.5 4)
      (stroke (width 0.1) (type solid)) (layer "B.Fab") (tstamp ad23ec11-2dd0-4112-aebf-108afa121d63))
    (fp_text user "${REFERENCE}" (at 7.5 0 90) (layer "B.Fab") (tstamp 8a51d844-8f07-4578-bfbf-100ffa9e0bc2)
      (effects (font (size 1 1) (thickness 0.15)) (justify mirror))
    )
    (pad "1" thru_hole circle (at 0 0 270) (size 2.4 2.4) (drill 1.2) (layers "*.Cu" "*.Mask")
      (net 1 "/DRIVE_POS") (pintype "passive") (tstamp a839340e-7d6e-4b80-b93a-ade83e58dcde))
    (pad "2" thru_hole circle (at 15 0 270) (size 2.4 2.4) (drill 1.2) (layers "*.Cu" "*.Mask")
      (net 2 "/DRIVE_NEG") (pintype "passive") (tstamp 599fa34a-56e3-40f6-814d-c8cb037bac76))
    (model "${KICAD6_3DMODEL_DIR}/Capacitor_THT.3dshapes/C_Rect_L18.0mm_W8.0mm_P15.00mm_FKS3_FKP3.wrl"
      (offset (xyz 0 0 0))
      (scale (xyz 1 1 1))
      (rotate (xyz 0 0 0))
    )
  )

  (footprint "Capacitor_THT:C_Disc_D9.0mm_W5.0mm_P5.00mm" (layer "B.Cu")
    (tstamp c80ca486-f12c-4436-b642-d53c13916615)
    (at 64.285 74.01 -90)
    (descr "C, Disc series, Radial, pin pitch=5.00mm, , diameter*width=9*5.0mm^2, Capacitor, http://www.vishay.com/docs/28535/vy2series.pdf")
    (tags "C Disc series Radial pin pitch 5.00mm  diameter 9mm width 5.0mm Capacitor")
    (property "Sheetfile" "bananaboard.kicad_sch")
    (property "Sheetname" "")
    (property "ki_description" "Resettable fuse, polymeric positive temperature coefficient")
    (property "ki_keywords" "resettable fuse PTC PPTC polyfuse polyswitch")
    (path "/883f0ba7-1980-42a3-a24d-1bda9392e1ec")
    (attr through_hole)
    (fp_text reference "F4" (at -3.215 1.905 180) (layer "B.SilkS") (tstamp c60b9b9a-7a22-4421-8d65-a29ba002f1d5)
      (effects (font (size 0.8 0.8) (thickness 0.15)) (justify mirror))
    )
    (fp_text value "80mA" (at 2.5 -3.75 90) (layer "B.Fab") (tstamp 4ed9e3d0-cb41-4d55-971c-3b0a94310313)
      (effects (font (size 1 1) (thickness 0.15)) (justify mirror))
    )
    (fp_line (start -2.12 2.62) (end 7.12 2.62)
      (stroke (width 0.12) (type solid)) (layer "B.SilkS") (tstamp 880b2589-3e8b-4a16-adf5-1809871020f6))
    (fp_line (start -2.12 2.62) (end -2.12 -2.62)
      (stroke (width 0.12) (type solid)) (layer "B.SilkS") (tstamp 7b0cca10-b93f-43b0-b20e-3ce68e756f5d))
    (fp_line (start 7.12 2.62) (end 7.12 -2.62)
      (stroke (width 0.12) (type solid)) (layer "B.SilkS") (tstamp 84652ece-4e50-4711-a2e0-e5e5fe436978))
    (fp_line (start -2.12 -2.62) (end 7.12 -2.62)
      (stroke (width 0.12) (type solid)) (layer "B.SilkS") (tstamp 9b69e37b-a28a-4c8f-8258-6ed9b2e65393))
    (fp_line (start -2.25 2.75) (end -2.25 -2.75)
      (stroke (width 0.05) (type solid)) (layer "B.CrtYd") (tstamp d7155a9e-2eb9-46ef-aa91-f1bd5e41d285))
    (fp_line (start 7.25 2.75) (end -2.25 2.75)
      (stroke (width 0.05) (type solid)) (layer "B.CrtYd") (tstamp 0840c129-6af0-416e-a8a5-8595184b0af9))
    (fp_line (start -2.25 -2.75) (end 7.25 -2.75)
      (stroke (width 0.05) (type solid)) (layer "B.CrtYd") (tstamp eb350d14-3495-432a-be20-b2de239924be))
    (fp_line (start 7.25 -2.75) (end 7.25 2.75)
      (stroke (width 0.05) (type solid)) (layer "B.CrtYd") (tstamp 6bb2b18b-7542-49c3-a3df-7005993c79e3))
    (fp_line (start -2 2.5) (end -2 -2.5)
      (stroke (width 0.1) (type solid)) (layer "B.Fab") (tstamp f310632a-1864-469e-8503-e44ce1be16f1))
    (fp_line (start 7 2.5) (end -2 2.5)
      (stroke (width 0.1) (type solid)) (layer "B.Fab") (tstamp 4ab21cf2-eee9-41bf-91af-6f4d93eea081))
    (fp_line (start -2 -2.5) (end 7 -2.5)
      (stroke (width 0.1) (type solid)) (layer "B.Fab") (tstamp 1224d7fa-4e22-48a4-aa9f-386be522747e))
    (fp_line (start 7 -2.5) (end 7 2.5)
      (stroke (width 0.1) (type solid)) (layer "B.Fab") (tstamp e1143919-eedc-46cf-bdc8-1b165c7a0f75))
    (fp_text user "${REFERENCE}" (at 2.5 0 90) (layer "B.Fab") (tstamp 831c31e7-e20d-46b9-b57a-69780ec50e82)
      (effects (font (size 1 1) (thickness 0.15)) (justify mirror))
    )
    (pad "1" thru_hole circle (at 0 0 270) (size 2 2) (drill 1) (layers "*.Cu" "*.Mask")
      (net 7 "/SENSE_NEG") (pintype "passive") (tstamp 62da11ca-1cb8-4827-a332-47d460099bed))
    (pad "2" thru_hole circle (at 5 0 270) (size 2 2) (drill 1) (layers "*.Cu" "*.Mask")
      (net 4 "/TERM_NEG") (pintype "passive") (tstamp 02c72642-bbe6-4a7c-a750-666c1f9bbc95))
    (model "${KICAD6_3DMODEL_DIR}/Capacitor_THT.3dshapes/C_Disc_D9.0mm_W5.0mm_P5.00mm.wrl"
      (offset (xyz 0 0 0))
      (scale (xyz 1 1 1))
      (rotate (xyz 0 0 0))
    )
  )

  (footprint "MountingHole:MountingHole_6.4mm_M6_Pad_Via" (layer "B.Cu")
    (tstamp e207e656-bb9a-4818-9145-35327805a123)
    (at 81.43 60 180)
    (descr "Mounting Hole 6.4mm, M6")
    (tags "mounting hole 6.4mm m6")
    (property "Sheetfile" "bananaboard.kicad_sch")
    (property "Sheetname" "")
    (property "ki_description" "Generic connector, single row, 01x01, script generated (kicad-library-utils/schlib/autogen/connector/)")
    (property "ki_keywords" "connector")
    (path "/f51d292b-649f-4bda-889d-fce6795b2b2e")
    (fp_text reference "J2" (at -8.89 1.27) (layer "B.SilkS") (tstamp 26a282ad-f6aa-48ef-8588-19cc005a46ca)
      (effects (font (size 0.8 0.8) (thickness 0.15)) (justify mirror))
    )
    (fp_text value "POS" (at 0 -7.4) (layer "B.Fab") (tstamp 42344592-c45a-401b-84ab-888c810303eb)
      (effects (font (size 1 1) (thickness 0.15)) (justify mirror))
    )
    (fp_circle (center 0 0) (end 6.4 0)
      (stroke (width 0.15) (type solid)) (fill none) (layer "Cmts.User") (tstamp 1ea04acf-4406-47ba-a4e3-f24375d2907f))
    (fp_circle (center 0 0) (end 6.65 0)
      (stroke (width 0.05) (type solid)) (fill none) (layer "B.CrtYd") (tstamp d49f95a1-e5d7-4ef5-8f12-bc13a752ea6a))
    (fp_text user "${REFERENCE}" (at 0 0) (layer "B.Fab") (tstamp c940f772-f593-4a04-ac47-ae42cf44bb77)
      (effects (font (size 1 1) (thickness 0.15)) (justify mirror))
    )
    (pad "1" thru_hole circle (at -4.8 0 180) (size 0.9 0.9) (drill 0.6) (layers "*.Cu" "*.Mask")
      (net 3 "/TERM_POS") (pinfunction "Pin_1") (pintype "passive") (tstamp fc3eb390-e724-493c-ad34-b48a695e0abe))
    (pad "1" thru_hole circle (at -3.394113 -3.394113 180) (size 0.9 0.9) (drill 0.6) (layers "*.Cu" "*.Mask")
      (net 3 "/TERM_POS") (pinfunction "Pin_1") (pintype "passive") (tstamp dd938bdb-01b9-4df0-b942-ac1b2f7a9ec5))
    (pad "1" thru_hole circle (at -3.394113 3.394113 180) (size 0.9 0.9) (drill 0.6) (layers "*.Cu" "*.Mask")
      (net 3 "/TERM_POS") (pinfunction "Pin_1") (pintype "passive") (tstamp 1b3dd7da-5de0-4e25-8a5e-cc6b1b8c5253))
    (pad "1" thru_hole circle (at 0 -4.8 180) (size 0.9 0.9) (drill 0.6) (layers "*.Cu" "*.Mask")
      (net 3 "/TERM_POS") (pinfunction "Pin_1") (pintype "passive") (tstamp e5a8c357-9a9b-4c32-b9ae-4e425c2f2b64))
    (pad "1" thru_hole circle (at 0 0 180) (size 12.8 12.8) (drill 6.4) (layers "*.Cu" "*.Mask")
      (net 3 "/TERM_POS") (pinfunction "Pin_1") (pintype "passive") (tstamp ec21400e-5d6c-492a-b7c8-78b4944c066a))
    (pad "1" thru_hole circle (at 0 4.8 180) (size 0.9 0.9) (drill 0.6) (layers "*.Cu" "*.Mask")
      (net 3 "/TERM_POS") (pinfunction "Pin_1") (pintype "passive") (tstamp 8771f821-99f0-4eb4-95b8-eba134c3f4fc))
    (pad "1" thru_hole circle (at 3.394113 -3.394113 180) (size 0.9 0.9) (drill 0.6) (layers "*.Cu" "*.Mask")
      (net 3 "/TERM_POS") (pinfunction "Pin_1") (pintype "passive") (tstamp 3b87b651-c0d0-4818-b107-1d14af30216e))
    (pad "1" thru_hole circle (at 3.394113 3.394113 180) (size 0.9 0.9) (drill 0.6) (layers "*.Cu" "*.Mask")
      (net 3 "/TERM_POS") (pinfunction "Pin_1") (pintype "passive") (tstamp e1eba6e7-8b0d-4c37-b2c5-ee128fd9bd87))
    (pad "1" thru_hole circle (at 4.8 0 180) (size 0.9 0.9) (drill 0.6) (layers "*.Cu" "*.Mask")
      (net 3 "/TERM_POS") (pinfunction "Pin_1") (pintype "passive") (tstamp 407f1d75-34dd-44c6-85a6-b6964004f0d6))
  )

  (footprint "MountingHole:MountingHole_6.4mm_M6_Pad_Via" (layer "B.Cu")
    (tstamp f8e91e32-15ee-4b82-9b02-8c1bfbf8a9ee)
    (at 81.43 79.05 180)
    (descr "Mounting Hole 6.4mm, M6")
    (tags "mounting hole 6.4mm m6")
    (property "Sheetfile" "bananaboard.kicad_sch")
    (property "Sheetname" "")
    (property "ki_description" "Generic connector, single row, 01x01, script generated (kicad-library-utils/schlib/autogen/connector/)")
    (property "ki_keywords" "connector")
    (path "/1d759a3b-eaa1-40b5-af1a-0e97c9080a02")
    (fp_text reference "J3" (at -8.89 0.635) (layer "B.SilkS") (tstamp 182d1ff5-a208-4861-9b85-6f896c65f9e3)
      (effects (font (size 0.8 0.8) (thickness 0.15)) (justify mirror))
    )
    (fp_text value "NEG" (at 0 -7.4) (layer "B.Fab") (tstamp f55984d4-df1c-4386-8dae-87506e02ea4c)
      (effects (font (size 1 1) (thickness 0.15)) (justify mirror))
    )
    (fp_circle (center 0 0) (end 6.4 0)
      (stroke (width 0.15) (type solid)) (fill none) (layer "Cmts.User") (tstamp b23d1872-4fbb-4552-b33c-e29f1a345ded))
    (fp_circle (center 0 0) (end 6.65 0)
      (stroke (width 0.05) (type solid)) (fill none) (layer "B.CrtYd") (tstamp ded43f36-4b1b-48c2-97d5-acbb18a8d616))
    (fp_text user "${REFERENCE}" (at 0 0) (layer "B.Fab") (tstamp 6b61356e-1c06-4380-a4f2-9a8a1c48a945)
      (effects (font (size 1 1) (thickness 0.15)) (justify mirror))
    )
    (pad "1" thru_hole circle (at -4.8 0 180) (size 0.9 0.9) (drill 0.6) (layers "*.Cu" "*.Mask")
      (net 4 "/TERM_NEG") (pinfunction "Pin_1") (pintype "passive") (tstamp a2e3278d-6f21-47f2-ae42-06cc69d8bf1c))
    (pad "1" thru_hole circle (at -3.394113 -3.394113 180) (size 0.9 0.9) (drill 0.6) (layers "*.Cu" "*.Mask")
      (net 4 "/TERM_NEG") (pinfunction "Pin_1") (pintype "passive") (tstamp be5ef314-d26b-40aa-adf8-ec7428fa8e6f))
    (pad "1" thru_hole circle (at -3.394113 3.394113 180) (size 0.9 0.9) (drill 0.6) (layers "*.Cu" "*.Mask")
      (net 4 "/TERM_NEG") (pinfunction "Pin_1") (pintype "passive") (tstamp ce1bf5f8-4a8a-4312-965d-ecbde30f0d86))
    (pad "1" thru_hole circle (at 0 -4.8 180) (size 0.9 0.9) (drill 0.6) (layers "*.Cu" "*.Mask")
      (net 4 "/TERM_NEG") (pinfunction "Pin_1") (pintype "passive") (tstamp 30878257-324b-43c2-a7a9-aecc52fb2afc))
    (pad "1" thru_hole circle (at 0 0 180) (size 12.8 12.8) (drill 6.4) (layers "*.Cu" "*.Mask")
      (net 4 "/TERM_NEG") (pinfunction "Pin_1") (pintype "passive") (tstamp 8344e9ed-669c-43f8-b64f-2452e9840d3a))
    (pad "1" thru_hole circle (at 0 4.8 180) (size 0.9 0.9) (drill 0.6) (layers "*.Cu" "*.Mask")
      (net 4 "/TERM_NEG") (pinfunction "Pin_1") (pintype "passive") (tstamp e2c10e94-66fb-44f6-b82a-306ef9fd0076))
    (pad "1" thru_hole circle (at 3.394113 -3.394113 180) (size 0.9 0.9) (drill 0.6) (layers "*.Cu" "*.Mask")
      (net 4 "/TERM_NEG") (pinfunction "Pin_1") (pintype "passive") (tstamp 03b6bef8-093c-4c3e-bf63-8477c41c07d0))
    (pad "1" thru_hole circle (at 3.394113 3.394113 180) (size 0.9 0.9) (drill 0.6) (layers "*.Cu" "*.Mask")
      (net 4 "/TERM_NEG") (pinfunction "Pin_1") (pintype "passive") (tstamp f4fc009e-9845-488d-8389-017c56ecf8b2))
    (pad "1" thru_hole circle (at 4.8 0 180) (size 0.9 0.9) (drill 0.6) (layers "*.Cu" "*.Mask")
      (net 4 "/TERM_NEG") (pinfunction "Pin_1") (pintype "passive") (tstamp ee50e89b-86bd-4a75-a7ba-bbb1fc6408f3))
  )

  (gr_rect (start 52.22 50.475) (end 92.86 88.575)
    (stroke (width 0.1) (type default)) (fill none) (layer "Edge.Cuts") (tstamp 597bc3ba-95cc-42a9-bf46-471cfe7da856))
  (gr_text "+" (at 90.32 61.905) (layer "B.SilkS") (tstamp 014ae1d5-281d-405e-b60a-73f4ecb7a66e)
    (effects (font (size 1 1) (thickness 0.15)) (justify bottom mirror))
  )
  (gr_text "PD2530\nBANANA BOARD R${REVISION}" (at 92.352 88.067) (layer "B.SilkS") (tstamp 3bd0aab3-df2a-429f-8780-b21ba072378e)
    (effects (font (size 1 1) (thickness 0.15)) (justify left bottom mirror))
  )
  (gr_text "-" (at 90.32 80.955) (layer "B.SilkS") (tstamp 4874091f-86cb-4fd0-bebf-336de97095b3)
    (effects (font (size 1 1) (thickness 0.15)) (justify bottom mirror))
  )
  (gr_text "GROUND" (at 90.066 73.589) (layer "B.SilkS") (tstamp 68a890a3-173b-43da-a76d-469bd70f80e2)
    (effects (font (size 0.8 0.8) (thickness 0.15) bold) (justify bottom mirror))
  )
  (gr_text "5A 250V" (at 56.538 86.289) (layer "B.SilkS") (tstamp 79f580f4-f627-4963-a776-9fe502be1b86)
    (effects (font (size 0.8 0.8) (thickness 0.15) bold) (justify bottom mirror))
  )
  (gr_text "5A 250V" (at 56.538 55.555) (layer "B.SilkS") (tstamp 87d29564-86ff-4925-87ac-00d1c52ed06f)
    (effects (font (size 0.8 0.8) (thickness 0.15) bold) (justify bottom mirror))
  )
  (gr_text "1.6mm FR4, RoHS HASL surface finish\nAny soldermask and silkscreen color" (at 52.22 100.005) (layer "Dwgs.User") (tstamp 00d7b8e4-24aa-4911-a8ac-3819bc3f49b0)
    (effects (font (size 1 1) (thickness 0.15)) (justify left bottom))
  )
  (dimension (type aligned) (layer "Dwgs.User") (tstamp 174bc332-4453-4b68-856a-4f344ab9d36c)
    (pts (xy 52.22 88.575) (xy 92.86 88.575))
    (height 3.95)
    (gr_text "1.600 in" (at 72.54 91.375) (layer "Dwgs.User") (tstamp 174bc332-4453-4b68-856a-4f344ab9d36c)
      (effects (font (size 1 1) (thickness 0.15)))
    )
    (format (prefix "") (suffix "") (units 0) (units_format 1) (precision 3))
    (style (thickness 0.15) (arrow_length 1.27) (text_position_mode 0) (extension_height 0.58642) (extension_offset 0.5) keep_text_aligned)
  )
  (dimension (type aligned) (layer "Dwgs.User") (tstamp 4e0d66f9-7c1d-4cc7-bcac-0634f53afdce)
    (pts (xy 92.86 50.475) (xy 92.86 88.575))
    (height -4.57)
    (gr_text "1.500 in" (at 96.28 69.525 90) (layer "Dwgs.User") (tstamp 4e0d66f9-7c1d-4cc7-bcac-0634f53afdce)
      (effects (font (size 1 1) (thickness 0.15)))
    )
    (format (prefix "") (suffix "") (units 0) (units_format 1) (precision 3))
    (style (thickness 0.15) (arrow_length 1.27) (text_position_mode 0) (extension_height 0.58642) (extension_offset 0.5) keep_text_aligned)
  )

  (segment (start 64.285 60.04) (end 68.631443 55.693557) (width 1) (layer "F.Cu") (net 3) (tstamp 03d44e92-8bb3-4268-a94f-bf8ee1b32f77))
  (segment (start 78.319275 56.889274) (end 81.43 60) (width 1) (layer "F.Cu") (net 3) (tstamp 7eb8e9a5-df6d-4f8d-b7f4-185bbf72d4e4))
  (arc (start 68.631443 55.693557) (mid 70.191632 54.651073) (end 72.032 54.285) (width 1) (layer "F.Cu") (net 3) (tstamp 130415a1-0faa-4f5b-9cea-ca0796fa7040))
  (arc (start 72.032 54.285) (mid 75.434648 54.961829) (end 78.319275 56.889274) (width 1) (layer "F.Cu") (net 3) (tstamp 145567a1-1448-4476-8a74-e29a8ec47de6))
  (segment (start 78.319275 82.160726) (end 81.43 79.05) (width 1) (layer "F.Cu") (net 4) (tstamp 5f395572-3f67-44c2-9044-a9dd9558cba6))
  (segment (start 64.285 79.01) (end 68.631443 83.356443) (width 1) (layer "F.Cu") (net 4) (tstamp e9869109-e816-4363-a37e-9bbe5635850f))
  (arc (start 68.631443 83.356443) (mid 70.191631 84.398928) (end 72.032 84.765) (width 1) (layer "F.Cu") (net 4) (tstamp cb3ed4b9-f3dd-4545-b97a-d098424e0e0d))
  (arc (start 72.032 84.765) (mid 75.434648 84.088171) (end 78.319275 82.160726) (width 1) (layer "F.Cu") (net 4) (tstamp ec28c09e-2216-497f-bba4-a55840fe584f))
  (segment (start 65.598791 66.353791) (end 64.285 65.04) (width 1) (layer "F.Cu") (net 5) (tstamp 7fabe118-f836-4ac2-aee3-c16ca290cc2e))
  (arc (start 70.237 68.275) (mid 67.726819 67.775694) (end 65.598791 66.353791) (width 1) (layer "F.Cu") (net 5) (tstamp 8e543a08-c19f-4532-926a-db7a1e5917cb))
  (segment (start 65.598791 72.696209) (end 64.285 74.01) (width 1) (layer "F.Cu") (net 7) (tstamp 776e73d1-ce13-4fce-a627-3e1d04aaa47c))
  (arc (start 70.237 70.775) (mid 67.726819 71.274306) (end 65.598791 72.696209) (width 1) (layer "F.Cu") (net 7) (tstamp 5b256abe-7c58-4157-b075-3b2181b70b6a))

  (zone (net 1) (net_name "/DRIVE_POS") (layer "B.Cu") (tstamp 1d24dc04-5d64-455c-8381-ef2ae4f98e9c) (hatch edge 0.508)
    (connect_pads yes (clearance 1.25))
    (min_thickness 0.254) (filled_areas_thickness no)
    (fill yes (thermal_gap 0.508) (thermal_bridge_width 0.508) (island_removal_mode 2) (island_area_min 9.999999))
    (polygon
      (pts
        (xy 52.22 50.475)
        (xy 52.22 66.731)
        (xy 71.778 66.731)
        (xy 74.318 69.017)
        (xy 76.858 69.017)
        (xy 76.858 66.223)
        (xy 66.19 50.475)
      )
    )
    (filled_polygon
      (layer "B.Cu")
      (pts
        (xy 66.182547 50.49019)
        (xy 66.227821 50.530831)
        (xy 66.275694 50.6015)
        (xy 67.470237 52.364873)
        (xy 67.490619 52.417486)
        (xy 67.4923 52.429102)
        (xy 67.492303 52.42912)
        (xy 67.492627 52.431356)
        (xy 67.493114 52.433579)
        (xy 67.493116 52.43359)
        (xy 67.530247 52.603094)
        (xy 67.530249 52.603102)
        (xy 67.531217 52.607519)
        (xy 67.594649 52.776336)
        (xy 67.609743 52.809135)
        (xy 67.610828 52.811106)
        (xy 67.610833 52.811116)
        (xy 67.695622 52.965155)
        (xy 67.695632 52.965173)
        (xy 67.69671 52.96713)
        (xy 67.697939 52.969026)
        (xy 68.954233 54.907308)
        (xy 68.969327 54.940107)
        (xy 68.9745 54.975839)
        (xy 68.9745 56.30689)
        (xy 68.974581 56.308477)
        (xy 68.974582 56.308502)
        (xy 68.980509 56.424108)
        (xy 68.980702 56.42787)
        (xy 69.030108 56.714419)
        (xy 69.118072 56.991571)
        (xy 69.242956 57.254164)
        (xy 69.245311 57.257755)
        (xy 69.245317 57.257765)
        (xy 69.367186 57.443568)
        (xy 69.402433 57.497306)
        (xy 69.405255 57.500542)
        (xy 69.40526 57.500549)
        (xy 69.590712 57.713234)
        (xy 69.593532 57.716468)
        (xy 69.596765 57.719287)
        (xy 69.80945 57.904739)
        (xy 69.809455 57.904743)
        (xy 69.812694 57.907567)
        (xy 69.937603 57.989495)
        (xy 70.052234 58.064682)
        (xy 70.052239 58.064685)
        (xy 70.055836 58.067044)
        (xy 70.318429 58.191928)
        (xy 70.595581 58.279892)
        (xy 70.88213 58.329298)
        (xy 71.00311 58.3355)
        (xy 71.107724 58.3355)
        (xy 71.167895 58.350796)
        (xy 71.213457 58.392969)
        (xy 76.528115 66.592727)
        (xy 76.528127 66.592745)
        (xy 76.529195 66.594392)
        (xy 76.566478 66.644749)
        (xy 76.605225 66.697085)
        (xy 76.62212 66.719904)
        (xy 76.624829 66.722744)
        (xy 76.624834 66.72275)
        (xy 76.671377 66.771545)
        (xy 76.703394 66.832056)
        (xy 76.699043 66.900377)
        (xy 76.67714 66.962549)
        (xy 76.674713 66.969439)
        (xy 76.674042 66.972021)
        (xy 76.674038 66.972036)
        (xy 76.660144 67.025549)
        (xy 76.658796 67.03074)
        (xy 76.658421 67.032679)
        (xy 76.65842 67.032688)
        (xy 76.629372 67.183296)
        (xy 76.62937 67.183307)
        (xy 76.628615 67.187225)
        (xy 76.628361 67.191217)
        (xy 76.628361 67.191218)
        (xy 76.618625 67.344291)
        (xy 76.618624 67.344321)
        (xy 76.6185 67.346272)
        (xy 76.6185 67.348257)
        (xy 76.6185 68.750311)
        (xy 76.601293 68.813873)
        (xy 76.554372 68.860074)
        (xy 76.490551 68.876296)
        (xy 76.487819 68.876253)
        (xy 76.487789 68.876253)
        (xy 76.486088 68.876227)
        (xy 76.484369 68.876295)
        (xy 76.484359 68.876296)
        (xy 76.350296 68.881668)
        (xy 76.350279 68.881669)
        (xy 76.346801 68.881809)
        (xy 76.263052 68.894564)
        (xy 76.244083 68.896)
        (xy 75.553656 68.896)
        (xy 75.527798 68.893318)
        (xy 75.506075 68.888763)
        (xy 75.486133 68.882826)
        (xy 75.459761 68.872535)
        (xy 75.459717 68.872519)
        (xy 75.45841 68.872009)
        (xy 75.457068 68.871556)
        (xy 75.457046 68.871548)
        (xy 75.350571 68.835609)
        (xy 75.347804 68.834675)
        (xy 75.333762 68.831349)
        (xy 75.235635 68.808113)
        (xy 75.235598 68.808105)
        (xy 75.234208 68.807776)
        (xy 75.232793 68.807509)
        (xy 75.232785 68.807508)
        (xy 75.189839 68.799426)
        (xy 75.189819 68.799422)
        (xy 75.188407 68.799157)
        (xy 75.186973 68.798955)
        (xy 75.186957 68.798953)
        (xy 75.075705 68.783331)
        (xy 75.07569 68.783329)
        (xy 75.072816 68.782926)
        (xy 75.069908 68.78279)
        (xy 75.069901 68.78279)
        (xy 74.957672 68.777567)
        (xy 74.957643 68.777566)
        (xy 74.956218 68.7775)
        (xy 74.366351 68.7775)
        (xy 74.36495 68.777564)
        (xy 74.364915 68.777565)
        (xy 74.254382 68.782632)
        (xy 74.254381 68.782632)
        (xy 74.251503 68.782764)
        (xy 74.248662 68.783156)
        (xy 74.24866 68.783157)
        (xy 74.141558 68.797967)
        (xy 74.08734 68.793611)
        (xy 74.04001 68.766809)
        (xy 71.918581 66.857522)
        (xy 71.905138 66.843392)
        (xy 71.900708 66.837947)
        (xy 71.690698 66.641811)
        (xy 71.687182 66.639329)
        (xy 71.687177 66.639325)
        (xy 71.459463 66.478588)
        (xy 71.459456 66.478584)
        (xy 71.455936 66.476099)
        (xy 71.452106 66.474114)
        (xy 71.452102 66.474112)
        (xy 71.20462 66.345877)
        (xy 71.200797 66.343896)
        (xy 71.196751 66.342458)
        (xy 71.196744 66.342455)
        (xy 70.934079 66.249104)
        (xy 70.934074 66.249102)
        (xy 70.930032 66.247666)
        (xy 70.875755 66.236387)
        (xy 70.652897 66.190077)
        (xy 70.652896 66.190076)
        (xy 70.648686 66.189202)
        (xy 70.644392 66.188908)
        (xy 70.64439 66.188908)
        (xy 70.435891 66.174646)
        (xy 70.435881 66.174645)
        (xy 70.433752 66.1745)
        (xy 70.040248 66.1745)
        (xy 70.038119 66.174645)
        (xy 70.038108 66.174646)
        (xy 69.829609 66.188908)
        (xy 69.829605 66.188908)
        (xy 69.825314 66.189202)
        (xy 69.821105 66.190076)
        (xy 69.821102 66.190077)
        (xy 69.548173 66.246792)
        (xy 69.54817 66.246792)
        (xy 69.543968 66.247666)
        (xy 69.539928 66.249101)
        (xy 69.53992 66.249104)
        (xy 69.277255 66.342455)
        (xy 69.277243 66.34246)
        (xy 69.273203 66.343896)
        (xy 69.269384 66.345874)
        (xy 69.269379 66.345877)
        (xy 69.021897 66.474112)
        (xy 69.021887 66.474118)
        (xy 69.018064 66.476099)
        (xy 69.014549 66.478579)
        (xy 69.014536 66.478588)
        (xy 68.786822 66.639325)
        (xy 68.786809 66.639335)
        (xy 68.783302 66.641811)
        (xy 68.780164 66.644741)
        (xy 68.780155 66.644749)
        (xy 68.724118 66.697085)
        (xy 68.68434 66.722215)
        (xy 68.638116 66.731)
        (xy 66.073445 66.731)
        (xy 66.017717 66.718006)
        (xy 65.973482 66.681704)
        (xy 65.949866 66.629581)
        (xy 65.951738 66.572389)
        (xy 65.978713 66.521922)
        (xy 65.985999 66.513613)
        (xy 66.074273 66.412957)
        (xy 66.238172 66.167665)
        (xy 66.368652 65.903077)
        (xy 66.463481 65.623722)
        (xy 66.521034 65.33438)
        (xy 66.540329 65.04)
        (xy 66.521034 64.74562)
        (xy 66.463481 64.456278)
        (xy 66.368652 64.176923)
        (xy 66.238172 63.912336)
        (xy 66.074273 63.667043)
        (xy 65.879758 63.445242)
        (xy 65.657957 63.250727)
        (xy 65.412665 63.086828)
        (xy 65.408965 63.085003)
        (xy 65.408961 63.085001)
        (xy 65.207725 62.985763)
        (xy 65.148077 62.956348)
        (xy 65.144177 62.955024)
        (xy 64.872632 62.862846)
        (xy 64.872628 62.862844)
        (xy 64.868722 62.861519)
        (xy 64.864674 62.860713)
        (xy 64.864671 62.860713)
        (xy 64.583423 62.80477)
        (xy 64.58342 62.804769)
        (xy 64.57938 62.803966)
        (xy 64.575269 62.803696)
        (xy 64.575265 62.803696)
        (xy 64.289119 62.784941)
        (xy 64.285 62.784671)
        (xy 64.280881 62.784941)
        (xy 63.994734 62.803696)
        (xy 63.994728 62.803696)
        (xy 63.99062 62.803966)
        (xy 63.986581 62.804769)
        (xy 63.986576 62.80477)
        (xy 63.705328 62.860713)
        (xy 63.705321 62.860714)
        (xy 63.701278 62.861519)
        (xy 63.697375 62.862843)
        (xy 63.697367 62.862846)
        (xy 63.425822 62.955024)
        (xy 63.425815 62.955026)
        (xy 63.421923 62.956348)
        (xy 63.418242 62.958162)
        (xy 63.418228 62.958169)
        (xy 63.161039 63.085001)
        (xy 63.161028 63.085007)
        (xy 63.157336 63.086828)
        (xy 63.153907 63.089118)
        (xy 63.153902 63.089122)
        (xy 62.915473 63.248434)
        (xy 62.915461 63.248442)
        (xy 62.912043 63.250727)
        (xy 62.908948 63.25344)
        (xy 62.908943 63.253445)
        (xy 62.69333 63.442533)
        (xy 62.693322 63.44254)
        (xy 62.690242 63.445242)
        (xy 62.68754 63.448322)
        (xy 62.687533 63.44833)
        (xy 62.498445 63.663943)
        (xy 62.49844 63.663948)
        (xy 62.495727 63.667043)
        (xy 62.493442 63.670461)
        (xy 62.493434 63.670473)
        (xy 62.334122 63.908902)
        (xy 62.334118 63.908907)
        (xy 62.331828 63.912336)
        (xy 62.330007 63.916028)
        (xy 62.330001 63.916039)
        (xy 62.203169 64.173228)
        (xy 62.203162 64.173242)
        (xy 62.201348 64.176923)
        (xy 62.200026 64.180815)
        (xy 62.200024 64.180822)
        (xy 62.107846 64.452367)
        (xy 62.107843 64.452375)
        (xy 62.106519 64.456278)
        (xy 62.048966 64.74562)
        (xy 62.029671 65.04)
        (xy 62.048966 65.33438)
        (xy 62.106519 65.623722)
        (xy 62.201348 65.903077)
        (xy 62.331828 66.167665)
        (xy 62.495727 66.412957)
        (xy 62.498445 66.416056)
        (xy 62.591287 66.521922)
        (xy 62.618262 66.572389)
        (xy 62.620134 66.629581)
        (xy 62.596518 66.681704)
        (xy 62.552283 66.718006)
        (xy 62.496555 66.731)
        (xy 52.3465 66.731)
        (xy 52.2835 66.714119)
        (xy 52.237381 66.668)
        (xy 52.2205 66.605)
        (xy 52.2205 63.399431)
        (xy 55.653236 63.399431)
        (xy 55.660902 63.407615)
        (xy 55.804711 63.505663)
        (xy 55.812855 63.510365)
        (xy 56.034998 63.617343)
        (xy 56.043754 63.62078)
        (xy 56.279367 63.693457)
        (xy 56.288524 63.695547)
        (xy 56.532341 63.732297)
        (xy 56.541719 63.733)
        (xy 56.788281 63.733)
        (xy 56.797658 63.732297)
        (xy 57.041475 63.695547)
        (xy 57.050632 63.693457)
        (xy 57.286245 63.62078)
        (xy 57.295001 63.617343)
        (xy 57.517145 63.510365)
        (xy 57.525289 63.505664)
        (xy 57.669096 63.407615)
        (xy 57.676763 63.39943)
        (xy 57.67075 63.38996)
        (xy 56.676729 62.395939)
        (xy 56.665 62.389167)
        (xy 56.65327 62.395939)
        (xy 55.65925 63.389958)
        (xy 55.653236 63.399431)
        (xy 52.2205 63.399431)
        (xy 52.2205 62.029697)
        (xy 54.952563 62.029697)
        (xy 54.970988 62.275572)
        (xy 54.972391 62.284879)
        (xy 55.027255 62.525253)
        (xy 55.030029 62.534246)
        (xy 55.120106 62.763758)
        (xy 55.124189 62.772238)
        (xy 55.247471 62.985767)
        (xy 55.252762 62.993528)
        (xy 55.27916 63.026631)
        (xy 55.290577 63.034731)
        (xy 55.302829 63.027959)
        (xy 56.29406 62.036729)
        (xy 56.300832 62.025)
        (xy 57.029167 62.025)
        (xy 57.035939 62.036729)
        (xy 58.027169 63.027959)
        (xy 58.039422 63.034731)
        (xy 58.050838 63.026631)
        (xy 58.077234 62.993533)
        (xy 58.082531 62.985763)
        (xy 58.20581 62.772238)
        (xy 58.209893 62.763758)
        (xy 58.29997 62.534246)
        (xy 58.302744 62.525253)
        (xy 58.357608 62.284879)
        (xy 58.359011 62.275572)
        (xy 58.377437 62.029697)
        (xy 58.377437 62.020303)
        (xy 58.359011 61.774427)
        (xy 58.357608 61.76512)
        (xy 58.302744 61.524746)
        (xy 58.29997 61.515753)
        (xy 58.209893 61.286241)
        (xy 58.20581 61.277761)
        (xy 58.082528 61.064232)
        (xy 58.077237 61.056471)
        (xy 58.050838 61.023367)
        (xy 58.039421 61.015267)
        (xy 58.027169 61.022039)
        (xy 57.035939 62.01327)
        (xy 57.029167 62.025)
        (xy 56.300832 62.025)
        (xy 56.29406 62.01327)
        (xy 55.30283 61.02204)
        (xy 55.290577 61.015268)
        (xy 55.279159 61.023369)
        (xy 55.252771 61.05646)
        (xy 55.247466 61.06424)
        (xy 55.124189 61.277761)
        (xy 55.120106 61.286241)
        (xy 55.030029 61.515753)
        (xy 55.027255 61.524746)
        (xy 54.972391 61.76512)
        (xy 54.970988 61.774427)
        (xy 54.952563 62.020303)
        (xy 54.952563 62.029697)
        (xy 52.2205 62.029697)
        (xy 52.2205 60.650568)
        (xy 55.653236 60.650568)
        (xy 55.65925 60.66004)
        (xy 56.65327 61.65406)
        (xy 56.665 61.660832)
        (xy 56.676729 61.65406)
        (xy 57.670748 60.66004)
        (xy 57.676762 60.650567)
        (xy 57.669096 60.642383)
        (xy 57.525289 60.544336)
        (xy 57.517145 60.539634)
        (xy 57.295001 60.432656)
        (xy 57.286245 60.429219)
        (xy 57.050632 60.356542)
        (xy 57.041475 60.354452)
        (xy 56.797658 60.317702)
        (xy 56.788281 60.317)
        (xy 56.541719 60.317)
        (xy 56.532341 60.317702)
        (xy 56.288524 60.354452)
        (xy 56.279367 60.356542)
        (xy 56.043754 60.429219)
        (xy 56.034998 60.432656)
        (xy 55.812854 60.539635)
        (xy 55.804709 60.544337)
        (xy 55.660903 60.642382)
        (xy 55.653236 60.650568)
        (xy 52.2205 60.650568)
        (xy 52.2205 60.04)
        (xy 62.029671 60.04)
        (xy 62.048966 60.33438)
        (xy 62.049769 60.33842)
        (xy 62.04977 60.338423)
        (xy 62.090728 60.544337)
        (xy 62.106519 60.623722)
        (xy 62.107844 60.627628)
        (xy 62.107846 60.627632)
        (xy 62.115632 60.650568)
        (xy 62.201348 60.903077)
        (xy 62.20317 60.906771)
        (xy 62.280824 61.06424)
        (xy 62.331828 61.167665)
        (xy 62.495727 61.412957)
        (xy 62.690242 61.634758)
        (xy 62.912043 61.829273)
        (xy 63.157335 61.993172)
        (xy 63.421923 62.123652)
        (xy 63.701278 62.218481)
        (xy 63.99062 62.276034)
        (xy 64.285 62.295329)
        (xy 64.57938 62.276034)
        (xy 64.868722 62.218481)
        (xy 65.148077 62.123652)
        (xy 65.412665 61.993172)
        (xy 65.657957 61.829273)
        (xy 65.879758 61.634758)
        (xy 66.074273 61.412957)
        (xy 66.238172 61.167665)
        (xy 66.368652 60.903077)
        (xy 66.463481 60.623722)
        (xy 66.521034 60.33438)
        (xy 66.540329 60.04)
        (xy 66.521034 59.74562)
        (xy 66.463481 59.456278)
        (xy 66.368652 59.176923)
        (xy 66.238172 58.912336)
        (xy 66.074273 58.667043)
        (xy 65.879758 58.445242)
        (xy 65.657957 58.250727)
        (xy 65.412665 58.086828)
        (xy 65.408965 58.085003)
        (xy 65.408961 58.085001)
        (xy 65.268125 58.015549)
        (xy 65.148077 57.956348)
        (xy 65.144177 57.955024)
        (xy 64.872632 57.862846)
        (xy 64.872628 57.862844)
        (xy 64.868722 57.861519)
        (xy 64.864674 57.860713)
        (xy 64.864671 57.860713)
        (xy 64.583423 57.80477)
        (xy 64.58342 57.804769)
        (xy 64.57938 57.803966)
        (xy 64.575269 57.803696)
        (xy 64.575265 57.803696)
        (xy 64.289119 57.784941)
        (xy 64.285 57.784671)
        (xy 64.280881 57.784941)
        (xy 63.994734 57.803696)
        (xy 63.994728 57.803696)
        (xy 63.99062 57.803966)
        (xy 63.986581 57.804769)
        (xy 63.986576 57.80477)
        (xy 63.705328 57.860713)
        (xy 63.705321 57.860714)
        (xy 63.701278 57.861519)
        (xy 63.697375 57.862843)
        (xy 63.697367 57.862846)
        (xy 63.425822 57.955024)
        (xy 63.425815 57.955026)
        (xy 63.421923 57.956348)
        (xy 63.418242 57.958162)
        (xy 63.418228 57.958169)
        (xy 63.161039 58.085001)
        (xy 63.161028 58.085007)
        (xy 63.157336 58.086828)
        (xy 63.153907 58.089118)
        (xy 63.153902 58.089122)
        (xy 62.915473 58.248434)
        (xy 62.915461 58.248442)
        (xy 62.912043 58.250727)
        (xy 62.908948 58.25344)
        (xy 62.908943 58.253445)
        (xy 62.69333 58.442533)
        (xy 62.693322 58.44254)
        (xy 62.690242 58.445242)
        (xy 62.68754 58.448322)
        (xy 62.687533 58.44833)
        (xy 62.498445 58.663943)
        (xy 62.49844 58.663948)
        (xy 62.495727 58.667043)
        (xy 62.493442 58.670461)
        (xy 62.493434 58.670473)
        (xy 62.334122 58.908902)
        (xy 62.334118 58.908907)
        (xy 62.331828 58.912336)
        (xy 62.330007 58.916028)
        (xy 62.330001 58.916039)
        (xy 62.203169 59.173228)
        (xy 62.203162 59.173242)
        (xy 62.201348 59.176923)
        (xy 62.200026 59.180815)
        (xy 62.200024 59.180822)
        (xy 62.107846 59.452367)
        (xy 62.107843 59.452375)
        (xy 62.106519 59.456278)
        (xy 62.048966 59.74562)
        (xy 62.029671 60.04)
        (xy 52.2205 60.04)
        (xy 52.2205 50.6015)
        (xy 52.237381 50.5385)
        (xy 52.2835 50.492381)
        (xy 52.3465 50.4755)
        (xy 66.123505 50.4755)
      )
    )
  )
  (zone (net 2) (net_name "/DRIVE_NEG") (layer "B.Cu") (tstamp 5284417b-ea37-43a4-a1cb-73f9ddb9c404) (hatch edge 0.508)
    (connect_pads yes (clearance 1.25))
    (min_thickness 0.254) (filled_areas_thickness no)
    (fill yes (thermal_gap 0.508) (thermal_bridge_width 0.508) (island_removal_mode 2) (island_area_min 9.999999))
    (polygon
      (pts
        (xy 52.22 88.575)
        (xy 52.22 72.319)
        (xy 71.778 72.319)
        (xy 74.318 70.033)
        (xy 76.858 70.033)
        (xy 76.858 72.827)
        (xy 66.19 88.575)
      )
    )
    (filled_polygon
      (layer "B.Cu")
      (pts
        (xy 75.002019 70.041619)
        (xy 75.136386 70.09405)
        (xy 75.379763 70.145081)
        (xy 75.483158 70.1515)
        (xy 76.296874 70.1515)
        (xy 76.298842 70.1515)
        (xy 76.402237 70.145081)
        (xy 76.466644 70.131576)
        (xy 76.522167 70.132436)
        (xy 76.571929 70.157083)
        (xy 76.606263 70.200728)
        (xy 76.6185 70.254894)
        (xy 76.6185 71.703728)
        (xy 76.618624 71.705679)
        (xy 76.618625 71.705708)
        (xy 76.626627 71.831519)
        (xy 76.628616 71.862785)
        (xy 76.629371 71.866703)
        (xy 76.629372 71.866705)
        (xy 76.658423 72.017323)
        (xy 76.658429 72.01735)
        (xy 76.658801 72.019278)
        (xy 76.659304 72.021218)
        (xy 76.659305 72.021219)
        (xy 76.668551 72.056828)
        (xy 76.674719 72.080579)
        (xy 76.675604 72.083092)
        (xy 76.675609 72.083107)
        (xy 76.699042 72.149618)
        (xy 76.703394 72.217939)
        (xy 76.671379 72.278451)
        (xy 76.624834 72.327249)
        (xy 76.624822 72.327262)
        (xy 76.62212 72.330096)
        (xy 76.619785 72.333248)
        (xy 76.619778 72.333258)
        (xy 76.537049 72.445)
        (xy 76.529195 72.455608)
        (xy 76.528137 72.457239)
        (xy 76.528115 72.457272)
        (xy 71.213457 80.657031)
        (xy 71.167895 80.699204)
        (xy 71.107724 80.7145)
        (xy 71.00311 80.7145)
        (xy 71.001523 80.714581)
        (xy 71.001497 80.714582)
        (xy 70.885891 80.720509)
        (xy 70.885887 80.720509)
        (xy 70.88213 80.720702)
        (xy 70.878421 80.721341)
        (xy 70.878416 80.721342)
        (xy 70.599824 80.769376)
        (xy 70.599817 80.769377)
        (xy 70.595581 80.770108)
        (xy 70.59148 80.771409)
        (xy 70.591474 80.771411)
        (xy 70.32254 80.856767)
        (xy 70.322537 80.856768)
        (xy 70.318429 80.858072)
        (xy 70.314536 80.859923)
        (xy 70.314532 80.859925)
        (xy 70.059727 80.981105)
        (xy 70.059721 80.981108)
        (xy 70.055836 80.982956)
        (xy 70.05225 80.985307)
        (xy 70.052234 80.985317)
        (xy 69.816293 81.140072)
        (xy 69.816288 81.140075)
        (xy 69.812694 81.142433)
        (xy 69.809464 81.145249)
        (xy 69.80945 81.14526)
        (xy 69.596765 81.330712)
        (xy 69.596757 81.330719)
        (xy 69.593532 81.333532)
        (xy 69.590719 81.336757)
        (xy 69.590712 81.336765)
        (xy 69.40526 81.54945)
        (xy 69.405249 81.549464)
        (xy 69.402433 81.552694)
        (xy 69.400075 81.556288)
        (xy 69.400072 81.556293)
        (xy 69.245317 81.792234)
        (xy 69.245307 81.79225)
        (xy 69.242956 81.795836)
        (xy 69.241108 81.799721)
        (xy 69.241105 81.799727)
        (xy 69.119925 82.054532)
        (xy 69.118072 82.058429)
        (xy 69.116768 82.062537)
        (xy 69.116767 82.06254)
        (xy 69.031411 82.331474)
        (xy 69.031409 82.33148)
        (xy 69.030108 82.335581)
        (xy 68.980702 82.62213)
        (xy 68.980509 82.625887)
        (xy 68.980509 82.625891)
        (xy 68.974582 82.741497)
        (xy 68.974581 82.741523)
        (xy 68.9745 82.74311)
        (xy 68.9745 82.744729)
        (xy 68.9745 84.074161)
        (xy 68.969327 84.109893)
        (xy 68.954233 84.142692)
        (xy 67.697939 86.080973)
        (xy 67.697932 86.080983)
        (xy 67.69671 86.08287)
        (xy 67.695639 86.084814)
        (xy 67.695622 86.084844)
        (xy 67.610833 86.238883)
        (xy 67.610822 86.238904)
        (xy 67.609743 86.240865)
        (xy 67.6088 86.242913)
        (xy 67.608795 86.242924)
        (xy 67.595592 86.271613)
        (xy 67.595583 86.271633)
        (xy 67.594649 86.273664)
        (xy 67.593861 86.275759)
        (xy 67.593856 86.275773)
        (xy 67.532808 86.438246)
        (xy 67.531217 86.442481)
        (xy 67.53025 86.446893)
        (xy 67.530247 86.446905)
        (xy 67.493116 86.616409)
        (xy 67.493113 86.616424)
        (xy 67.492627 86.618644)
        (xy 67.492303 86.620877)
        (xy 67.492297 86.620914)
        (xy 67.490618 86.632515)
        (xy 67.470237 86.685125)
        (xy 66.745495 87.754982)
        (xy 66.227821 88.519168)
        (xy 66.182547 88.55981)
        (xy 66.123505 88.5745)
        (xy 52.3465 88.5745)
        (xy 52.2835 88.557619)
        (xy 52.237381 88.5115)
        (xy 52.2205 88.4485)
        (xy 52.2205 79.01)
        (xy 62.029671 79.01)
        (xy 62.048966 79.30438)
        (xy 62.106519 79.593722)
        (xy 62.201348 79.873077)
        (xy 62.331828 80.137665)
        (xy 62.495727 80.382957)
        (xy 62.690242 80.604758)
        (xy 62.912043 80.799273)
        (xy 63.157335 80.963172)
        (xy 63.421923 81.093652)
        (xy 63.701278 81.188481)
        (xy 63.99062 81.246034)
        (xy 64.285 81.265329)
        (xy 64.57938 81.246034)
        (xy 64.868722 81.188481)
        (xy 65.148077 81.093652)
        (xy 65.412665 80.963172)
        (xy 65.657957 80.799273)
        (xy 65.879758 80.604758)
        (xy 66.074273 80.382957)
        (xy 66.238172 80.137665)
        (xy 66.368652 79.873077)
        (xy 66.463481 79.593722)
        (xy 66.521034 79.30438)
        (xy 66.540329 79.01)
        (xy 66.521034 78.71562)
        (xy 66.463481 78.426278)
        (xy 66.368652 78.146923)
        (xy 66.30933 78.026631)
        (xy 66.239998 77.886039)
        (xy 66.238172 77.882336)
        (xy 66.074273 77.637043)
        (xy 65.879758 77.415242)
        (xy 65.657957 77.220727)
        (xy 65.412665 77.056828)
        (xy 65.408965 77.055003)
        (xy 65.408961 77.055001)
        (xy 65.268125 76.985549)
        (xy 65.148077 76.926348)
        (xy 65.144177 76.925024)
        (xy 64.872632 76.832846)
        (xy 64.872628 76.832844)
        (xy 64.868722 76.831519)
        (xy 64.864674 76.830713)
        (xy 64.864671 76.830713)
        (xy 64.583423 76.77477)
        (xy 64.58342 76.774769)
        (xy 64.57938 76.773966)
        (xy 64.575269 76.773696)
        (xy 64.575265 76.773696)
        (xy 64.289119 76.754941)
        (xy 64.285 76.754671)
        (xy 64.280881 76.754941)
        (xy 63.994734 76.773696)
        (xy 63.994728 76.773696)
        (xy 63.99062 76.773966)
        (xy 63.986581 76.774769)
        (xy 63.986576 76.77477)
        (xy 63.705328 76.830713)
        (xy 63.705321 76.830714)
        (xy 63.701278 76.831519)
        (xy 63.697375 76.832843)
        (xy 63.697367 76.832846)
        (xy 63.425822 76.925024)
        (xy 63.425815 76.925026)
        (xy 63.421923 76.926348)
        (xy 63.418242 76.928162)
        (xy 63.418228 76.928169)
        (xy 63.161039 77.055001)
        (xy 63.161028 77.055007)
        (xy 63.157336 77.056828)
        (xy 63.153907 77.059118)
        (xy 63.153902 77.059122)
        (xy 62.915473 77.218434)
        (xy 62.915461 77.218442)
        (xy 62.912043 77.220727)
        (xy 62.908948 77.22344)
        (xy 62.908943 77.223445)
        (xy 62.69333 77.412533)
        (xy 62.693322 77.41254)
        (xy 62.690242 77.415242)
        (xy 62.68754 77.418322)
        (xy 62.687533 77.41833)
        (xy 62.498445 77.633943)
        (xy 62.49844 77.633948)
        (xy 62.495727 77.637043)
        (xy 62.493442 77.640461)
        (xy 62.493434 77.640473)
        (xy 62.334122 77.878902)
        (xy 62.334118 77.878907)
        (xy 62.331828 77.882336)
        (xy 62.330007 77.886028)
        (xy 62.330001 77.886039)
        (xy 62.203169 78.143228)
        (xy 62.203162 78.143242)
        (xy 62.201348 78.146923)
        (xy 62.200026 78.150815)
        (xy 62.200024 78.150822)
        (xy 62.107846 78.422367)
        (xy 62.107843 78.422375)
        (xy 62.106519 78.426278)
        (xy 62.105714 78.430321)
        (xy 62.105713 78.430328)
        (xy 62.04977 78.711576)
        (xy 62.048966 78.71562)
        (xy 62.029671 79.01)
        (xy 52.2205 79.01)
        (xy 52.2205 78.399431)
        (xy 55.653236 78.399431)
        (xy 55.660902 78.407615)
        (xy 55.804711 78.505663)
        (xy 55.812855 78.510365)
        (xy 56.034998 78.617343)
        (xy 56.043754 78.62078)
        (xy 56.279367 78.693457)
        (xy 56.288524 78.695547)
        (xy 56.532341 78.732297)
        (xy 56.541719 78.733)
        (xy 56.788281 78.733)
        (xy 56.797658 78.732297)
        (xy 57.041475 78.695547)
        (xy 57.050632 78.693457)
        (xy 57.286245 78.62078)
        (xy 57.295001 78.617343)
        (xy 57.517145 78.510365)
        (xy 57.525289 78.505664)
        (xy 57.669096 78.407615)
        (xy 57.676763 78.39943)
        (xy 57.67075 78.38996)
        (xy 56.676729 77.395939)
        (xy 56.664999 77.389167)
        (xy 56.65327 77.395939)
        (xy 55.65925 78.389958)
        (xy 55.653236 78.399431)
        (xy 52.2205 78.399431)
        (xy 52.2205 77.029697)
        (xy 54.952563 77.029697)
        (xy 54.970988 77.275572)
        (xy 54.972391 77.284879)
        (xy 55.027255 77.525253)
        (xy 55.030029 77.534246)
        (xy 55.120106 77.763758)
        (xy 55.124189 77.772238)
        (xy 55.247471 77.985767)
        (xy 55.252762 77.993528)
        (xy 55.27916 78.026631)
        (xy 55.290577 78.034731)
        (xy 55.302829 78.027959)
        (xy 56.29406 77.036729)
        (xy 56.300832 77.024999)
        (xy 57.029167 77.024999)
        (xy 57.035939 77.036729)
        (xy 58.027169 78.027959)
        (xy 58.039422 78.034731)
        (xy 58.050838 78.026631)
        (xy 58.077234 77.993533)
        (xy 58.082531 77.985763)
        (xy 58.20581 77.772238)
        (xy 58.209893 77.763758)
        (xy 58.29997 77.534246)
        (xy 58.302744 77.525253)
        (xy 58.357608 77.284879)
        (xy 58.359011 77.275572)
        (xy 58.377437 77.029697)
        (xy 58.377437 77.020303)
        (xy 58.359011 76.774427)
        (xy 58.357608 76.76512)
        (xy 58.302744 76.524746)
        (xy 58.29997 76.515753)
        (xy 58.209893 76.286241)
        (xy 58.20581 76.277761)
        (xy 58.082528 76.064232)
        (xy 58.077237 76.056471)
        (xy 58.050838 76.023367)
        (xy 58.039421 76.015267)
        (xy 58.027169 76.022039)
        (xy 57.035939 77.01327)
        (xy 57.029167 77.024999)
        (xy 56.300832 77.024999)
        (xy 56.29406 77.01327)
        (xy 55.30283 76.02204)
        (xy 55.290577 76.015268)
        (xy 55.279159 76.023369)
        (xy 55.252771 76.05646)
        (xy 55.247466 76.06424)
        (xy 55.124189 76.277761)
        (xy 55.120106 76.286241)
        (xy 55.030029 76.515753)
        (xy 55.027255 76.524746)
        (xy 54.972391 76.76512)
        (xy 54.970988 76.774427)
        (xy 54.952563 77.020303)
        (xy 54.952563 77.029697)
        (xy 52.2205 77.029697)
        (xy 52.2205 75.650568)
        (xy 55.653236 75.650568)
        (xy 55.65925 75.66004)
        (xy 56.65327 76.65406)
        (xy 56.664999 76.660832)
        (xy 56.676729 76.65406)
        (xy 57.670748 75.66004)
        (xy 57.676762 75.650567)
        (xy 57.669096 75.642383)
        (xy 57.525289 75.544336)
        (xy 57.517145 75.539634)
        (xy 57.295001 75.432656)
        (xy 57.286245 75.429219)
        (xy 57.050632 75.356542)
        (xy 57.041475 75.354452)
        (xy 56.797658 75.317702)
        (xy 56.788281 75.317)
        (xy 56.541719 75.317)
        (xy 56.532341 75.317702)
        (xy 56.288524 75.354452)
        (xy 56.279367 75.356542)
        (xy 56.043754 75.429219)
        (xy 56.034998 75.432656)
        (xy 55.812854 75.539635)
        (xy 55.804709 75.544337)
        (xy 55.660903 75.642382)
        (xy 55.653236 75.650568)
        (xy 52.2205 75.650568)
        (xy 52.2205 72.445)
        (xy 52.237381 72.382)
        (xy 52.2835 72.335881)
        (xy 52.3465 72.319)
        (xy 62.496555 72.319)
        (xy 62.552283 72.331994)
        (xy 62.596518 72.368296)
        (xy 62.620134 72.420419)
        (xy 62.618262 72.477611)
        (xy 62.591287 72.528078)
        (xy 62.498445 72.633943)
        (xy 62.49844 72.633948)
        (xy 62.495727 72.637043)
        (xy 62.493442 72.640461)
        (xy 62.493434 72.640473)
        (xy 62.334122 72.878902)
        (xy 62.334118 72.878907)
        (xy 62.331828 72.882336)
        (xy 62.330007 72.886028)
        (xy 62.330001 72.886039)
        (xy 62.203169 73.143228)
        (xy 62.203162 73.143242)
        (xy 62.201348 73.146923)
        (xy 62.200026 73.150815)
        (xy 62.200024 73.150822)
        (xy 62.107846 73.422367)
        (xy 62.107843 73.422375)
        (xy 62.106519 73.426278)
        (xy 62.048966 73.71562)
        (xy 62.029671 74.01)
        (xy 62.048966 74.30438)
        (xy 62.106519 74.593722)
        (xy 62.201348 74.873077)
        (xy 62.331828 75.137665)
        (xy 62.495727 75.382957)
        (xy 62.690242 75.604758)
        (xy 62.912043 75.799273)
        (xy 63.157335 75.963172)
        (xy 63.421923 76.093652)
        (xy 63.701278 76.188481)
        (xy 63.99062 76.246034)
        (xy 64.285 76.265329)
        (xy 64.57938 76.246034)
        (xy 64.868722 76.188481)
        (xy 65.148077 76.093652)
        (xy 65.412665 75.963172)
        (xy 65.657957 75.799273)
        (xy 65.879758 75.604758)
        (xy 66.074273 75.382957)
        (xy 66.238172 75.137665)
        (xy 66.368652 74.873077)
        (xy 66.463481 74.593722)
        (xy 66.521034 74.30438)
        (xy 66.540329 74.01)
        (xy 66.521034 73.71562)
        (xy 66.463481 73.426278)
        (xy 66.368652 73.146923)
        (xy 66.317463 73.043123)
        (xy 66.239998 72.886039)
        (xy 66.238172 72.882336)
        (xy 66.074273 72.637043)
        (xy 65.978713 72.528078)
        (xy 65.951738 72.477611)
        (xy 65.949866 72.420419)
        (xy 65.973482 72.368296)
        (xy 66.017717 72.331994)
        (xy 66.073445 72.319)
        (xy 68.638116 72.319)
        (xy 68.68434 72.327785)
        (xy 68.724118 72.352915)
        (xy 68.783302 72.408189)
        (xy 68.786818 72.410671)
        (xy 68.786822 72.410674)
        (xy 68.852837 72.457272)
        (xy 69.018064 72.573901)
        (xy 69.273203 72.706104)
        (xy 69.543968 72.802334)
        (xy 69.825314 72.860798)
        (xy 70.040248 72.8755)
        (xy 70.431611 72.8755)
        (xy 70.433752 72.8755)
        (xy 70.648686 72.860798)
        (xy 70.930032 72.802334)
        (xy 71.200797 72.706104)
        (xy 71.455936 72.573901)
        (xy 71.690698 72.408189)
        (xy 71.900708 72.212053)
        (xy 71.905138 72.206606)
        (xy 71.918582 72.192476)
        (xy 72.113197 72.017323)
        (xy 74.282061 70.065344)
        (xy 74.32121 70.041364)
        (xy 74.366351 70.033)
        (xy 74.956218 70.033)
      )
    )
  )
  (zone (net 6) (net_name "GND") (layer "B.Cu") (tstamp 530336cb-8e2e-4dc9-9d3e-68a14d1243a1) (hatch edge 0.508)
    (priority 1)
    (connect_pads yes (clearance 1.25))
    (min_thickness 0.254) (filled_areas_thickness no)
    (fill yes (thermal_gap 0.508) (thermal_bridge_width 0.508) (island_removal_mode 2) (island_area_min 9.999999))
    (polygon
      (pts
        (xy 77.874 66.985)
        (xy 92.86 66.985)
        (xy 92.86 72.065)
        (xy 77.874 72.065)
      )
    )
    (filled_polygon
      (layer "B.Cu")
      (pts
        (xy 78.616836 67.11559)
        (xy 78.75472 67.172704)
        (xy 79.273231 67.345281)
        (xy 79.802732 67.480429)
        (xy 80.340526 67.577457)
        (xy 80.883872 67.635873)
        (xy 81.43 67.655378)
        (xy 81.976128 67.635873)
        (xy 82.519474 67.577457)
        (xy 83.057268 67.480429)
        (xy 83.586769 67.345281)
        (xy 83.930284 67.230948)
        (xy 83.970076 67.2245)
        (xy 92.7335 67.2245)
        (xy 92.7965 67.241381)
        (xy 92.842619 67.2875)
        (xy 92.8595 67.3505)
        (xy 92.8595 71.6995)
        (xy 92.842619 71.7625)
        (xy 92.7965 71.808619)
        (xy 92.7335 71.8255)
        (xy 83.970076 71.8255)
        (xy 83.930285 71.819052)
        (xy 83.588897 71.705427)
        (xy 83.58889 71.705425)
        (xy 83.586769 71.704719)
        (xy 83.584595 71.704164)
        (xy 83.059438 71.570124)
        (xy 83.059415 71.570119)
        (xy 83.057268 71.569571)
        (xy 83.055073 71.569175)
        (xy 83.055064 71.569173)
        (xy 82.521698 71.472944)
        (xy 82.521691 71.472943)
        (xy 82.519474 71.472543)
        (xy 82.517234 71.472302)
        (xy 82.517226 71.472301)
        (xy 81.978372 71.414368)
        (xy 81.978364 71.414367)
        (xy 81.976128 71.414127)
        (xy 81.973889 71.414047)
        (xy 81.973875 71.414046)
        (xy 81.43224 71.394702)
        (xy 81.43 71.394622)
        (xy 81.42776 71.394702)
        (xy 80.886124 71.414046)
        (xy 80.886108 71.414047)
        (xy 80.883872 71.414127)
        (xy 80.881637 71.414367)
        (xy 80.881627 71.414368)
        (xy 80.342773 71.472301)
        (xy 80.342761 71.472302)
        (xy 80.340526 71.472543)
        (xy 80.338312 71.472942)
        (xy 80.338301 71.472944)
        (xy 79.804935 71.569173)
        (xy 79.80492 71.569176)
        (xy 79.802732 71.569571)
        (xy 79.80059 71.570117)
        (xy 79.800561 71.570124)
        (xy 79.275404 71.704164)
        (xy 79.275394 71.704166)
        (xy 79.273231 71.704719)
        (xy 79.271117 71.705422)
        (xy 79.271102 71.705427)
        (xy 78.756847 71.876587)
        (xy 78.75682 71.876596)
        (xy 78.75472 71.877296)
        (xy 78.752669 71.878145)
        (xy 78.752649 71.878153)
        (xy 78.616837 71.934409)
        (xy 78.568619 71.944)
        (xy 78.503656 71.944)
        (xy 78.477798 71.941318)
        (xy 78.456075 71.936763)
        (xy 78.436133 71.930826)
        (xy 78.409761 71.920535)
        (xy 78.409717 71.920519)
        (xy 78.40841 71.920009)
        (xy 78.407068 71.919556)
        (xy 78.407046 71.919548)
        (xy 78.300571 71.883609)
        (xy 78.297804 71.882675)
        (xy 78.283762 71.879349)
        (xy 78.185635 71.856113)
        (xy 78.185598 71.856105)
        (xy 78.184208 71.855776)
        (xy 78.182793 71.855509)
        (xy 78.182785 71.855508)
        (xy 78.139839 71.847426)
        (xy 78.139819 71.847422)
        (xy 78.138407 71.847157)
        (xy 78.136973 71.846955)
        (xy 78.136957 71.846953)
        (xy 78.025705 71.831331)
        (xy 78.02569 71.831329)
        (xy 78.022816 71.830926)
        (xy 78.019908 71.83079)
        (xy 78.019901 71.83079)
        (xy 78.005613 71.830125)
        (xy 77.994142 71.829591)
        (xy 77.933649 71.810842)
        (xy 77.889918 71.765029)
        (xy 77.874 71.703728)
        (xy 77.874 67.346272)
        (xy 77.889917 67.284971)
        (xy 77.933648 67.239158)
        (xy 77.994142 67.220408)
        (xy 78.022827 67.219073)
        (xy 78.138428 67.202839)
        (xy 78.18423 67.194219)
        (xy 78.297812 67.167322)
        (xy 78.408406 67.129992)
        (xy 78.436127 67.119174)
        (xy 78.456064 67.113237)
        (xy 78.477806 67.108679)
        (xy 78.503655 67.106)
        (xy 78.568619 67.106)
      )
    )
  )
  (zone (net 3) (net_name "/TERM_POS") (layer "B.Cu") (tstamp 683436f6-3530-40ef-a875-2246e5188446) (hatch edge 0.508)
    (priority 2)
    (connect_pads yes (clearance 1.25))
    (min_thickness 0.254) (filled_areas_thickness no)
    (fill yes (thermal_gap 0.508) (thermal_bridge_width 0.508) (island_removal_mode 2) (island_area_min 9.999999))
    (polygon
      (pts
        (xy 68.73 50.475)
        (xy 92.86 50.475)
        (xy 92.86 65.969)
        (xy 77.62 65.969)
        (xy 68.73 52.253)
      )
    )
    (filled_polygon
      (layer "B.Cu")
      (pts
        (xy 92.7965 50.492381)
        (xy 92.842619 50.5385)
        (xy 92.8595 50.6015)
        (xy 92.8595 65.843)
        (xy 92.842619 65.906)
        (xy 92.7965 65.952119)
        (xy 92.7335 65.969)
        (xy 79.775782 65.969)
        (xy 79.72998 65.96038)
        (xy 79.600477 65.909847)
        (xy 79.60047 65.909845)
        (xy 79.595614 65.90795)
        (xy 79.590513 65.90688)
        (xy 79.590505 65.906878)
        (xy 79.356698 65.857854)
        (xy 79.356692 65.857853)
        (xy 79.352237 65.856919)
        (xy 79.347699 65.856637)
        (xy 79.34769 65.856636)
        (xy 79.250804 65.850621)
        (xy 79.250778 65.85062)
        (xy 79.248842 65.8505)
        (xy 78.433158 65.8505)
        (xy 78.431222 65.85062)
        (xy 78.431195 65.850621)
        (xy 78.334309 65.856636)
        (xy 78.334298 65.856637)
        (xy 78.329763 65.856919)
        (xy 78.325308 65.857852)
        (xy 78.325301 65.857854)
        (xy 78.091494 65.906878)
        (xy 78.091483 65.906881)
        (xy 78.086386 65.90795)
        (xy 78.081532 65.909843)
        (xy 78.081522 65.909847)
        (xy 77.95202 65.96038)
        (xy 77.906218 65.969)
        (xy 77.688485 65.969)
        (xy 77.628314 65.953704)
        (xy 77.582752 65.911531)
        (xy 68.750267 52.284269)
        (xy 68.735173 52.25147)
        (xy 68.73 52.215738)
        (xy 68.73 50.6015)
        (xy 68.746881 50.5385)
        (xy 68.793 50.492381)
        (xy 68.856 50.4755)
        (xy 92.7335 50.4755)
      )
    )
  )
  (zone (net 4) (net_name "/TERM_NEG") (layer "B.Cu") (tstamp ea701bab-320a-4917-99c8-acc7fdce1d3a) (hatch edge 0.508)
    (priority 2)
    (connect_pads yes (clearance 1.25))
    (min_thickness 0.254) (filled_areas_thickness no)
    (fill yes (thermal_gap 0.508) (thermal_bridge_width 0.508) (island_removal_mode 2) (island_area_min 9.999999))
    (polygon
      (pts
        (xy 68.73 88.575)
        (xy 92.86 88.575)
        (xy 92.86 73.081)
        (xy 77.62 73.081)
        (xy 68.73 86.797)
      )
    )
    (filled_polygon
      (layer "B.Cu")
      (pts
        (xy 77.952019 73.089619)
        (xy 78.086386 73.14205)
        (xy 78.329763 73.193081)
        (xy 78.433158 73.1995)
        (xy 79.246874 73.1995)
        (xy 79.248842 73.1995)
        (xy 79.352237 73.193081)
        (xy 79.595614 73.14205)
        (xy 79.72998 73.089619)
        (xy 79.775782 73.081)
        (xy 92.7335 73.081)
        (xy 92.7965 73.097881)
        (xy 92.842619 73.144)
        (xy 92.8595 73.207)
        (xy 92.8595 88.4485)
        (xy 92.842619 88.5115)
        (xy 92.7965 88.557619)
        (xy 92.7335 88.5745)
        (xy 68.856 88.5745)
        (xy 68.793 88.557619)
        (xy 68.746881 88.5115)
        (xy 68.73 88.4485)
        (xy 68.73 86.834262)
        (xy 68.735173 86.79853)
        (xy 68.750267 86.765731)
        (xy 77.582752 73.138469)
        (xy 77.628314 73.096296)
        (xy 77.688485 73.081)
        (xy 77.906218 73.081)
      )
    )
  )
)
