G04 #@! TF.GenerationSoftware,KiCad,Pcbnew,7.99.0-1153-g27afd22bbf*
G04 #@! TF.CreationDate,2023-05-19T13:17:00-06:00*
G04 #@! TF.ProjectId,pd2530-mains,70643235-3330-42d6-9d61-696e732e6b69,1*
G04 #@! TF.SameCoordinates,Original*
G04 #@! TF.FileFunction,Copper,L1,Top*
G04 #@! TF.FilePolarity,Positive*
%FSLAX46Y46*%
G04 Gerber Fmt 4.6, Leading zero omitted, Abs format (unit mm)*
G04 Created by KiCad (PCBNEW 7.99.0-1153-g27afd22bbf) date 2023-05-19 13:17:00*
%MOMM*%
%LPD*%
G01*
G04 APERTURE LIST*
G04 #@! TA.AperFunction,EtchedComponent*
%ADD10C,0.000000*%
G04 #@! TD*
G04 #@! TA.AperFunction,ComponentPad*
%ADD11R,1.700000X1.700000*%
G04 #@! TD*
G04 #@! TA.AperFunction,ComponentPad*
%ADD12O,1.700000X1.700000*%
G04 #@! TD*
G04 #@! TA.AperFunction,SMDPad,CuDef*
%ADD13C,1.000000*%
G04 #@! TD*
G04 #@! TA.AperFunction,ComponentPad*
%ADD14C,2.000000*%
G04 #@! TD*
G04 #@! TA.AperFunction,ComponentPad*
%ADD15R,2.000000X2.000000*%
G04 #@! TD*
G04 #@! TA.AperFunction,ComponentPad*
%ADD16C,0.800000*%
G04 #@! TD*
G04 #@! TA.AperFunction,ComponentPad*
%ADD17C,6.400000*%
G04 #@! TD*
G04 #@! TA.AperFunction,ComponentPad*
%ADD18C,2.320000*%
G04 #@! TD*
G04 #@! TA.AperFunction,ComponentPad*
%ADD19R,1.600000X1.600000*%
G04 #@! TD*
G04 #@! TA.AperFunction,ComponentPad*
%ADD20C,1.600000*%
G04 #@! TD*
G04 #@! TA.AperFunction,ComponentPad*
%ADD21C,1.500000*%
G04 #@! TD*
G04 #@! TA.AperFunction,ComponentPad*
%ADD22C,1.800000*%
G04 #@! TD*
G04 #@! TA.AperFunction,ComponentPad*
%ADD23R,1.950000X1.950000*%
G04 #@! TD*
G04 #@! TA.AperFunction,ComponentPad*
%ADD24C,1.950000*%
G04 #@! TD*
G04 #@! TA.AperFunction,ComponentPad*
%ADD25C,3.000000*%
G04 #@! TD*
G04 #@! TA.AperFunction,ComponentPad*
%ADD26O,2.000000X2.800000*%
G04 #@! TD*
G04 #@! TA.AperFunction,Conductor*
%ADD27C,1.000000*%
G04 #@! TD*
G04 #@! TA.AperFunction,Conductor*
%ADD28C,0.250000*%
G04 #@! TD*
G04 #@! TA.AperFunction,Conductor*
%ADD29C,2.000000*%
G04 #@! TD*
G04 #@! TA.AperFunction,Conductor*
%ADD30C,1.500000*%
G04 #@! TD*
G04 APERTURE END LIST*
D10*
G04 #@! TA.AperFunction,EtchedComponent*
G04 #@! TO.C,NT1*
G36*
X138500000Y-94250000D02*
G01*
X137000000Y-94250000D01*
X137000000Y-93250000D01*
X138500000Y-93250000D01*
X138500000Y-94250000D01*
G37*
G04 #@! TD.AperFunction*
G04 #@! TD*
G04 #@! TO.P,D2,1,K*
G04 #@! TO.N,+12V*
G04 #@! TA.AperFunction,SMDPad,CuDef*
G36*
G01*
X138080000Y-78400000D02*
X138920000Y-78400000D01*
G75*
G02*
X139100000Y-78580000I0J-180000D01*
G01*
X139100000Y-79120000D01*
G75*
G02*
X138920000Y-79300000I-180000J0D01*
G01*
X138080000Y-79300000D01*
G75*
G02*
X137900000Y-79120000I0J180000D01*
G01*
X137900000Y-78580000D01*
G75*
G02*
X138080000Y-78400000I180000J0D01*
G01*
G37*
G04 #@! TD.AperFunction*
G04 #@! TO.P,D2,2,A*
G04 #@! TO.N,/RELAY_START*
G04 #@! TA.AperFunction,SMDPad,CuDef*
G36*
G01*
X138080000Y-81700000D02*
X138920000Y-81700000D01*
G75*
G02*
X139100000Y-81880000I0J-180000D01*
G01*
X139100000Y-82420000D01*
G75*
G02*
X138920000Y-82600000I-180000J0D01*
G01*
X138080000Y-82600000D01*
G75*
G02*
X137900000Y-82420000I0J180000D01*
G01*
X137900000Y-81880000D01*
G75*
G02*
X138080000Y-81700000I180000J0D01*
G01*
G37*
G04 #@! TD.AperFunction*
G04 #@! TD*
D11*
G04 #@! TO.P,J9,1,Pin_1*
G04 #@! TO.N,Earth_Protective*
X139000000Y-95460000D03*
D12*
G04 #@! TO.P,J9,2,Pin_2*
X139000000Y-98000000D03*
G04 #@! TO.P,J9,3,Pin_3*
G04 #@! TO.N,GND*
X136460000Y-95460000D03*
G04 #@! TO.P,J9,4,Pin_4*
X136460000Y-98000000D03*
G04 #@! TO.P,J9,5,Pin_5*
G04 #@! TO.N,+12V*
X133920000Y-95460000D03*
G04 #@! TO.P,J9,6,Pin_6*
X133920000Y-98000000D03*
G04 #@! TO.P,J9,7,Pin_7*
G04 #@! TO.N,/RELAY_RUN*
X131380000Y-95460000D03*
G04 #@! TO.P,J9,8,Pin_8*
G04 #@! TO.N,/RELAY_START*
X131380000Y-98000000D03*
G04 #@! TD*
D13*
G04 #@! TO.P,NT1,1,1*
G04 #@! TO.N,Earth_Protective*
X138500000Y-93750000D03*
G04 #@! TO.P,NT1,2,2*
G04 #@! TO.N,GND*
X137000000Y-93750000D03*
G04 #@! TD*
G04 #@! TO.P,R1,1*
G04 #@! TO.N,/LF2*
G04 #@! TA.AperFunction,SMDPad,CuDef*
G36*
G01*
X95312500Y-81375000D02*
X95312500Y-82625000D01*
G75*
G02*
X95062500Y-82875000I-250000J0D01*
G01*
X94437500Y-82875000D01*
G75*
G02*
X94187500Y-82625000I0J250000D01*
G01*
X94187500Y-81375000D01*
G75*
G02*
X94437500Y-81125000I250000J0D01*
G01*
X95062500Y-81125000D01*
G75*
G02*
X95312500Y-81375000I0J-250000D01*
G01*
G37*
G04 #@! TD.AperFunction*
G04 #@! TO.P,R1,2*
G04 #@! TO.N,/LF5*
G04 #@! TA.AperFunction,SMDPad,CuDef*
G36*
G01*
X92387500Y-81375000D02*
X92387500Y-82625000D01*
G75*
G02*
X92137500Y-82875000I-250000J0D01*
G01*
X91512500Y-82875000D01*
G75*
G02*
X91262500Y-82625000I0J250000D01*
G01*
X91262500Y-81375000D01*
G75*
G02*
X91512500Y-81125000I250000J0D01*
G01*
X92137500Y-81125000D01*
G75*
G02*
X92387500Y-81375000I0J-250000D01*
G01*
G37*
G04 #@! TD.AperFunction*
G04 #@! TD*
G04 #@! TO.P,D1,1,K*
G04 #@! TO.N,+12V*
G04 #@! TA.AperFunction,SMDPad,CuDef*
G36*
G01*
X138080000Y-85900000D02*
X138920000Y-85900000D01*
G75*
G02*
X139100000Y-86080000I0J-180000D01*
G01*
X139100000Y-86620000D01*
G75*
G02*
X138920000Y-86800000I-180000J0D01*
G01*
X138080000Y-86800000D01*
G75*
G02*
X137900000Y-86620000I0J180000D01*
G01*
X137900000Y-86080000D01*
G75*
G02*
X138080000Y-85900000I180000J0D01*
G01*
G37*
G04 #@! TD.AperFunction*
G04 #@! TO.P,D1,2,A*
G04 #@! TO.N,/RELAY_RUN*
G04 #@! TA.AperFunction,SMDPad,CuDef*
G36*
G01*
X138080000Y-89200000D02*
X138920000Y-89200000D01*
G75*
G02*
X139100000Y-89380000I0J-180000D01*
G01*
X139100000Y-89920000D01*
G75*
G02*
X138920000Y-90100000I-180000J0D01*
G01*
X138080000Y-90100000D01*
G75*
G02*
X137900000Y-89920000I0J180000D01*
G01*
X137900000Y-89380000D01*
G75*
G02*
X138080000Y-89200000I180000J0D01*
G01*
G37*
G04 #@! TD.AperFunction*
G04 #@! TD*
G04 #@! TO.P,C8,1*
G04 #@! TO.N,+12V*
G04 #@! TA.AperFunction,SMDPad,CuDef*
G36*
G01*
X140275000Y-85000000D02*
X140275000Y-84500000D01*
G75*
G02*
X140500000Y-84275000I225000J0D01*
G01*
X140950000Y-84275000D01*
G75*
G02*
X141175000Y-84500000I0J-225000D01*
G01*
X141175000Y-85000000D01*
G75*
G02*
X140950000Y-85225000I-225000J0D01*
G01*
X140500000Y-85225000D01*
G75*
G02*
X140275000Y-85000000I0J225000D01*
G01*
G37*
G04 #@! TD.AperFunction*
G04 #@! TO.P,C8,2*
G04 #@! TO.N,GND*
G04 #@! TA.AperFunction,SMDPad,CuDef*
G36*
G01*
X141825000Y-85000000D02*
X141825000Y-84500000D01*
G75*
G02*
X142050000Y-84275000I225000J0D01*
G01*
X142500000Y-84275000D01*
G75*
G02*
X142725000Y-84500000I0J-225000D01*
G01*
X142725000Y-85000000D01*
G75*
G02*
X142500000Y-85225000I-225000J0D01*
G01*
X142050000Y-85225000D01*
G75*
G02*
X141825000Y-85000000I0J225000D01*
G01*
G37*
G04 #@! TD.AperFunction*
G04 #@! TD*
G04 #@! TO.P,DZ1,1,K*
G04 #@! TO.N,+12V*
G04 #@! TA.AperFunction,SMDPad,CuDef*
G36*
G01*
X152150000Y-78810000D02*
X152150000Y-80190000D01*
G75*
G02*
X151690000Y-80650000I-460000J0D01*
G01*
X150110000Y-80650000D01*
G75*
G02*
X149650000Y-80190000I0J460000D01*
G01*
X149650000Y-78810000D01*
G75*
G02*
X150110000Y-78350000I460000J0D01*
G01*
X151690000Y-78350000D01*
G75*
G02*
X152150000Y-78810000I0J-460000D01*
G01*
G37*
G04 #@! TD.AperFunction*
G04 #@! TO.P,DZ1,2,A*
G04 #@! TO.N,GND*
G04 #@! TA.AperFunction,SMDPad,CuDef*
G36*
G01*
X147850000Y-78810000D02*
X147850000Y-80190000D01*
G75*
G02*
X147390000Y-80650000I-460000J0D01*
G01*
X145810000Y-80650000D01*
G75*
G02*
X145350000Y-80190000I0J460000D01*
G01*
X145350000Y-78810000D01*
G75*
G02*
X145810000Y-78350000I460000J0D01*
G01*
X147390000Y-78350000D01*
G75*
G02*
X147850000Y-78810000I0J-460000D01*
G01*
G37*
G04 #@! TD.AperFunction*
G04 #@! TD*
D14*
G04 #@! TO.P,C1,1*
G04 #@! TO.N,/LF2*
X97000000Y-82000000D03*
G04 #@! TO.P,C1,2*
G04 #@! TO.N,/LF5*
X89500000Y-82000000D03*
G04 #@! TD*
D15*
G04 #@! TO.P,L1,1,1*
G04 #@! TO.N,/LF*
X81642500Y-65892500D03*
D14*
G04 #@! TO.P,L1,2,2*
G04 #@! TO.N,/LF1*
X81642500Y-75892500D03*
G04 #@! TO.P,L1,3,3*
G04 #@! TO.N,/N*
X96642500Y-65892500D03*
G04 #@! TO.P,L1,4,4*
G04 #@! TO.N,/LF5*
X96642500Y-75892500D03*
G04 #@! TD*
D16*
G04 #@! TO.P,H2,1,1*
G04 #@! TO.N,unconnected-(H2-Pad1)*
X56400000Y-87000000D03*
X55697056Y-88697056D03*
X55697056Y-85302944D03*
X54000000Y-89400000D03*
D17*
X54000000Y-87000000D03*
D16*
X54000000Y-84600000D03*
X52302944Y-88697056D03*
X52302944Y-85302944D03*
X51600000Y-87000000D03*
G04 #@! TD*
D18*
G04 #@! TO.P,J3,1,Pin_1*
G04 #@! TO.N,/LF2*
X89000000Y-97040000D03*
X89000000Y-91960000D03*
G04 #@! TD*
G04 #@! TO.P,J8,1,Pin_1*
G04 #@! TO.N,Earth_Protective*
X146000000Y-97540000D03*
X146000000Y-92460000D03*
G04 #@! TD*
G04 #@! TO.P,J6,1,Pin_1*
G04 #@! TO.N,/LF5*
X68000000Y-97040000D03*
X68000000Y-91960000D03*
G04 #@! TD*
D19*
G04 #@! TO.P,C7,1*
G04 #@! TO.N,+12V*
X150000000Y-76000000D03*
D20*
G04 #@! TO.P,C7,2*
G04 #@! TO.N,GND*
X147500000Y-76000000D03*
G04 #@! TD*
D14*
G04 #@! TO.P,C6,1*
G04 #@! TO.N,Earth_Protective*
X72000000Y-82000000D03*
G04 #@! TO.P,C6,2*
G04 #@! TO.N,/LF*
X62000000Y-82000000D03*
G04 #@! TD*
D21*
G04 #@! TO.P,K1,1*
G04 #@! TO.N,/RELAY_RUN*
X135550000Y-91800000D03*
D14*
G04 #@! TO.P,K1,2*
G04 #@! TO.N,/LF1*
X124050000Y-92100000D03*
G04 #@! TO.P,K1,3*
G04 #@! TO.N,/LF2*
X117050000Y-92100000D03*
D21*
G04 #@! TO.P,K1,5*
G04 #@! TO.N,+12V*
X135550000Y-87100000D03*
G04 #@! TD*
D14*
G04 #@! TO.P,C2,1*
G04 #@! TO.N,/N*
X85000000Y-82000000D03*
G04 #@! TO.P,C2,2*
G04 #@! TO.N,Earth_Protective*
X75000000Y-82000000D03*
G04 #@! TD*
D18*
G04 #@! TO.P,J2,1,Pin_1*
G04 #@! TO.N,/LF2*
X96000000Y-97040000D03*
X96000000Y-91960000D03*
G04 #@! TD*
D22*
G04 #@! TO.P,TH1,1*
G04 #@! TO.N,/LF3*
X108550000Y-84250000D03*
G04 #@! TO.P,TH1,2*
G04 #@! TO.N,/LF2*
X111450000Y-91750000D03*
G04 #@! TD*
D23*
G04 #@! TO.P,A1,1,AC(N)*
G04 #@! TO.N,/N*
X104000000Y-68625000D03*
D24*
G04 #@! TO.P,A1,2,AC(L)*
G04 #@! TO.N,/L*
X104000000Y-48305000D03*
G04 #@! TO.P,A1,3,NC*
G04 #@! TO.N,unconnected-(A1-NC-Pad3)*
X149720000Y-48225000D03*
G04 #@! TO.P,A1,4,-VO*
G04 #@! TO.N,GND*
X149720000Y-58465000D03*
G04 #@! TO.P,A1,5,+VO*
G04 #@! TO.N,+12V*
X149720000Y-68625000D03*
G04 #@! TD*
D25*
G04 #@! TO.P,J1,E,E*
G04 #@! TO.N,Earth_Protective*
X75000000Y-59500000D03*
G04 #@! TO.P,J1,L,L*
G04 #@! TO.N,/L*
X68000000Y-59500000D03*
G04 #@! TO.P,J1,N,N*
G04 #@! TO.N,/N*
X82000000Y-59500000D03*
G04 #@! TD*
D18*
G04 #@! TO.P,J7,1,Pin_1*
G04 #@! TO.N,/LF5*
X61000000Y-97040000D03*
X61000000Y-91960000D03*
G04 #@! TD*
D21*
G04 #@! TO.P,K2,1*
G04 #@! TO.N,/RELAY_START*
X135550000Y-83300000D03*
D14*
G04 #@! TO.P,K2,2*
G04 #@! TO.N,/LF1*
X124050000Y-83600000D03*
G04 #@! TO.P,K2,3*
G04 #@! TO.N,/LF3*
X117050000Y-83600000D03*
D21*
G04 #@! TO.P,K2,5*
G04 #@! TO.N,+12V*
X135550000Y-78600000D03*
G04 #@! TD*
G04 #@! TO.P,F1,1*
G04 #@! TO.N,/LF*
G04 #@! TA.AperFunction,ComponentPad*
G36*
G01*
X77120000Y-66100000D02*
X77120000Y-67900000D01*
G75*
G02*
X76620000Y-68400000I-500000J0D01*
G01*
X75620000Y-68400000D01*
G75*
G02*
X75120000Y-67900000I0J500000D01*
G01*
X75120000Y-66100000D01*
G75*
G02*
X75620000Y-65600000I500000J0D01*
G01*
X76620000Y-65600000D01*
G75*
G02*
X77120000Y-66100000I0J-500000D01*
G01*
G37*
G04 #@! TD.AperFunction*
G04 #@! TA.AperFunction,ComponentPad*
G36*
G01*
X69850000Y-66100000D02*
X69850000Y-67900000D01*
G75*
G02*
X69350000Y-68400000I-500000J0D01*
G01*
X68350000Y-68400000D01*
G75*
G02*
X67850000Y-67900000I0J500000D01*
G01*
X67850000Y-66100000D01*
G75*
G02*
X68350000Y-65600000I500000J0D01*
G01*
X69350000Y-65600000D01*
G75*
G02*
X69850000Y-66100000I0J-500000D01*
G01*
G37*
G04 #@! TD.AperFunction*
D26*
G04 #@! TO.P,F1,2*
G04 #@! TO.N,/L*
X59770000Y-67000000D03*
X52500000Y-67000000D03*
G04 #@! TD*
D18*
G04 #@! TO.P,J4,1,Pin_1*
G04 #@! TO.N,/LF4*
X82000000Y-97040000D03*
X82000000Y-91960000D03*
G04 #@! TD*
G04 #@! TO.P,J5,1,Pin_1*
G04 #@! TO.N,/LF4*
X75000000Y-97040000D03*
X75000000Y-91960000D03*
G04 #@! TD*
D16*
G04 #@! TO.P,H1,1,1*
G04 #@! TO.N,Earth_Protective*
X148400000Y-87000000D03*
X147697056Y-88697056D03*
X147697056Y-85302944D03*
X146000000Y-89400000D03*
D17*
X146000000Y-87000000D03*
D16*
X146000000Y-84600000D03*
X144302944Y-88697056D03*
X144302944Y-85302944D03*
X143600000Y-87000000D03*
G04 #@! TD*
D22*
G04 #@! TO.P,RV2,1*
G04 #@! TO.N,/LF*
X66750000Y-75700000D03*
G04 #@! TO.P,RV2,2*
G04 #@! TO.N,/N*
X74250000Y-73300000D03*
G04 #@! TD*
D27*
G04 #@! TO.N,GND*
X142180561Y-84479109D02*
X141831829Y-88140799D01*
X136460000Y-95460000D02*
X137000000Y-93750000D01*
X141068719Y-89529885D02*
X137837351Y-92043171D01*
X137104071Y-93229644D02*
X137000000Y-93750000D01*
X136460000Y-98000000D02*
X136460000Y-95460000D01*
X147500000Y-76000000D02*
X146600000Y-79500000D01*
X146600000Y-79500000D02*
X142773877Y-83238166D01*
X142773856Y-83238144D02*
G75*
G03*
X142180561Y-84479109I1397744J-1430556D01*
G01*
X137837368Y-92043193D02*
G75*
G03*
X137104072Y-93229644I1227832J-1578707D01*
G01*
X141068736Y-89529907D02*
G75*
G03*
X141831829Y-88140799I-1227936J1578707D01*
G01*
D28*
G04 #@! TO.N,+12V*
X135550000Y-87100000D02*
X138500000Y-86350000D01*
D27*
X150000000Y-76000000D02*
X150900000Y-79500000D01*
X142407386Y-79500000D02*
X142914028Y-77918990D01*
X148627819Y-73750000D02*
X149914576Y-73750000D01*
X140725000Y-84750000D02*
X142407386Y-79500000D01*
X135639774Y-85115973D02*
X140800000Y-84750000D01*
D28*
X135550000Y-87100000D02*
X133781540Y-87144258D01*
D27*
X133920000Y-98000000D02*
X133781540Y-87144258D01*
X149914576Y-73750000D02*
X150000000Y-76000000D01*
X149720000Y-68625000D02*
X149914576Y-73750000D01*
D28*
X135550000Y-78600000D02*
X138500000Y-78850000D01*
X138500000Y-78850000D02*
X142407386Y-79500000D01*
D27*
X135639774Y-85115978D02*
G75*
G03*
X133781541Y-87144258I141526J-1995022D01*
G01*
X148627819Y-73750018D02*
G75*
G03*
X142914028Y-77918990I-19J-5999982D01*
G01*
D28*
G04 #@! TO.N,/RELAY_RUN*
X135550000Y-91800000D02*
X138500000Y-89650000D01*
G04 #@! TO.N,/RELAY_START*
X135550000Y-83300000D02*
X138500000Y-82150000D01*
D27*
G04 #@! TO.N,Earth_Protective*
X138500000Y-93750000D02*
X146000000Y-87000000D01*
X138500000Y-93750000D02*
X139000000Y-95460000D01*
X139000000Y-95460000D02*
X139000000Y-98000000D01*
D29*
G04 #@! TO.N,/N*
X89309068Y-62690932D02*
X82000000Y-59500000D01*
X87536984Y-66605110D02*
X89309068Y-62690932D01*
X85000000Y-82000000D02*
X77640442Y-78933517D01*
X75407645Y-76574483D02*
X74250000Y-73300000D01*
X89309068Y-62690932D02*
X96642500Y-65892500D01*
X96642500Y-65892500D02*
X104000000Y-68625000D01*
X74250000Y-73300000D02*
X82412206Y-71007636D01*
X75407639Y-76574485D02*
G75*
G03*
X77640442Y-78933517I3771261J1333285D01*
G01*
X82412200Y-71007614D02*
G75*
G03*
X87536984Y-66605110I-2163100J7702014D01*
G01*
G04 #@! TO.N,/LF1*
X122233123Y-79668397D02*
X124050000Y-83600000D01*
X97317243Y-71534748D02*
X118135732Y-76339015D01*
X81642500Y-75892500D02*
X92766933Y-71817914D01*
X124050000Y-83600000D02*
X124050000Y-92100000D01*
X97317247Y-71534732D02*
G75*
G03*
X92766933Y-71817914I-1798847J-7795168D01*
G01*
X122233157Y-79668381D02*
G75*
G03*
X118135732Y-76339015I-5446557J-2517019D01*
G01*
G04 #@! TO.N,/LF*
X66750000Y-75700000D02*
X62000000Y-82000000D01*
X76120000Y-67000000D02*
X81642500Y-65892500D01*
X68850000Y-67000000D02*
X66750000Y-75700000D01*
X68850000Y-67000000D02*
X76120000Y-67000000D01*
D30*
G04 #@! TO.N,/L*
X77522631Y-51000000D02*
X72000000Y-51000000D01*
D29*
X59770000Y-67000000D02*
X52500000Y-67000000D01*
D30*
X95755525Y-61000000D02*
X100000000Y-61000000D01*
X104000000Y-57000000D02*
X104000000Y-48305000D01*
D29*
X59770000Y-67000000D02*
X68000000Y-59500000D01*
D30*
X68000000Y-55000000D02*
X68000000Y-59500000D01*
X80122686Y-51960310D02*
X86537149Y-57447040D01*
X87678205Y-58131773D02*
X94296526Y-60724422D01*
X80122673Y-51960325D02*
G75*
G03*
X77522631Y-51000000I-2600073J-3039675D01*
G01*
X86537154Y-57447034D02*
G75*
G03*
X87678205Y-58131772I2600046J3039634D01*
G01*
X72000000Y-51000000D02*
G75*
G03*
X68000000Y-55000000I0J-4000000D01*
G01*
X100000000Y-61000000D02*
G75*
G03*
X104000000Y-57000000I0J4000000D01*
G01*
X94296523Y-60724431D02*
G75*
G03*
X95755525Y-61000000I1458977J3724431D01*
G01*
D29*
G04 #@! TO.N,/LF3*
X117050000Y-83600000D02*
X108550000Y-84250000D01*
G04 #@! TO.N,/LF2*
X111450000Y-91750000D02*
X117050000Y-92100000D01*
D27*
X94750000Y-82000000D02*
X97000000Y-82000000D01*
D29*
X97000000Y-82000000D02*
X96000000Y-91960000D01*
X96000000Y-91960000D02*
X111450000Y-91750000D01*
D27*
G04 #@! TO.N,/LF5*
X91825000Y-82000000D02*
X89500000Y-82000000D01*
D29*
X89500000Y-82000000D02*
X89397729Y-82818171D01*
X89561694Y-81197974D02*
X89500000Y-82000000D01*
X68000000Y-91637147D02*
X68000000Y-91960000D01*
X92018019Y-77809722D02*
X96642500Y-75892500D01*
X85807853Y-86304014D02*
X71620764Y-87655165D01*
X85807852Y-86304002D02*
G75*
G03*
X89397729Y-82818171I-379252J3982002D01*
G01*
X71620764Y-87655168D02*
G75*
G03*
X68000000Y-91637147I379236J-3981982D01*
G01*
X92018035Y-77809760D02*
G75*
G03*
X89561694Y-81197974I1531865J-3695040D01*
G01*
G04 #@! TD*
G04 #@! TA.AperFunction,Conductor*
G04 #@! TO.N,/LF5*
G36*
X69443039Y-90269685D02*
G01*
X69488794Y-90322489D01*
X69500000Y-90374000D01*
X69500000Y-98376000D01*
X69480315Y-98443039D01*
X69427511Y-98488794D01*
X69376000Y-98500000D01*
X59624000Y-98500000D01*
X59556961Y-98480315D01*
X59511206Y-98427511D01*
X59500000Y-98376000D01*
X59500000Y-91606877D01*
X59500500Y-91601484D01*
X59500500Y-90374000D01*
X59520185Y-90306961D01*
X59572989Y-90261206D01*
X59624500Y-90250000D01*
X69376000Y-90250000D01*
X69443039Y-90269685D01*
G37*
G04 #@! TD.AperFunction*
G04 #@! TD*
G04 #@! TA.AperFunction,Conductor*
G04 #@! TO.N,/LF2*
G36*
X97443039Y-90269685D02*
G01*
X97488794Y-90322489D01*
X97500000Y-90374000D01*
X97500000Y-98376000D01*
X97480315Y-98443039D01*
X97427511Y-98488794D01*
X97376000Y-98500000D01*
X87624000Y-98500000D01*
X87556961Y-98480315D01*
X87511206Y-98427511D01*
X87500000Y-98376000D01*
X87500000Y-90374000D01*
X87519685Y-90306961D01*
X87572489Y-90261206D01*
X87624000Y-90250000D01*
X97376000Y-90250000D01*
X97443039Y-90269685D01*
G37*
G04 #@! TD.AperFunction*
G04 #@! TD*
G04 #@! TA.AperFunction,Conductor*
G04 #@! TO.N,/LF4*
G36*
X83443039Y-90269685D02*
G01*
X83488794Y-90322489D01*
X83500000Y-90374000D01*
X83500000Y-98376000D01*
X83480315Y-98443039D01*
X83427511Y-98488794D01*
X83376000Y-98500000D01*
X73624000Y-98500000D01*
X73556961Y-98480315D01*
X73511206Y-98427511D01*
X73500000Y-98376000D01*
X73500000Y-90374000D01*
X73519685Y-90306961D01*
X73572489Y-90261206D01*
X73624000Y-90250000D01*
X83376000Y-90250000D01*
X83443039Y-90269685D01*
G37*
G04 #@! TD.AperFunction*
G04 #@! TD*
M02*
